//Grammar 16long_grammar
[stochastic]
1 ( 1 ) 0.117647058823529
1 ( 121  122 ) 0.882352941176471
121 ( 1 ) 0.133333333333333
121 ( 12121  12122 ) 0.866666666666667
12121 ( 1 ) 0.538461538461538
12121 ( 1212121  1212122 ) 0.461538461538462
1212121 ( 1 ) 0.666666666666667
1212121 ( 2 ) 0.333333333333333
1212122 ( 1 ) 0.5
1212122 ( 121212221  121212222 ) 0.5
121212221 ( 0 ) 1.0
121212222 ( 1 ) 1.0
12122 ( 1 ) 0.153846153846154
12122 ( 1212221  1212222 ) 0.769230769230769
12122 ( 1212231  1212232  1212233 ) 0.0769230769230769
1212221 ( 0 ) 0.5
1212221 ( 1 ) 0.5
1212222 ( 1 ) 0.5
1212222 ( 121222221  121222222 ) 0.5
121222221 ( 0 ) 1.0
121222222 ( 1 ) 1.0
1212231 ( 0 ) 1.0
1212232 ( 1 ) 1.0
1212233 ( 1 ) 1.0
122 ( 1 ) 0.2
122 ( 12221  12222 ) 0.8
12221 ( 1 ) 0.25
12221 ( 1222121  1222122 ) 0.666666666666667
12221 ( 1222131  1222132  1222133 ) 0.0833333333333333
1222121 ( 1 ) 0.875
1222121 ( 2 ) 0.125
1222122 ( 1 ) 0.625
1222122 ( 122212221  122212222 ) 0.375
122212221 ( 0 ) 1.0
122212222 ( 1 ) 1.0
1222131 ( 1 ) 1.0
1222132 ( 1 ) 1.0
1222133 ( 1 ) 1.0
12222 ( 1 ) 0.166666666666667
12222 ( 1222221  1222222 ) 0.75
12222 ( 1222231  1222232  1222233 ) 0.0833333333333333
1222221 ( 0 ) 0.444444444444444
1222221 ( 1 ) 0.555555555555556
1222222 ( 1 ) 0.666666666666667
1222222 ( 122222221  122222222 ) 0.333333333333333
122222221 ( 0 ) 1.0
122222222 ( 1 ) 1.0
1222231 ( 1 ) 1.0
1222232 ( 1 ) 1.0
1222233 ( 1 ) 1.0
