\relax 
\providecommand\hyper@newdestlabel[2]{}
\@writefile{toc}{\contentsline {section}{\numberline {13.4}Segment module}{47}{section.13.4}}
\newlabel{group__segment}{{13.4}{47}{Segment module}{section.13.4}{}}
\newlabel{group__segment_ga8156ae2f00d13429f64689ba96dca4cc}{{13.4}{47}{Typedefs}{section*.15}{}}
\newlabel{group__segment_gaa5d5d2dd440400af33e39d031cb08fa5}{{13.4}{48}{Functions}{section*.16}{}}
\newlabel{group__segment_ga6c33ecb9851e077e90345090b15c87c3}{{13.4}{48}{Functions}{section*.16}{}}
\newlabel{group__segment_ga2f4c47a191d9e8f503a8a18bfba89f2c}{{13.4}{48}{Functions}{section*.16}{}}
\newlabel{group__segment_gac85491c9b09a0e009fe58f15da5e88ab}{{13.4}{48}{Functions}{section*.16}{}}
\newlabel{group__segment_gade87c7b11c1a1fdbcd922e08b3eaa3c5}{{13.4}{48}{Functions}{section*.16}{}}
\newlabel{group__segment_ga7d6e1aa31e5a2132257840adeb5bf23f}{{13.4}{48}{Functions}{section*.16}{}}
\newlabel{group__segment_gad95cc714e40b63c5df8e1dc41305178e}{{13.4}{48}{Functions}{section*.16}{}}
\newlabel{group__segment_gaf9d08e42ae7632f815ad7bd3c093b497}{{13.4}{48}{Functions}{section*.16}{}}
\newlabel{group__segment_ga0b4ffecf00942ad046a9ea6785319f6f}{{13.4}{48}{Functions}{section*.16}{}}
\newlabel{group__segment_gab3a698d42f743ce361da6916209eca88}{{13.4}{48}{Functions}{section*.16}{}}
\newlabel{group__segment_gaeba3d7c6ab7481a52f2cd4ce980c08ca}{{13.4}{48}{Functions}{section*.16}{}}
\newlabel{group__segment_ga7c5e53ea6aa75682a2320bdf2f6f17fa}{{13.4}{48}{Functions}{section*.16}{}}
\newlabel{group__segment_ga696a465764983bfca52bcd6406e373f9}{{13.4}{48}{Functions}{section*.16}{}}
\newlabel{group__segment_ga5bf2bf3fe1a1791989ec52969aace0a5}{{13.4}{48}{Functions}{section*.16}{}}
\newlabel{group__segment_ga304aac2ec620d785bbfb67996a7a613b}{{13.4}{48}{Functions}{section*.16}{}}
\newlabel{group__segment_ga40f7de6ee8d8b73172ca1dbfa54bfe62}{{13.4}{48}{Functions}{section*.16}{}}
\newlabel{group__segment_gaeb6593290d19ff04137c3f3c3e9e3175}{{13.4}{48}{Functions}{section*.16}{}}
\newlabel{group__segment_ga85de404c4ddf91a51bf0c29c6dbe1d77}{{13.4}{48}{Functions}{section*.16}{}}
\newlabel{group__segment_ga1a6a8f006c2d11e8f4af7250a6fb0b16}{{13.4}{48}{Functions}{section*.16}{}}
\newlabel{group__segment_ga0ca7fa41c0dadabbaa112fdde9e48492}{{13.4}{48}{Functions}{section*.16}{}}
\newlabel{group__segment_ga05fee2bd8565c3076a6d800e37d7ab63}{{13.4}{48}{Functions}{section*.16}{}}
\newlabel{group__segment_gaccf3b9127fc3d068a95af19f46d9052d}{{13.4}{48}{Functions}{section*.16}{}}
\newlabel{group__segment_ga1cc736fda27974f59c2e2dfc44eedf9e}{{13.4}{48}{Functions}{section*.16}{}}
\newlabel{group__segment_gaff8f8c77de90a74f028f2e7a6ea32f90}{{13.4}{48}{Functions}{section*.16}{}}
\newlabel{group__segment_ga9eae7fefbf0884764ff6a75fc5fa063b}{{13.4}{48}{Functions}{section*.16}{}}
\newlabel{group__segment_ga82a64bae54200b634bc42ac06dc7a916}{{13.4}{48}{Functions}{section*.16}{}}
\newlabel{group__segment_ga2c58dc6e5e032dc7fee299be296371e4}{{13.4}{49}{Functions}{section*.16}{}}
\newlabel{group__segment_gabb9443e79fcefd19a5c7b65c4e54102a}{{13.4}{49}{Functions}{section*.16}{}}
\newlabel{group__segment_ga2dbfcbf9664a10c1245e298b9257d5cd}{{13.4}{49}{Functions}{section*.16}{}}
\newlabel{group__segment_gafaa215f8df4e03b3e22c4c5eb3e494ca}{{13.4}{49}{Functions}{section*.16}{}}
\newlabel{group__segment_ga7c26187b3e70ea62bd10b9b15284a99a}{{13.4}{49}{Functions}{section*.16}{}}
\newlabel{group__segment_ga5ce66f635c2ab912e0ec9662c5c2ceaf}{{13.4}{49}{Functions}{section*.16}{}}
\newlabel{group__segment_gafbf05e143d416de49180d2f18a53977b}{{13.4}{49}{Functions}{section*.16}{}}
\newlabel{group__segment_ga6fce03f54fe517cc9541ea446cd26a50}{{13.4}{49}{Functions}{section*.16}{}}
\newlabel{group__segment_ga2c16ef8a681bf9fded1dba29c1a84342}{{13.4}{49}{Functions}{section*.16}{}}
\newlabel{group__segment_gae75db088893a7cfc719ec393e09d7ece}{{13.4}{49}{Functions}{section*.16}{}}
\newlabel{group__segment_ga623c2367191018ecac046e7e11f14976}{{13.4}{49}{Functions}{section*.16}{}}
\newlabel{group__segment_ga17cfcca410ae94fe906dfcdb726026f5}{{13.4}{49}{Functions}{section*.16}{}}
\newlabel{group__segment_ga43e7da7f24dfa17fccdd0dd40a96f458}{{13.4}{50}{Functions}{section*.16}{}}
\newlabel{group__segment_ga6508f58e15c54be6146d5505d91a4b91}{{13.4}{50}{Functions}{section*.16}{}}
\newlabel{group__segment_ga4b0896bf3843fec18d68a130fe9a49f6}{{13.4}{50}{Functions}{section*.16}{}}
\newlabel{group__segment_ga3af4cc83b5ee3d320fa5b24fa244fabb}{{13.4}{50}{Functions}{section*.16}{}}
\newlabel{group__segment_ga4a873d9f7d804928f972a3c11d2a1df0}{{13.4}{50}{Functions}{section*.16}{}}
\newlabel{group__segment_ga87e6be639c7435053444d83913505c1b}{{13.4}{50}{Functions}{section*.16}{}}
\newlabel{group__segment_ga00b69e8f1bf80a478fce420d5d378c17}{{13.4}{50}{Functions}{section*.16}{}}
\newlabel{group__segment_ga40f47305a4bd7afbf26a4fbee663dd27}{{13.4}{50}{Functions}{section*.16}{}}
\newlabel{group__segment_gaafcefa86601b97d137cfba40ed349414}{{13.4}{50}{Functions}{section*.16}{}}
\newlabel{group__segment_gac4e65b67dedabe1736d414b8b4ab7e91}{{13.4}{50}{Functions}{section*.16}{}}
\newlabel{group__segment_ga6ebb6acd4c78929d31a4831c58911639}{{13.4}{50}{Functions}{section*.16}{}}
\newlabel{group__segment_ga0b9fce9fff8648eae4a51a77957fab45}{{13.4}{50}{Functions}{section*.16}{}}
\newlabel{group__segment_gaeeb3a0d391bef4a285f1be45d31e63be}{{13.4}{50}{Functions}{section*.16}{}}
\newlabel{group__segment_ga1bd25b8699a9ed866f11f62a844645f7}{{13.4}{50}{Functions}{section*.16}{}}
\newlabel{group__segment_ga135e904aa3f5ea4d375e451281fe5323}{{13.4}{50}{Functions}{section*.16}{}}
\newlabel{group__segment_ga9250db2a9fadb2184d60187e38ee02cc}{{13.4}{50}{Functions}{section*.16}{}}
\newlabel{group__segment_ga2fe5abb4cd9fbe000b1ec13114d60049}{{13.4}{50}{Functions}{section*.16}{}}
\newlabel{group__segment_gafa25174e584b872e814643c895cad283}{{13.4}{50}{Functions}{section*.16}{}}
\newlabel{group__segment_ga006e3062fd920202aab9e36f6a0e394e}{{13.4}{50}{Functions}{section*.16}{}}
\newlabel{group__segment_ga5f00500846d251b165f48a41552be18e}{{13.4}{50}{Functions}{section*.16}{}}
\newlabel{group__segment_ga522126acc9eb79e737068941370bb172}{{13.4}{50}{Functions}{section*.16}{}}
\newlabel{group__segment_ga07139fb89dcc2388b299b9e6464b3177}{{13.4}{50}{Functions}{section*.16}{}}
\newlabel{group__segment_gafef7a93b7ba8e96efc8d2b179c69a830}{{13.4}{51}{Functions}{section*.16}{}}
\newlabel{group__segment_ga09a5f5040f1902afa6d81520cf7bd084}{{13.4}{51}{Functions}{section*.16}{}}
\newlabel{group__segment_gafb10e8f7a064ee15f75e4ba5609c682b}{{13.4}{51}{Functions}{section*.16}{}}
\newlabel{group__segment_ga738dc72ab88cf6a09d89338e4f1d4b91}{{13.4}{51}{Functions}{section*.16}{}}
\newlabel{group__segment_gab361cf1a2c8b9dca6e5abd8069e2d81d}{{13.4}{51}{Functions}{section*.16}{}}
\newlabel{group__segment_ga6cb7f450eee39d3bd8483f017f28906d}{{13.4}{51}{Functions}{section*.16}{}}
\newlabel{group__segment_ga1055933b999ef990df6b48745c27a197}{{13.4}{51}{Functions}{section*.16}{}}
\newlabel{group__segment_gaf6904981d6c631a7756499cd0b42ce29}{{13.4}{51}{Functions}{section*.16}{}}
\newlabel{group__segment_ga80277d41d835c643826b4e813490849a}{{13.4}{51}{Functions}{section*.16}{}}
\newlabel{group__segment_gae521f98807e13c4e0019b561565cda18}{{13.4}{51}{Functions}{section*.16}{}}
\newlabel{group__segment_gab4085951f6e5264f912feadf327a8c81}{{13.4}{51}{Functions}{section*.16}{}}
\newlabel{group__segment_ga50ce60a751c8ad173a53ccee629a4598}{{13.4}{51}{Functions}{section*.16}{}}
\newlabel{group__segment_ga81b9a0d474b385cf0335523d49cc9fc1}{{13.4}{51}{Functions}{section*.16}{}}
\newlabel{group__segment_gaf7d46ab9c2b5dd8e11ec4a940dea3d03}{{13.4}{51}{Functions}{section*.16}{}}
\newlabel{group__segment_gaba2eabd0e4626b56685968ea53153b3b}{{13.4}{51}{Functions}{section*.16}{}}
\newlabel{group__segment_ga22a391f4c1fa697f1d320d1a659f130f}{{13.4}{51}{Functions}{section*.16}{}}
\newlabel{group__segment_ga055480a382a6fde05bde51abed31a56c}{{13.4}{51}{Functions}{section*.16}{}}
\newlabel{group__segment_ga5e0ecbf9869effe45cacf0c1a191615c}{{13.4}{51}{Variables}{section*.17}{}}
\newlabel{group__segment_ga8193b78df3a269acf7296393a522aafc}{{13.4}{51}{Variables}{section*.17}{}}
\newlabel{group__segment_ga8222a08cf48e372acab91765b3635ec5}{{13.4}{51}{Variables}{section*.17}{}}
\newlabel{group__segment_gad2dfc170c7179a5e8d1320edcbdf39ff}{{13.4}{51}{Variables}{section*.17}{}}
\newlabel{group__segment_ga34db231ac148899756f4a87f8d84f15f}{{13.4}{51}{Variables}{section*.17}{}}
\newlabel{group__segment_ga9e7612a2360f35684ff1228936e58a30}{{13.4}{51}{Variables}{section*.17}{}}
\newlabel{group__segment_ga51da52124dc1108e143b2a9f73537ada}{{13.4}{51}{Variables}{section*.17}{}}
\newlabel{group__segment_ga814ef312c571ae51a0007c1d5a6a0b17}{{13.4}{51}{Variables}{section*.17}{}}
\@writefile{toc}{\contentsline {subsection}{\numberline {13.4.1}Detailed Description}{51}{subsection.13.4.1}}
\gdef \LT@vii {\LT@entry 
    {3}{39.31342pt}\LT@entry 
    {3}{261.8298pt}}
\gdef \LT@viii {\LT@entry 
    {3}{39.31342pt}\LT@entry 
    {3}{317.50192pt}}
\@writefile{toc}{\contentsline {subsection}{\numberline {13.4.2}Function Documentation}{52}{subsection.13.4.2}}
\newlabel{group__segment_ga7e9399ce64bb21aa2d2c3cd682ca95da}{{13.4.2}{52}{Function Documentation}{subsection.13.4.2}{}}
\@writefile{toc}{\contentsline {subsubsection}{\numberline {13.4.2.1}AlignedInterval()\hspace  {0.1cm}{\relax \fontsize  {8}{9.5}\selectfont  \abovedisplayskip 6\p@ plus2\p@ minus4\p@ \abovedisplayshortskip \z@ plus\p@ \belowdisplayshortskip 3\p@ plus\p@ minus2\p@ \def \leftmargin \leftmargini \parsep 4\p@ plus2\p@ minus\p@ \topsep 8\p@ plus2\p@ minus4\p@ \itemsep 4\p@ plus2\p@ minus\p@ {\leftmargin \leftmargini \topsep 3\p@ plus\p@ minus\p@ \parsep 2\p@ plus\p@ minus\p@ \itemsep \parsep }\belowdisplayskip \abovedisplayskip \ttfamily  [1/2]}}{52}{subsubsection.13.4.2.1}}
\newlabel{group__segment_ga4aa5548293e2dcd94ab3845d9a8fe492}{{13.4.2.1}{52}{\texorpdfstring {AlignedInterval()}{AlignedInterval()}\hspace {0.1cm}{\footnotesize \ttfamily [1/2]}}{table.13.7}{}}
\@writefile{toc}{\contentsline {subsubsection}{\numberline {13.4.2.2}AlignedInterval()\hspace  {0.1cm}{\relax \fontsize  {8}{9.5}\selectfont  \abovedisplayskip 6\p@ plus2\p@ minus4\p@ \abovedisplayshortskip \z@ plus\p@ \belowdisplayshortskip 3\p@ plus\p@ minus2\p@ \def \leftmargin \leftmargini \parsep 4\p@ plus2\p@ minus\p@ \topsep 8\p@ plus2\p@ minus4\p@ \itemsep 4\p@ plus2\p@ minus\p@ {\leftmargin \leftmargini \topsep 3\p@ plus\p@ minus\p@ \parsep 2\p@ plus\p@ minus\p@ \itemsep \parsep }\belowdisplayskip \abovedisplayskip \ttfamily  [2/2]}}{52}{subsubsection.13.4.2.2}}
\newlabel{group__segment_ga25f42094dbb3623c73df11dd85596185}{{13.4.2.2}{52}{\texorpdfstring {AlignedInterval()}{AlignedInterval()}\hspace {0.1cm}{\footnotesize \ttfamily [2/2]}}{table.13.8}{}}
\@writefile{toc}{\contentsline {subsubsection}{\numberline {13.4.2.3}align()}{52}{subsubsection.13.4.2.3}}
\gdef \LT@ix {\LT@entry 
    {3}{17.8039pt}\LT@entry 
    {3}{437.44022pt}}
\gdef \LT@x {\LT@entry 
    {3}{17.8039pt}\LT@entry 
    {3}{159.19595pt}}
\gdef \LT@xi {\LT@entry 
    {3}{17.29996pt}\LT@entry 
    {3}{378.81645pt}}
\newlabel{group__segment_gafad6a7eea9e5892cfae9986f6263a738}{{13.4.2.3}{53}{\texorpdfstring {align()}{align()}}{table.13.9}{}}
\@writefile{toc}{\contentsline {subsubsection}{\numberline {13.4.2.4}rewind()}{53}{subsubsection.13.4.2.4}}
\newlabel{group__segment_ga35cbd86caf5c17f8d59559ae0b28febf}{{13.4.2.4}{53}{\texorpdfstring {rewind()}{rewind()}}{table.13.10}{}}
\@writefile{toc}{\contentsline {subsubsection}{\numberline {13.4.2.5}Environment()}{53}{subsubsection.13.4.2.5}}
\newlabel{group__segment_gaec471ec05052a932b1bb2738bfc8b172}{{13.4.2.5}{53}{\texorpdfstring {Environment()}{Environment()}}{table.13.11}{}}
\@writefile{toc}{\contentsline {subsubsection}{\numberline {13.4.2.6}InputSegment()\hspace  {0.1cm}{\relax \fontsize  {8}{9.5}\selectfont  \abovedisplayskip 6\p@ plus2\p@ minus4\p@ \abovedisplayshortskip \z@ plus\p@ \belowdisplayshortskip 3\p@ plus\p@ minus2\p@ \def \leftmargin \leftmargini \parsep 4\p@ plus2\p@ minus\p@ \topsep 8\p@ plus2\p@ minus4\p@ \itemsep 4\p@ plus2\p@ minus\p@ {\leftmargin \leftmargini \topsep 3\p@ plus\p@ minus\p@ \parsep 2\p@ plus\p@ minus\p@ \itemsep \parsep }\belowdisplayskip \abovedisplayskip \ttfamily  [1/2]}}{53}{subsubsection.13.4.2.6}}
\gdef \LT@xii {\LT@entry 
    {3}{17.8039pt}\LT@entry 
    {3}{101.79504pt}}
\gdef \LT@xiii {\LT@entry 
    {3}{17.8039pt}\LT@entry 
    {3}{120.62271pt}}
\gdef \LT@xiv {\LT@entry 
    {3}{14.79794pt}\LT@entry 
    {3}{156.883pt}}
\newlabel{group__segment_ga58d6af0b8186068f4bc26f58e6e62eef}{{13.4.2.6}{55}{\texorpdfstring {InputSegment()}{InputSegment()}\hspace {0.1cm}{\footnotesize \ttfamily [1/2]}}{table.13.12}{}}
\@writefile{toc}{\contentsline {subsubsection}{\numberline {13.4.2.7}InputSegment()\hspace  {0.1cm}{\relax \fontsize  {8}{9.5}\selectfont  \abovedisplayskip 6\p@ plus2\p@ minus4\p@ \abovedisplayshortskip \z@ plus\p@ \belowdisplayshortskip 3\p@ plus\p@ minus2\p@ \def \leftmargin \leftmargini \parsep 4\p@ plus2\p@ minus\p@ \topsep 8\p@ plus2\p@ minus4\p@ \itemsep 4\p@ plus2\p@ minus\p@ {\leftmargin \leftmargini \topsep 3\p@ plus\p@ minus\p@ \parsep 2\p@ plus\p@ minus\p@ \itemsep \parsep }\belowdisplayskip \abovedisplayskip \ttfamily  [2/2]}}{55}{subsubsection.13.4.2.7}}
\newlabel{group__segment_ga43310a16681e2241b20da4b68de9f35b}{{13.4.2.7}{55}{\texorpdfstring {InputSegment()}{InputSegment()}\hspace {0.1cm}{\footnotesize \ttfamily [2/2]}}{table.13.13}{}}
\@writefile{toc}{\contentsline {subsubsection}{\numberline {13.4.2.8}link()}{55}{subsubsection.13.4.2.8}}
\newlabel{group__segment_gabb6224ab371e84d2048f3c9e2692d15d}{{13.4.2.8}{55}{\texorpdfstring {link()}{link()}}{table.13.14}{}}
\@writefile{toc}{\contentsline {subsubsection}{\numberline {13.4.2.9}add\_back()}{56}{subsubsection.13.4.2.9}}
\newlabel{group__segment_gad44eb7379e181fc4295ee2514a568204}{{13.4.2.9}{56}{\texorpdfstring {add\_back()}{add\_back()}}{subsubsection.13.4.2.9}{}}
\@writefile{toc}{\contentsline {subsubsection}{\numberline {13.4.2.10}add\_floating()}{56}{subsubsection.13.4.2.10}}
\newlabel{group__segment_ga5463f900db31be4b7d109e88a710971f}{{13.4.2.10}{56}{\texorpdfstring {add\_floating()}{add\_floating()}}{subsubsection.13.4.2.10}{}}
\@writefile{toc}{\contentsline {subsubsection}{\numberline {13.4.2.11}point()}{56}{subsubsection.13.4.2.11}}
\gdef \LT@xv {\LT@entry 
    {3}{14.79794pt}\LT@entry 
    {3}{161.5809pt}}
\newlabel{group__segment_ga2d78677ab3ea44ae91034c4e312e778c}{{13.4.2.11}{57}{\texorpdfstring {point()}{point()}}{table.13.15}{}}
\@writefile{toc}{\contentsline {subsubsection}{\numberline {13.4.2.12}respell()\hspace  {0.1cm}{\relax \fontsize  {8}{9.5}\selectfont  \abovedisplayskip 6\p@ plus2\p@ minus4\p@ \abovedisplayshortskip \z@ plus\p@ \belowdisplayshortskip 3\p@ plus\p@ minus2\p@ \def \leftmargin \leftmargini \parsep 4\p@ plus2\p@ minus\p@ \topsep 8\p@ plus2\p@ minus4\p@ \itemsep 4\p@ plus2\p@ minus\p@ {\leftmargin \leftmargini \topsep 3\p@ plus\p@ minus\p@ \parsep 2\p@ plus\p@ minus\p@ \itemsep \parsep }\belowdisplayskip \abovedisplayskip \ttfamily  [1/2]}}{57}{subsubsection.13.4.2.12}}
\newlabel{group__segment_gac79787254008e05d9f54226d93dcb0cb}{{13.4.2.12}{57}{\texorpdfstring {respell()}{respell()}\hspace {0.1cm}{\footnotesize \ttfamily [1/2]}}{subsubsection.13.4.2.12}{}}
\@writefile{toc}{\contentsline {subsubsection}{\numberline {13.4.2.13}respell()\hspace  {0.1cm}{\relax \fontsize  {8}{9.5}\selectfont  \abovedisplayskip 6\p@ plus2\p@ minus4\p@ \abovedisplayshortskip \z@ plus\p@ \belowdisplayshortskip 3\p@ plus\p@ minus2\p@ \def \leftmargin \leftmargini \parsep 4\p@ plus2\p@ minus\p@ \topsep 8\p@ plus2\p@ minus4\p@ \itemsep 4\p@ plus2\p@ minus\p@ {\leftmargin \leftmargini \topsep 3\p@ plus\p@ minus\p@ \parsep 2\p@ plus\p@ minus\p@ \itemsep \parsep }\belowdisplayskip \abovedisplayskip \ttfamily  [2/2]}}{57}{subsubsection.13.4.2.13}}
\newlabel{group__segment_ga42c65e4989c84fbce42115d8e7813f8e}{{13.4.2.13}{57}{\texorpdfstring {respell()}{respell()}\hspace {0.1cm}{\footnotesize \ttfamily [2/2]}}{subsubsection.13.4.2.13}{}}
\@writefile{toc}{\contentsline {subsubsection}{\numberline {13.4.2.14}quantize()}{57}{subsubsection.13.4.2.14}}
\newlabel{group__segment_gab4c42d088ce3d170b7899712789ab464}{{13.4.2.14}{57}{\texorpdfstring {quantize()}{quantize()}}{subsubsection.13.4.2.14}{}}
\@writefile{toc}{\contentsline {subsubsection}{\numberline {13.4.2.15}quantizu()}{58}{subsubsection.13.4.2.15}}
\newlabel{group__segment_gad033d12a18d0f8cd7a8b0a2f5f029db2}{{13.4.2.15}{58}{\texorpdfstring {quantizu()}{quantizu()}}{subsubsection.13.4.2.15}{}}
\@writefile{toc}{\contentsline {subsubsection}{\numberline {13.4.2.16}InputSegmentMono()}{58}{subsubsection.13.4.2.16}}
\newlabel{group__segment_gaa05ab07eeaf10f35e57552ab045ac548}{{13.4.2.16}{58}{\texorpdfstring {InputSegmentMono()}{InputSegmentMono()}}{subsubsection.13.4.2.16}{}}
\@writefile{toc}{\contentsline {subsubsection}{\numberline {13.4.2.17}InputSegmentNogap()}{58}{subsubsection.13.4.2.17}}
\newlabel{group__segment_gadfaf31fca3f5e5da49e37c7baa275125}{{13.4.2.17}{58}{\texorpdfstring {InputSegmentNogap()}{InputSegmentNogap()}}{subsubsection.13.4.2.17}{}}
\@writefile{toc}{\contentsline {subsubsection}{\numberline {13.4.2.18}Interval()\hspace  {0.1cm}{\relax \fontsize  {8}{9.5}\selectfont  \abovedisplayskip 6\p@ plus2\p@ minus4\p@ \abovedisplayshortskip \z@ plus\p@ \belowdisplayshortskip 3\p@ plus\p@ minus2\p@ \def \leftmargin \leftmargini \parsep 4\p@ plus2\p@ minus\p@ \topsep 8\p@ plus2\p@ minus4\p@ \itemsep 4\p@ plus2\p@ minus\p@ {\leftmargin \leftmargini \topsep 3\p@ plus\p@ minus\p@ \parsep 2\p@ plus\p@ minus\p@ \itemsep \parsep }\belowdisplayskip \abovedisplayskip \ttfamily  [1/2]}}{59}{subsubsection.13.4.2.18}}
\newlabel{group__segment_gaefc21b7c838661c05286304f6d891690}{{13.4.2.18}{59}{\texorpdfstring {Interval()}{Interval()}\hspace {0.1cm}{\footnotesize \ttfamily [1/2]}}{subsubsection.13.4.2.18}{}}
\@writefile{toc}{\contentsline {subsubsection}{\numberline {13.4.2.19}Interval()\hspace  {0.1cm}{\relax \fontsize  {8}{9.5}\selectfont  \abovedisplayskip 6\p@ plus2\p@ minus4\p@ \abovedisplayshortskip \z@ plus\p@ \belowdisplayshortskip 3\p@ plus\p@ minus2\p@ \def \leftmargin \leftmargini \parsep 4\p@ plus2\p@ minus\p@ \topsep 8\p@ plus2\p@ minus4\p@ \itemsep 4\p@ plus2\p@ minus\p@ {\leftmargin \leftmargini \topsep 3\p@ plus\p@ minus\p@ \parsep 2\p@ plus\p@ minus\p@ \itemsep \parsep }\belowdisplayskip \abovedisplayskip \ttfamily  [2/2]}}{59}{subsubsection.13.4.2.19}}
\newlabel{group__segment_gad7fd7dd4ddb8d520df0985e67d180019}{{13.4.2.19}{59}{\texorpdfstring {Interval()}{Interval()}\hspace {0.1cm}{\footnotesize \ttfamily [2/2]}}{subsubsection.13.4.2.19}{}}
\@writefile{toc}{\contentsline {subsubsection}{\numberline {13.4.2.20}make()\hspace  {0.1cm}{\relax \fontsize  {8}{9.5}\selectfont  \abovedisplayskip 6\p@ plus2\p@ minus4\p@ \abovedisplayshortskip \z@ plus\p@ \belowdisplayshortskip 3\p@ plus\p@ minus2\p@ \def \leftmargin \leftmargini \parsep 4\p@ plus2\p@ minus\p@ \topsep 8\p@ plus2\p@ minus4\p@ \itemsep 4\p@ plus2\p@ minus\p@ {\leftmargin \leftmargini \topsep 3\p@ plus\p@ minus\p@ \parsep 2\p@ plus\p@ minus\p@ \itemsep \parsep }\belowdisplayskip \abovedisplayskip \ttfamily  [1/2]}}{59}{subsubsection.13.4.2.20}}
\newlabel{group__segment_gad886d53d2881a80f06c6f9fbf202d727}{{13.4.2.20}{59}{\texorpdfstring {make()}{make()}\hspace {0.1cm}{\footnotesize \ttfamily [1/2]}}{subsubsection.13.4.2.20}{}}
\@writefile{toc}{\contentsline {subsubsection}{\numberline {13.4.2.21}make()\hspace  {0.1cm}{\relax \fontsize  {8}{9.5}\selectfont  \abovedisplayskip 6\p@ plus2\p@ minus4\p@ \abovedisplayshortskip \z@ plus\p@ \belowdisplayshortskip 3\p@ plus\p@ minus2\p@ \def \leftmargin \leftmargini \parsep 4\p@ plus2\p@ minus\p@ \topsep 8\p@ plus2\p@ minus4\p@ \itemsep 4\p@ plus2\p@ minus\p@ {\leftmargin \leftmargini \topsep 3\p@ plus\p@ minus\p@ \parsep 2\p@ plus\p@ minus\p@ \itemsep \parsep }\belowdisplayskip \abovedisplayskip \ttfamily  [2/2]}}{60}{subsubsection.13.4.2.21}}
\newlabel{group__segment_gab092e4338aa4c3369c4fa4404d8706b0}{{13.4.2.21}{60}{\texorpdfstring {make()}{make()}\hspace {0.1cm}{\footnotesize \ttfamily [2/2]}}{subsubsection.13.4.2.21}{}}
\@writefile{toc}{\contentsline {subsubsection}{\numberline {13.4.2.22}IntervalTree()\hspace  {0.1cm}{\relax \fontsize  {8}{9.5}\selectfont  \abovedisplayskip 6\p@ plus2\p@ minus4\p@ \abovedisplayshortskip \z@ plus\p@ \belowdisplayshortskip 3\p@ plus\p@ minus2\p@ \def \leftmargin \leftmargini \parsep 4\p@ plus2\p@ minus\p@ \topsep 8\p@ plus2\p@ minus4\p@ \itemsep 4\p@ plus2\p@ minus\p@ {\leftmargin \leftmargini \topsep 3\p@ plus\p@ minus\p@ \parsep 2\p@ plus\p@ minus\p@ \itemsep \parsep }\belowdisplayskip \abovedisplayskip \ttfamily  [1/2]}}{60}{subsubsection.13.4.2.22}}
\newlabel{group__segment_gac16f2a8d9c584a869bbed6a263914360}{{13.4.2.22}{60}{\texorpdfstring {IntervalTree()}{IntervalTree()}\hspace {0.1cm}{\footnotesize \ttfamily [1/2]}}{subsubsection.13.4.2.22}{}}
\@writefile{toc}{\contentsline {subsubsection}{\numberline {13.4.2.23}IntervalTree()\hspace  {0.1cm}{\relax \fontsize  {8}{9.5}\selectfont  \abovedisplayskip 6\p@ plus2\p@ minus4\p@ \abovedisplayshortskip \z@ plus\p@ \belowdisplayshortskip 3\p@ plus\p@ minus2\p@ \def \leftmargin \leftmargini \parsep 4\p@ plus2\p@ minus\p@ \topsep 8\p@ plus2\p@ minus4\p@ \itemsep 4\p@ plus2\p@ minus\p@ {\leftmargin \leftmargini \topsep 3\p@ plus\p@ minus\p@ \parsep 2\p@ plus\p@ minus\p@ \itemsep \parsep }\belowdisplayskip \abovedisplayskip \ttfamily  [2/2]}}{60}{subsubsection.13.4.2.23}}
\gdef \LT@xvi {\LT@entry 
    {3}{22.30386pt}\LT@entry 
    {3}{131.50346pt}}
\gdef \LT@xvii {\LT@entry 
    {3}{33.30164pt}\LT@entry 
    {3}{107.60902pt}}
\newlabel{group__segment_ga0c04840a0d05d3b0d4b99e654d72b81b}{{13.4.2.23}{61}{\texorpdfstring {IntervalTree()}{IntervalTree()}\hspace {0.1cm}{\footnotesize \ttfamily [2/2]}}{table.13.16}{}}
\@writefile{toc}{\contentsline {subsubsection}{\numberline {13.4.2.24}top()}{61}{subsubsection.13.4.2.24}}
\newlabel{group__segment_gae9e8f6ca3fa4093cfcd1428e9f41d048}{{13.4.2.24}{61}{\texorpdfstring {top()}{top()}}{subsubsection.13.4.2.24}{}}
\@writefile{toc}{\contentsline {subsubsection}{\numberline {13.4.2.25}split()}{61}{subsubsection.13.4.2.25}}
\newlabel{group__segment_ga5b1393db865d0dd81249033dd99ecd5c}{{13.4.2.25}{61}{\texorpdfstring {split()}{split()}}{table.13.17}{}}
\gdef \LT@xviii {\LT@entry 
    {3}{33.30164pt}\LT@entry 
    {3}{107.60902pt}}
\gdef \LT@xix {\LT@entry 
    {3}{17.8039pt}\LT@entry 
    {3}{105.84499pt}}
\@writefile{toc}{\contentsline {subsubsection}{\numberline {13.4.2.26}split\_back()}{62}{subsubsection.13.4.2.26}}
\newlabel{group__segment_gacb8de7e3756951950c391d241adec21c}{{13.4.2.26}{62}{\texorpdfstring {split\_back()}{split\_back()}}{table.13.18}{}}
\@writefile{toc}{\contentsline {subsubsection}{\numberline {13.4.2.27}sub()}{62}{subsubsection.13.4.2.27}}
\newlabel{group__segment_ga1bb17bef698401de18bc814c7f965999}{{13.4.2.27}{62}{\texorpdfstring {sub()}{sub()}}{table.13.19}{}}
\@writefile{toc}{\contentsline {subsubsection}{\numberline {13.4.2.28}MusPoint()}{62}{subsubsection.13.4.2.28}}
\gdef \LT@xx {\LT@entry 
    {3}{35.30861pt}\LT@entry 
    {3}{136.77744pt}}
\gdef \LT@xxi {\LT@entry 
    {3}{31.80762pt}\LT@entry 
    {3}{46.92316pt}}
\newlabel{group__segment_gaf3f9d88915bb6688d522f09d7542f690}{{13.4.2.28}{63}{\texorpdfstring {MusPoint()}{MusPoint()}}{subsubsection.13.4.2.28}{}}
\@writefile{toc}{\contentsline {subsubsection}{\numberline {13.4.2.29}Pitch()\hspace  {0.1cm}{\relax \fontsize  {8}{9.5}\selectfont  \abovedisplayskip 6\p@ plus2\p@ minus4\p@ \abovedisplayshortskip \z@ plus\p@ \belowdisplayshortskip 3\p@ plus\p@ minus2\p@ \def \leftmargin \leftmargini \parsep 4\p@ plus2\p@ minus\p@ \topsep 8\p@ plus2\p@ minus4\p@ \itemsep 4\p@ plus2\p@ minus\p@ {\leftmargin \leftmargini \topsep 3\p@ plus\p@ minus\p@ \parsep 2\p@ plus\p@ minus\p@ \itemsep \parsep }\belowdisplayskip \abovedisplayskip \ttfamily  [1/2]}}{63}{subsubsection.13.4.2.29}}
\newlabel{group__segment_gaace1762f4d975560a8d739d2d13fcd9b}{{13.4.2.29}{63}{\texorpdfstring {Pitch()}{Pitch()}\hspace {0.1cm}{\footnotesize \ttfamily [1/2]}}{table.13.20}{}}
\@writefile{toc}{\contentsline {subsubsection}{\numberline {13.4.2.30}Pitch()\hspace  {0.1cm}{\relax \fontsize  {8}{9.5}\selectfont  \abovedisplayskip 6\p@ plus2\p@ minus4\p@ \abovedisplayshortskip \z@ plus\p@ \belowdisplayshortskip 3\p@ plus\p@ minus2\p@ \def \leftmargin \leftmargini \parsep 4\p@ plus2\p@ minus\p@ \topsep 8\p@ plus2\p@ minus4\p@ \itemsep 4\p@ plus2\p@ minus\p@ {\leftmargin \leftmargini \topsep 3\p@ plus\p@ minus\p@ \parsep 2\p@ plus\p@ minus\p@ \itemsep \parsep }\belowdisplayskip \abovedisplayskip \ttfamily  [2/2]}}{63}{subsubsection.13.4.2.30}}
\newlabel{group__segment_ga5b7ec0fb127734c1cd5c6f350a3990fc}{{13.4.2.30}{63}{\texorpdfstring {Pitch()}{Pitch()}\hspace {0.1cm}{\footnotesize \ttfamily [2/2]}}{table.13.21}{}}
\@writefile{toc}{\contentsline {subsubsection}{\numberline {13.4.2.31}Point()}{63}{subsubsection.13.4.2.31}}
\newlabel{group__segment_ga395fa04b4ec126b66fc053f829a30cc1}{{13.4.2.31}{63}{\texorpdfstring {Point()}{Point()}}{subsubsection.13.4.2.31}{}}
\@writefile{toc}{\contentsline {subsubsection}{\numberline {13.4.2.32}$\sim $Point()}{64}{subsubsection.13.4.2.32}}
\newlabel{group__segment_ga55eeab949e62268da63176d48570eb54}{{13.4.2.32}{64}{\texorpdfstring {$\sim $Point()}{~Point()}}{subsubsection.13.4.2.32}{}}
\@writefile{toc}{\contentsline {subsubsection}{\numberline {13.4.2.33}operator=()}{64}{subsubsection.13.4.2.33}}
\newlabel{group__segment_ga8d702bcd74b30d19929d1954087bd4b0}{{13.4.2.33}{64}{\texorpdfstring {operator=()}{operator=()}}{subsubsection.13.4.2.33}{}}
\@writefile{toc}{\contentsline {subsubsection}{\numberline {13.4.2.34}isnormal()}{64}{subsubsection.13.4.2.34}}
\newlabel{group__segment_ga71dccd6f3dd14b2c497e4198ea37d745}{{13.4.2.34}{64}{\texorpdfstring {isnormal()}{isnormal()}}{subsubsection.13.4.2.34}{}}
\@writefile{toc}{\contentsline {subsubsection}{\numberline {13.4.2.35}distance()}{64}{subsubsection.13.4.2.35}}
\newlabel{group__segment_gad81fd626f6b9bc6d70fd5e235ec5c8cb}{{13.4.2.35}{64}{\texorpdfstring {distance()}{distance()}}{subsubsection.13.4.2.35}{}}
\@writefile{toc}{\contentsline {subsubsection}{\numberline {13.4.2.36}NoteName()}{64}{subsubsection.13.4.2.36}}
\gdef \LT@xxii {\LT@entry 
    {3}{22.30374pt}\LT@entry 
    {3}{131.28735pt}}
\gdef \LT@xxiii {\LT@entry 
    {3}{31.80762pt}\LT@entry 
    {3}{81.34743pt}}
\newlabel{group__segment_gaf4a2321d9bc5a69a5b8a94cf1e146052}{{13.4.2.36}{65}{\texorpdfstring {NoteName()}{NoteName()}}{table.13.22}{}}
\@writefile{toc}{\contentsline {subsubsection}{\numberline {13.4.2.37}closest()}{65}{subsubsection.13.4.2.37}}
\@writefile{toc}{\contentsline {subsection}{\numberline {13.4.3}Variable Documentation}{65}{subsection.13.4.3}}
\newlabel{group__segment_ga8e1cf6e8bac86af1c5cfdc22b36210b2}{{13.4.3}{65}{Variable Documentation}{subsection.13.4.3}{}}
\@writefile{toc}{\contentsline {subsubsection}{\numberline {13.4.3.1}synonyms}{65}{subsubsection.13.4.3.1}}
\@setckpt{group__segment}{
\setcounter{page}{66}
\setcounter{equation}{0}
\setcounter{enumi}{0}
\setcounter{enumii}{0}
\setcounter{enumiii}{0}
\setcounter{enumiv}{0}
\setcounter{footnote}{0}
\setcounter{mpfootnote}{0}
\setcounter{part}{0}
\setcounter{chapter}{13}
\setcounter{section}{4}
\setcounter{subsection}{3}
\setcounter{subsubsection}{1}
\setcounter{paragraph}{0}
\setcounter{subparagraph}{0}
\setcounter{figure}{0}
\setcounter{table}{23}
\setcounter{float@type}{4}
\setcounter{LT@tables}{23}
\setcounter{LT@chunks}{3}
\setcounter{FancyVerbLine}{0}
\setcounter{@stackindex}{0}
\setcounter{ROWcellindex@}{0}
\setcounter{NAT@ctr}{0}
\setcounter{lofdepth}{1}
\setcounter{lotdepth}{1}
\setcounter{Item}{0}
\setcounter{Hfootnote}{0}
\setcounter{bookmark@seq@number}{107}
\setcounter{ContinuedFloat}{0}
\setcounter{etoc@tocid}{1}
\setcounter{etoc@tocdepth}{3}
\setcounter{section@level}{3}
}
