\relax 
\providecommand\hyper@newdestlabel[2]{}
\@writefile{toc}{\contentsline {section}{\numberline {13.6}General module}{90}{section.13.6}}
\newlabel{group__general}{{13.6}{90}{General module}{section.13.6}{}}
\newlabel{group__general_ga93c3f96b8b7345e4e15965f3938e4e0c}{{13.6}{90}{Macros}{section*.25}{}}
\newlabel{group__general_ga3f9e0147289a89265d742be9ea145fda}{{13.6}{90}{Macros}{section*.25}{}}
\newlabel{group__general_ga047013f5273eccbbfc0a08db5975f544}{{13.6}{90}{Macros}{section*.25}{}}
\newlabel{group__general_ga911d91f7898a9a0c4e35bb71e01d39a0}{{13.6}{90}{Macros}{section*.25}{}}
\newlabel{group__general_ga6745ebbbc3fb31c4d8ac57a551060028}{{13.6}{90}{Macros}{section*.25}{}}
\newlabel{group__general_ga5a81e12e5b011ad54d8ddbf6be97ef34}{{13.6}{90}{Macros}{section*.25}{}}
\newlabel{group__general_gad8cbb5acc06d85c055ae6d66d22b6b58}{{13.6}{90}{Macros}{section*.25}{}}
\newlabel{group__general_ga02ce8a968600d004ba60858425c46307}{{13.6}{90}{Macros}{section*.25}{}}
\newlabel{group__general_ga8f75b971030a39ef811d3526a62b36b8}{{13.6}{90}{Macros}{section*.25}{}}
\newlabel{group__general_gaedf01192151e10a6620567952711ff69}{{13.6}{90}{Macros}{section*.25}{}}
\newlabel{group__general_ga5f6aa8edcd99914757600b5d3b259bb7}{{13.6}{90}{Macros}{section*.25}{}}
\newlabel{group__general_ga96dd473db0b3d10bd43390cdacb00120}{{13.6}{90}{Macros}{section*.25}{}}
\newlabel{group__general_gab69defacb6a9bf736bb490f7f44e25c3}{{13.6}{90}{Macros}{section*.25}{}}
\newlabel{group__general_gaf4ce41dddbcee02dfa738a7d421e8037}{{13.6}{90}{Macros}{section*.25}{}}
\newlabel{group__general_ga822ec6b7ee1991956603623096cb09b2}{{13.6}{90}{Macros}{section*.25}{}}
\newlabel{group__general_ga092fe8b972dfa977c2a0886720a7731e}{{13.6}{90}{Typedefs}{section*.26}{}}
\newlabel{group__general_ga8ea30422b6f53a4d8e502ab0a1406dff}{{13.6}{91}{Functions}{section*.28}{}}
\newlabel{group__general_gaef0eb8293c9f09a03e431fa23dea831d}{{13.6}{91}{Functions}{section*.28}{}}
\newlabel{group__general_ga7a50522782b1a61b37d5f1b3adceed4a}{{13.6}{91}{Functions}{section*.28}{}}
\newlabel{group__general_gab4d9195d8e5dc86aa14c1eea0535d806}{{13.6}{91}{Functions}{section*.28}{}}
\newlabel{group__general_gaa0f924144ded8d6509d5d349195b00a8}{{13.6}{91}{Functions}{section*.28}{}}
\newlabel{group__general_ga46d4a6e5db46addfa0d0608e3266571b}{{13.6}{91}{Functions}{section*.28}{}}
\newlabel{group__general_ga0334562ad4831b5b35238fe58bddabb0}{{13.6}{91}{Functions}{section*.28}{}}
\newlabel{group__general_gac87738e39a4f47b27c620375a59b06ee}{{13.6}{91}{Functions}{section*.28}{}}
\newlabel{group__general_ga3a2f2c8e28386a081128d450e66999dd}{{13.6}{91}{Functions}{section*.28}{}}
\newlabel{group__general_ga436606f8682952468f6a5b339d972178}{{13.6}{91}{Functions}{section*.28}{}}
\newlabel{group__general_gaca39bd2856e9682cf97234d046c0d52f}{{13.6}{91}{Functions}{section*.28}{}}
\newlabel{group__general_gaf34fe75e417e48c51e1d2751d9264569}{{13.6}{91}{Functions}{section*.28}{}}
\newlabel{group__general_ga8ae410bb40221ea8f30a6057dff05a1f}{{13.6}{91}{Functions}{section*.28}{}}
\newlabel{group__general_ga7b99e5d0faa3459356ab1249e3315ceb}{{13.6}{91}{Functions}{section*.28}{}}
\newlabel{group__general_gac1e651cdae26413046d477efdaef0539}{{13.6}{91}{Functions}{section*.28}{}}
\newlabel{group__general_ga5cf9ab392de156c39a5a115c9b30607b}{{13.6}{91}{Functions}{section*.28}{}}
\newlabel{group__general_gaa682331c9d58a26ba320d6414d396a9f}{{13.6}{91}{Functions}{section*.28}{}}
\newlabel{group__general_ga0bfbe45cc727920e5a74e3a75ab2e6b9}{{13.6}{91}{Functions}{section*.28}{}}
\newlabel{group__general_ga95b1b3230673ab78c01058a88a5e3eae}{{13.6}{91}{Functions}{section*.28}{}}
\newlabel{group__general_ga2ae32e90a2bacd18ca646568cb6c456e}{{13.6}{91}{Functions}{section*.28}{}}
\newlabel{group__general_gab93ceb248e49c0c1bdf83bee735aea49}{{13.6}{91}{Functions}{section*.28}{}}
\newlabel{group__general_ga883dcb56e5cb54c652d0eb4e939fd066}{{13.6}{91}{Functions}{section*.28}{}}
\newlabel{group__general_ga664c91d4ee5ad46c39e765e6dbf81738}{{13.6}{91}{Functions}{section*.28}{}}
\newlabel{group__general_gaa857f0a929a6898f30b97ba00c463ae6}{{13.6}{91}{Functions}{section*.28}{}}
\newlabel{group__general_gada510c5ee2bbcc7d7f12b8f25b539eff}{{13.6}{91}{Functions}{section*.28}{}}
\newlabel{group__general_ga196f4fcc358d405bbd98a7248bfc75f5}{{13.6}{91}{Functions}{section*.28}{}}
\newlabel{group__general_ga33cc7c599a1a3ac9a13bfe104c4456f4}{{13.6}{91}{Functions}{section*.28}{}}
\newlabel{group__general_ga17205b7127a763b3eaf44f6fecaac50b}{{13.6}{91}{Functions}{section*.28}{}}
\newlabel{group__general_gae50b290ade4698dd865cd451c3c23dda}{{13.6}{91}{Functions}{section*.28}{}}
\newlabel{group__general_gaa9902842b5b7724cd307b5770a75b0c7}{{13.6}{91}{Functions}{section*.28}{}}
\newlabel{group__general_gaa6627aa1f4524568c059b8914b2665bc}{{13.6}{91}{Functions}{section*.28}{}}
\newlabel{group__general_ga23e1bd04a616269e833eabf12ebb247b}{{13.6}{91}{Functions}{section*.28}{}}
\newlabel{group__general_gace6087d7c3382a18099dda188d1e5d9c}{{13.6}{91}{Functions}{section*.28}{}}
\newlabel{group__general_ga46aa465b7b59fbdbc5abff452a713b3c}{{13.6}{91}{Functions}{section*.28}{}}
\newlabel{group__general_ga45c0bd14078313e6ff7be68dd612efa1}{{13.6}{91}{Functions}{section*.28}{}}
\newlabel{group__general_ga11edcb2aed3334c33c9e962be2bda2fe}{{13.6}{91}{Functions}{section*.28}{}}
\newlabel{group__general_ga1f7f9f9491bbe7f24c488a505ac6887c}{{13.6}{91}{Functions}{section*.28}{}}
\newlabel{group__general_ga019d7a6ea6fb10e582310ae8f00a121c}{{13.6}{91}{Functions}{section*.28}{}}
\newlabel{group__general_gac3b19762b16f33de03662fd4289fe5a9}{{13.6}{92}{Variables}{section*.29}{}}
\newlabel{group__general_gae862a9d955eb3154601efb64980ac24b}{{13.6}{92}{Variables}{section*.29}{}}
\newlabel{group__general_gab5f3e741743d1273f9b9219e7f3c6845}{{13.6}{92}{Variables}{section*.29}{}}
\newlabel{group__general_ga5fbff41194dc7e48cea03604b5d7a060}{{13.6}{92}{Variables}{section*.29}{}}
\newlabel{group__general_ga942f8553c6b44bf0ed10f6c167794e89}{{13.6}{92}{Variables}{section*.29}{}}
\newlabel{group__general_ga4f8704310ab1a776374c4103a70ee4ca}{{13.6}{92}{Variables}{section*.29}{}}
\newlabel{group__general_gae30e96a43768e59d69b30739bca4b2a0}{{13.6}{92}{Variables}{section*.29}{}}
\newlabel{group__general_ga9ba08947d7e5ebba9df19496146a1bd4}{{13.6}{92}{Variables}{section*.29}{}}
\newlabel{group__general_gaa0818f0d579fa65f854f7540dab4d258}{{13.6}{92}{Variables}{section*.29}{}}
\newlabel{group__general_ga38297772685de12449644c49b20213d3}{{13.6}{92}{Variables}{section*.29}{}}
\newlabel{group__general_ga75258703c393347e8c7af15041e0e7d2}{{13.6}{92}{Variables}{section*.29}{}}
\newlabel{group__general_gaf2f921cdceea999adbede3b238fbd924}{{13.6}{92}{Variables}{section*.29}{}}
\newlabel{group__general_gaf43b37abf039bc3d2e67681387760de6}{{13.6}{92}{Variables}{section*.29}{}}
\newlabel{group__general_ga4445e6f07c267b6c601d33f1bf23ad2c}{{13.6}{92}{Variables}{section*.29}{}}
\newlabel{group__general_gac3b19762b16f33de03662fd4289fe5a9}{{13.6}{92}{Variables}{section*.29}{}}
\newlabel{group__general_gae862a9d955eb3154601efb64980ac24b}{{13.6}{92}{Variables}{section*.29}{}}
\newlabel{group__general_gab5f3e741743d1273f9b9219e7f3c6845}{{13.6}{92}{Variables}{section*.29}{}}
\newlabel{group__general_ga5fbff41194dc7e48cea03604b5d7a060}{{13.6}{92}{Variables}{section*.29}{}}
\newlabel{group__general_ga942f8553c6b44bf0ed10f6c167794e89}{{13.6}{92}{Variables}{section*.29}{}}
\newlabel{group__general_ga4f8704310ab1a776374c4103a70ee4ca}{{13.6}{92}{Variables}{section*.29}{}}
\newlabel{group__general_gae30e96a43768e59d69b30739bca4b2a0}{{13.6}{92}{Variables}{section*.29}{}}
\newlabel{group__general_ga9ba08947d7e5ebba9df19496146a1bd4}{{13.6}{92}{Variables}{section*.29}{}}
\gdef \LT@xxxii {\LT@entry 
    {3}{73.30595pt}\LT@entry 
    {3}{180.45319pt}}
\newlabel{group__general_gaa0818f0d579fa65f854f7540dab4d258}{{13.6}{93}{Variables}{section*.29}{}}
\newlabel{group__general_ga38297772685de12449644c49b20213d3}{{13.6}{93}{Variables}{section*.29}{}}
\newlabel{group__general_gaf2f921cdceea999adbede3b238fbd924}{{13.6}{93}{Variables}{section*.29}{}}
\newlabel{group__general_gaf43b37abf039bc3d2e67681387760de6}{{13.6}{93}{Variables}{section*.29}{}}
\newlabel{group__general_ga75258703c393347e8c7af15041e0e7d2}{{13.6}{93}{Variables}{section*.29}{}}
\newlabel{group__general_ga4445e6f07c267b6c601d33f1bf23ad2c}{{13.6}{93}{Variables}{section*.29}{}}
\newlabel{group__general_ga94c56112daf0fd5ccea22ff040dab387}{{13.6}{93}{Variables}{section*.29}{}}
\newlabel{group__general_gad61df4571453c6f7c1c829265837e500}{{13.6}{93}{Variables}{section*.29}{}}
\@writefile{toc}{\contentsline {subsection}{\numberline {13.6.1}Detailed Description}{93}{subsection.13.6.1}}
\@writefile{toc}{\contentsline {subsection}{\numberline {13.6.2}Enumeration Type Documentation}{93}{subsection.13.6.2}}
\newlabel{group__general_gae07bdce6f4896785ead3b815ca6ab560}{{13.6.2}{93}{Enumeration Type Documentation}{subsection.13.6.2}{}}
\@writefile{toc}{\contentsline {subsubsection}{\numberline {13.6.2.1}WeightDom}{93}{subsubsection.13.6.2.1}}
\newlabel{group__general_ggae07bdce6f4896785ead3b815ca6ab560a0e9bc37ec6da933200c9464b9585415e}{{13.32}{93}{\texorpdfstring {WeightDom}{WeightDom}}{table.13.32}{}}
\newlabel{group__general_ggae07bdce6f4896785ead3b815ca6ab560aefc3ccac9f36534e7235c64ca7e56a1e}{{13.32}{93}{\texorpdfstring {WeightDom}{WeightDom}}{table.13.32}{}}
\newlabel{group__general_ggae07bdce6f4896785ead3b815ca6ab560aa5fa48e29b30e37389febd475c4c866a}{{13.32}{93}{\texorpdfstring {WeightDom}{WeightDom}}{table.13.32}{}}
\@writefile{toc}{\contentsline {subsection}{\numberline {13.6.3}Function Documentation}{93}{subsection.13.6.3}}
\newlabel{group__general_ga3cef5c0e66f31aac9e01e5dfd9f3edc7}{{13.6.3}{93}{Function Documentation}{subsection.13.6.3}{}}
\@writefile{toc}{\contentsline {subsubsection}{\numberline {13.6.3.1}virtual\_memory\_size()}{94}{subsubsection.13.6.3.1}}
\@writefile{toc}{\contentsline {subsection}{\numberline {13.6.4}Variable Documentation}{94}{subsection.13.6.4}}
\newlabel{group__general_gae18ed995d696579fcc6018d8e9993e65}{{13.6.4}{94}{Variable Documentation}{subsection.13.6.4}{}}
\@writefile{toc}{\contentsline {subsubsection}{\numberline {13.6.4.1}HASH\_SEED\hspace  {0.1cm}{\relax \fontsize  {8}{9.5}\selectfont  \abovedisplayskip 6\p@ plus2\p@ minus4\p@ \abovedisplayshortskip \z@ plus\p@ \belowdisplayshortskip 3\p@ plus\p@ minus2\p@ \def \leftmargin \leftmargini \parsep 4\p@ plus2\p@ minus\p@ \topsep 8\p@ plus2\p@ minus4\p@ \itemsep 4\p@ plus2\p@ minus\p@ {\leftmargin \leftmargini \topsep 3\p@ plus\p@ minus\p@ \parsep 2\p@ plus\p@ minus\p@ \itemsep \parsep }\belowdisplayskip \abovedisplayskip \ttfamily  [1/2]}}{94}{subsubsection.13.6.4.1}}
\newlabel{group__general_gae18ed995d696579fcc6018d8e9993e65}{{13.6.4.1}{94}{\texorpdfstring {HASH\_SEED}{HASH\_SEED}\hspace {0.1cm}{\footnotesize \ttfamily [1/2]}}{subsubsection.13.6.4.1}{}}
\@writefile{toc}{\contentsline {subsubsection}{\numberline {13.6.4.2}HASH\_SEED\hspace  {0.1cm}{\relax \fontsize  {8}{9.5}\selectfont  \abovedisplayskip 6\p@ plus2\p@ minus4\p@ \abovedisplayshortskip \z@ plus\p@ \belowdisplayshortskip 3\p@ plus\p@ minus2\p@ \def \leftmargin \leftmargini \parsep 4\p@ plus2\p@ minus\p@ \topsep 8\p@ plus2\p@ minus4\p@ \itemsep 4\p@ plus2\p@ minus\p@ {\leftmargin \leftmargini \topsep 3\p@ plus\p@ minus\p@ \parsep 2\p@ plus\p@ minus\p@ \itemsep \parsep }\belowdisplayskip \abovedisplayskip \ttfamily  [2/2]}}{94}{subsubsection.13.6.4.2}}
\newlabel{group__general_gac021c39dd4209cc19d4ec5049b3a94ec}{{13.6.4.2}{94}{\texorpdfstring {HASH\_SEED}{HASH\_SEED}\hspace {0.1cm}{\footnotesize \ttfamily [2/2]}}{subsubsection.13.6.4.2}{}}
\@writefile{toc}{\contentsline {subsubsection}{\numberline {13.6.4.3}TRACE\_LEVEL}{94}{subsubsection.13.6.4.3}}
\@setckpt{group__general}{
\setcounter{page}{95}
\setcounter{equation}{0}
\setcounter{enumi}{0}
\setcounter{enumii}{0}
\setcounter{enumiii}{0}
\setcounter{enumiv}{0}
\setcounter{footnote}{0}
\setcounter{mpfootnote}{0}
\setcounter{part}{0}
\setcounter{chapter}{13}
\setcounter{section}{6}
\setcounter{subsection}{4}
\setcounter{subsubsection}{3}
\setcounter{paragraph}{0}
\setcounter{subparagraph}{0}
\setcounter{figure}{0}
\setcounter{table}{32}
\setcounter{float@type}{4}
\setcounter{LT@tables}{32}
\setcounter{LT@chunks}{3}
\setcounter{FancyVerbLine}{0}
\setcounter{@stackindex}{0}
\setcounter{ROWcellindex@}{0}
\setcounter{NAT@ctr}{0}
\setcounter{lofdepth}{1}
\setcounter{lotdepth}{1}
\setcounter{Item}{0}
\setcounter{Hfootnote}{0}
\setcounter{bookmark@seq@number}{186}
\setcounter{ContinuedFloat}{0}
\setcounter{etoc@tocid}{1}
\setcounter{etoc@tocdepth}{3}
\setcounter{section@level}{3}
}
