\relax 
\providecommand\hyper@newdestlabel[2]{}
\@writefile{toc}{\contentsline {section}{\numberline {13.2}Output module}{26}{section.13.2}}
\newlabel{group__output}{{13.2}{26}{Output module}{section.13.2}{}}
\newlabel{group__output_gae303eba6aa9e3b8613a5795c73e4fbea}{{13.2}{26}{Macros}{section*.4}{}}
\newlabel{group__output_gae92f0807f278bf37adf40090ad2dc4be}{{13.2}{26}{Macros}{section*.4}{}}
\newlabel{group__output_ga503dde6f933b959604bbeb17820933d5}{{13.2}{26}{Macros}{section*.4}{}}
\newlabel{group__output_ga22fde970e635fcf63962743b2d5c441d}{{13.2}{26}{Typedefs}{section*.5}{}}
\newlabel{group__output_ga3ff5a8deeeca12e8b6fea9c51eccd987}{{13.2}{27}{Enumerations}{section*.6}{}}
\newlabel{group__output_gaca893b02b4d6e0b4a33e08e8fedd3e00}{{13.2}{27}{Functions}{section*.7}{}}
\newlabel{group__output_gaa14d56806f18314e1c59a090964bc687}{{13.2}{27}{Functions}{section*.7}{}}
\newlabel{group__output_ga6a883cabc768b899c9a5edcd3c3d5dd2}{{13.2}{27}{Functions}{section*.7}{}}
\newlabel{group__output_ga580b3f6969d32fc7ad84b7d6fec0ecbe}{{13.2}{27}{Functions}{section*.7}{}}
\newlabel{group__output_gad0161a497bb5a9861366ec032cd79392}{{13.2}{27}{Functions}{section*.7}{}}
\newlabel{group__output_ga42a2ffdfe358dcac1df9704c4179dfeb}{{13.2}{27}{Functions}{section*.7}{}}
\newlabel{group__output_ga633737bbc1050067a6ae18fac4de863f}{{13.2}{27}{Functions}{section*.7}{}}
\newlabel{group__output_ga352cef0201630bbd48cc2cd14ecbe5ab}{{13.2}{27}{Functions}{section*.7}{}}
\newlabel{group__output_gaccc3468661637ee13e14eb176997086f}{{13.2}{27}{Functions}{section*.7}{}}
\newlabel{group__output_gaa15fcbf280e167eab1fe03f9c0f5663c}{{13.2}{27}{Functions}{section*.7}{}}
\newlabel{group__output_ga857c7d77fd72ff4aa331c2d7aa1ff9b2}{{13.2}{27}{Functions}{section*.7}{}}
\newlabel{group__output_gaca91eab87be1cd794334474670baa188}{{13.2}{27}{Functions}{section*.7}{}}
\newlabel{group__output_gaad126050f09b6e61d8a4bda13c17ad8a}{{13.2}{27}{Functions}{section*.7}{}}
\newlabel{group__output_ga24f753a9aa9316fc7903e6f253b94944}{{13.2}{27}{Functions}{section*.7}{}}
\newlabel{group__output_ga3dffe3684ea0f218d03ddcfd7ee783f8}{{13.2}{27}{Functions}{section*.7}{}}
\newlabel{group__output_ga831728f737383383f8f74580161eb3fb}{{13.2}{27}{Functions}{section*.7}{}}
\newlabel{group__output_ga293312eb9bbd4ac03d0add796c8eb12a}{{13.2}{27}{Functions}{section*.7}{}}
\newlabel{group__output_ga7fa2c8c9f2e3954592e4f0e264560e54}{{13.2}{27}{Functions}{section*.7}{}}
\newlabel{group__output_ga130ef44efbc7af3c3c9a6efa23639378}{{13.2}{27}{Functions}{section*.7}{}}
\newlabel{group__output_ga8b4434664a0dd2938fae9791fd34febd}{{13.2}{27}{Functions}{section*.7}{}}
\newlabel{group__output_gabdd5f118e0ea1566362a9eaed2ce0471}{{13.2}{27}{Functions}{section*.7}{}}
\newlabel{group__output_gadd91aa5ec57a51c6253ea872eadb28dc}{{13.2}{27}{Functions}{section*.7}{}}
\newlabel{group__output_ga72427605bbceabff329459a610db1201}{{13.2}{27}{Functions}{section*.7}{}}
\newlabel{group__output_ga540cf8decb4f62a80e871ab1e6dd31de}{{13.2}{27}{Functions}{section*.7}{}}
\newlabel{group__output_ga20a55c27bcb4ec4f639d4f7f79153be5}{{13.2}{27}{Functions}{section*.7}{}}
\newlabel{group__output_ga2c12fa35cd11a35a98e4680975e3f8b8}{{13.2}{27}{Functions}{section*.7}{}}
\newlabel{group__output_ga524c96edadc8725d997f81de3663ce4d}{{13.2}{28}{Functions}{section*.7}{}}
\newlabel{group__output_gaa2d2c8bb6a5bd48679122a220a9d8d00}{{13.2}{28}{Functions}{section*.7}{}}
\newlabel{group__output_ga189208973cef74bb65357535d43885ed}{{13.2}{28}{Functions}{section*.7}{}}
\newlabel{group__output_ga9c677c6efeee575a05c0a32511ad7cf1}{{13.2}{28}{Functions}{section*.7}{}}
\newlabel{group__output_ga58660df99e9a20f35ee0dab2901aa637}{{13.2}{28}{Functions}{section*.7}{}}
\newlabel{group__output_ga56a227805fd6d43d1f2618e871a4108c}{{13.2}{28}{Functions}{section*.7}{}}
\newlabel{group__output_ga3724371343de270b6f488ca47d11b917}{{13.2}{28}{Functions}{section*.7}{}}
\newlabel{group__output_ga07b8cb2137bfde63b8f2686ed6f20db0}{{13.2}{28}{Functions}{section*.7}{}}
\newlabel{group__output_ga686ea0e366bdefcf68714e411cad577f}{{13.2}{28}{Functions}{section*.7}{}}
\newlabel{group__output_ga7679a09f4cdd668f395a24deb498cdc2}{{13.2}{28}{Functions}{section*.7}{}}
\newlabel{group__output_gad5d7a4117cae3ac10b55ea051aa92848}{{13.2}{28}{Functions}{section*.7}{}}
\newlabel{group__output_gae8b849bfdbed392ff2171126354210a0}{{13.2}{28}{Functions}{section*.7}{}}
\newlabel{group__output_ga77779608bf4588f37330cecaf4cc2f1e}{{13.2}{28}{Functions}{section*.7}{}}
\newlabel{group__output_ga6a71e2488e33f2556ee9051d0bc88820}{{13.2}{28}{Functions}{section*.7}{}}
\newlabel{group__output_ga93aca0f691a35a081d51eaad06e8ce50}{{13.2}{28}{Functions}{section*.7}{}}
\newlabel{group__output_ga89f5bf140b902f886be124d620ac8474}{{13.2}{28}{Functions}{section*.7}{}}
\newlabel{group__output_ga6c05e4fec7d79e79d9022130e8fef2ad}{{13.2}{28}{Functions}{section*.7}{}}
\newlabel{group__output_gafa5b4ccd58b7537120b30437c8072852}{{13.2}{28}{Functions}{section*.7}{}}
\newlabel{group__output_gabbdc2a86af7313ccc63b1b502d9b0aa5}{{13.2}{28}{Functions}{section*.7}{}}
\newlabel{group__output_gac708fcabf8489ca08a9f7231eeb928d0}{{13.2}{28}{Functions}{section*.7}{}}
\newlabel{group__output_ga1dae8e3f43573cc3aac4859b5b618ef3}{{13.2}{28}{Functions}{section*.7}{}}
\newlabel{group__output_ga5877122dcb737ec9bdbe94241b867b4e}{{13.2}{28}{Functions}{section*.7}{}}
\newlabel{group__output_ga59d59642fc58d66772d51a075720a701}{{13.2}{28}{Functions}{section*.7}{}}
\newlabel{group__output_ga6e273a3942470268fb775857d80bc2a8}{{13.2}{28}{Functions}{section*.7}{}}
\newlabel{group__output_ga14633b5c977b30f4a28085c686c3c17f}{{13.2}{28}{Functions}{section*.7}{}}
\newlabel{group__output_gad3393b6422e8708954e27a52933620e1}{{13.2}{28}{Functions}{section*.7}{}}
\newlabel{group__output_ga00153f3142fe2d750b995d95435d852e}{{13.2}{28}{Functions}{section*.7}{}}
\newlabel{group__output_gad86382b8bc2a62cc5d8848c516280c52}{{13.2}{28}{Functions}{section*.7}{}}
\newlabel{group__output_ga1151b393ffd2c621914c8e0641fff3d3}{{13.2}{28}{Functions}{section*.7}{}}
\newlabel{group__output_gab39d4fd438b410d8310f4bf43703904f}{{13.2}{28}{Functions}{section*.7}{}}
\newlabel{group__output_ga28238d09bb0f332bda66fafb92facb3b}{{13.2}{28}{Functions}{section*.7}{}}
\newlabel{group__output_ga59599012a00e9c2ae587144f47085130}{{13.2}{28}{Functions}{section*.7}{}}
\newlabel{group__output_ga07a4414576afc26204002ce92dcc7ce9}{{13.2}{28}{Functions}{section*.7}{}}
\newlabel{group__output_gac8e931429f0f79f9e9f5754d3b98fe36}{{13.2}{28}{Functions}{section*.7}{}}
\newlabel{group__output_gaf69eee7904ee41d76e3a1a61ab92cfd1}{{13.2}{28}{Functions}{section*.7}{}}
\newlabel{group__output_ga369a577425f8ba02e8750d04b6a088db}{{13.2}{28}{Functions}{section*.7}{}}
\newlabel{group__output_ga63750e368482cc5ef45180d3672b1c55}{{13.2}{28}{Functions}{section*.7}{}}
\newlabel{group__output_ga886868520756636e98110cdb06349326}{{13.2}{29}{Functions}{section*.7}{}}
\newlabel{group__output_ga009f3b456aa0995413db1b8c0bd6f374}{{13.2}{29}{Functions}{section*.7}{}}
\newlabel{group__output_ga19d238e39cbe5a9f03929473bbd5b745}{{13.2}{29}{Functions}{section*.7}{}}
\newlabel{group__output_gac868521df843e116ef04bcfa52405d01}{{13.2}{29}{Functions}{section*.7}{}}
\newlabel{group__output_ga058c6d59881e1be259594165d19c8588}{{13.2}{29}{Functions}{section*.7}{}}
\newlabel{group__output_ga4f875cf76d3ebc8270a471ef57e93ddd}{{13.2}{29}{Functions}{section*.7}{}}
\newlabel{group__output_ga813a6feea3e6aa565fa0aed29e970a4e}{{13.2}{29}{Functions}{section*.7}{}}
\newlabel{group__output_ga799761965ae00bb24e16ebb98f66995a}{{13.2}{29}{Functions}{section*.7}{}}
\newlabel{group__output_ga3933e83072d4e7c3bb3d19d25df90b47}{{13.2}{29}{Functions}{section*.7}{}}
\newlabel{group__output_gacd73e0032e3dd22320819c4cda3d60a4}{{13.2}{29}{Functions}{section*.7}{}}
\newlabel{group__output_gafb30d2c520e4c5e8600ae3a58abf9c72}{{13.2}{29}{Functions}{section*.7}{}}
\newlabel{group__output_ga9aebdccd4ce1d1029d03f4ec38c101c4}{{13.2}{29}{Functions}{section*.7}{}}
\newlabel{group__output_gac785e6d945ef6e0808132459669ab038}{{13.2}{29}{Functions}{section*.7}{}}
\newlabel{group__output_ga2079bd534900d0b10e74682e404230b1}{{13.2}{29}{Functions}{section*.7}{}}
\newlabel{group__output_gac6764688e24fe9b942464a9c2053ee92}{{13.2}{29}{Functions}{section*.7}{}}
\newlabel{group__output_ga2d7e95e5b2cc887aa9c4db52fab1b0d3}{{13.2}{29}{Functions}{section*.7}{}}
\newlabel{group__output_ga3d92180f844d00eaf0bbd46e10f022e4}{{13.2}{29}{Functions}{section*.7}{}}
\newlabel{group__output_ga7c5289addb03e9bf54467e2d84c7ef79}{{13.2}{29}{Functions}{section*.7}{}}
\newlabel{group__output_ga0f5679843d6bcd3e97ecd535c4d3c6f8}{{13.2}{30}{Functions}{section*.7}{}}
\newlabel{group__output_gaaf4c88a23710366cbe35081a0967b536}{{13.2}{30}{Functions}{section*.7}{}}
\newlabel{group__output_ga187d1dfe0e942d18f1e2c3150e9aa185}{{13.2}{30}{Functions}{section*.7}{}}
\newlabel{group__output_gad518d3f6ddf7fb7b74275eef20205893}{{13.2}{30}{Functions}{section*.7}{}}
\newlabel{group__output_gaec135d71a5c51579bec52c805c0b3ded}{{13.2}{30}{Functions}{section*.7}{}}
\newlabel{group__output_gabd7a0aa8113f72c13205c0702eb269ff}{{13.2}{30}{Functions}{section*.7}{}}
\newlabel{group__output_gab09ac2a5e83e806431634ddd87f596fc}{{13.2}{30}{Functions}{section*.7}{}}
\newlabel{group__output_ga7510db734db466464100413728db233c}{{13.2}{30}{Functions}{section*.7}{}}
\newlabel{group__output_ga2ebf6a43ad145e4593cc961a4016f330}{{13.2}{30}{Functions}{section*.7}{}}
\newlabel{group__output_ga9d68ca01f81000f92f1c8911cbd414da}{{13.2}{30}{Functions}{section*.7}{}}
\newlabel{group__output_gaff6e5912f71832597303efe0093d5d00}{{13.2}{30}{Functions}{section*.7}{}}
\newlabel{group__output_ga699183ea1d3babeb7c2c094e31e7070f}{{13.2}{30}{Functions}{section*.7}{}}
\newlabel{group__output_ga9078b4e45f9864eec53bbfa68d7709d0}{{13.2}{30}{Functions}{section*.7}{}}
\newlabel{group__output_gaeb6d26ee1813f879c07148df644a5321}{{13.2}{30}{Functions}{section*.7}{}}
\newlabel{group__output_ga282fe7cbc28917f2b096d2183419a30c}{{13.2}{30}{Functions}{section*.7}{}}
\newlabel{group__output_ga9d5ccdd934a0715c597650fd8cd8d5ed}{{13.2}{30}{Functions}{section*.7}{}}
\newlabel{group__output_ga77bf4e64e28ee7a3bd2989ffe25f7fc9}{{13.2}{30}{Functions}{section*.7}{}}
\newlabel{group__output_ga7802d98c6ad4e622847be23fbaa6cbea}{{13.2}{30}{Functions}{section*.7}{}}
\newlabel{group__output_ga774fcd89afe324f01efa6514626dd1cb}{{13.2}{30}{Variables}{section*.8}{}}
\@writefile{toc}{\contentsline {subsection}{\numberline {13.2.1}Detailed Description}{30}{subsection.13.2.1}}
\@writefile{toc}{\contentsline {subsection}{\numberline {13.2.2}Function Documentation}{30}{subsection.13.2.2}}
\newlabel{group__output_ga2c194b384127267b8cfed2c41e70d338}{{13.2.2}{30}{Function Documentation}{subsection.13.2.2}{}}
\@writefile{toc}{\contentsline {subsubsection}{\numberline {13.2.2.1}APTED()}{30}{subsubsection.13.2.2.1}}
\newlabel{group__output_ga95ba6b1b14592003fdc97b69f982677c}{{13.2.2.1}{30}{\texorpdfstring {APTED()}{APTED()}}{subsubsection.13.2.2.1}{}}
\gdef \LT@i {\LT@entry 
    {3}{17.8039pt}\LT@entry 
    {3}{136.60635pt}}
\@writefile{toc}{\contentsline {subsubsection}{\numberline {13.2.2.2}DurationList()\hspace  {0.1cm}{\relax \fontsize  {8}{9.5}\selectfont  \abovedisplayskip 6\p@ plus2\p@ minus4\p@ \abovedisplayshortskip \z@ plus\p@ \belowdisplayshortskip 3\p@ plus\p@ minus2\p@ \def \leftmargin \leftmargini \parsep 4\p@ plus2\p@ minus\p@ \topsep 8\p@ plus2\p@ minus4\p@ \itemsep 4\p@ plus2\p@ minus\p@ {\leftmargin \leftmargini \topsep 3\p@ plus\p@ minus\p@ \parsep 2\p@ plus\p@ minus\p@ \itemsep \parsep }\belowdisplayskip \abovedisplayskip \ttfamily  [1/2]}}{31}{subsubsection.13.2.2.2}}
\newlabel{group__output_gab678d41f41605596499c3f17a5f39120}{{13.2.2.2}{31}{\texorpdfstring {DurationList()}{DurationList()}\hspace {0.1cm}{\footnotesize \ttfamily [1/2]}}{table.13.1}{}}
\@writefile{toc}{\contentsline {subsubsection}{\numberline {13.2.2.3}DurationList()\hspace  {0.1cm}{\relax \fontsize  {8}{9.5}\selectfont  \abovedisplayskip 6\p@ plus2\p@ minus4\p@ \abovedisplayshortskip \z@ plus\p@ \belowdisplayshortskip 3\p@ plus\p@ minus2\p@ \def \leftmargin \leftmargini \parsep 4\p@ plus2\p@ minus\p@ \topsep 8\p@ plus2\p@ minus4\p@ \itemsep 4\p@ plus2\p@ minus\p@ {\leftmargin \leftmargini \topsep 3\p@ plus\p@ minus\p@ \parsep 2\p@ plus\p@ minus\p@ \itemsep \parsep }\belowdisplayskip \abovedisplayskip \ttfamily  [2/2]}}{31}{subsubsection.13.2.2.3}}
\newlabel{group__output_gaddb48455388f36f48ace0f0c0b250105}{{13.2.2.3}{31}{\texorpdfstring {DurationList()}{DurationList()}\hspace {0.1cm}{\footnotesize \ttfamily [2/2]}}{subsubsection.13.2.2.3}{}}
\@writefile{toc}{\contentsline {subsubsection}{\numberline {13.2.2.4}add()\hspace  {0.1cm}{\relax \fontsize  {8}{9.5}\selectfont  \abovedisplayskip 6\p@ plus2\p@ minus4\p@ \abovedisplayshortskip \z@ plus\p@ \belowdisplayshortskip 3\p@ plus\p@ minus2\p@ \def \leftmargin \leftmargini \parsep 4\p@ plus2\p@ minus\p@ \topsep 8\p@ plus2\p@ minus4\p@ \itemsep 4\p@ plus2\p@ minus\p@ {\leftmargin \leftmargini \topsep 3\p@ plus\p@ minus\p@ \parsep 2\p@ plus\p@ minus\p@ \itemsep \parsep }\belowdisplayskip \abovedisplayskip \ttfamily  [1/2]}}{31}{subsubsection.13.2.2.4}}
\newlabel{group__output_gab9d508060073c83c27e13f8f2472de38}{{13.2.2.4}{31}{\texorpdfstring {add()}{add()}\hspace {0.1cm}{\footnotesize \ttfamily [1/2]}}{subsubsection.13.2.2.4}{}}
\gdef \LT@ii {\LT@entry 
    {3}{25.3008pt}\LT@entry 
    {3}{424.97803pt}}
\@writefile{toc}{\contentsline {subsubsection}{\numberline {13.2.2.5}addcont()}{32}{subsubsection.13.2.2.5}}
\newlabel{group__output_ga06ae4f865c1c27edd490f1631d76452a}{{13.2.2.5}{32}{\texorpdfstring {addcont()}{addcont()}}{subsubsection.13.2.2.5}{}}
\@writefile{toc}{\contentsline {subsubsection}{\numberline {13.2.2.6}operator+=()\hspace  {0.1cm}{\relax \fontsize  {8}{9.5}\selectfont  \abovedisplayskip 6\p@ plus2\p@ minus4\p@ \abovedisplayshortskip \z@ plus\p@ \belowdisplayshortskip 3\p@ plus\p@ minus2\p@ \def \leftmargin \leftmargini \parsep 4\p@ plus2\p@ minus\p@ \topsep 8\p@ plus2\p@ minus4\p@ \itemsep 4\p@ plus2\p@ minus\p@ {\leftmargin \leftmargini \topsep 3\p@ plus\p@ minus\p@ \parsep 2\p@ plus\p@ minus\p@ \itemsep \parsep }\belowdisplayskip \abovedisplayskip \ttfamily  [1/2]}}{32}{subsubsection.13.2.2.6}}
\newlabel{group__output_gafcd0d23d1cdb8cd92fbaec2fac51d259}{{13.2.2.6}{32}{\texorpdfstring {operator+=()}{operator+=()}\hspace {0.1cm}{\footnotesize \ttfamily [1/2]}}{table.13.2}{}}
\@writefile{toc}{\contentsline {subsubsection}{\numberline {13.2.2.7}lily()}{32}{subsubsection.13.2.2.7}}
\newlabel{group__output_ga67acb233e47d9942cb678fb24b67f799}{{13.2.2.7}{32}{\texorpdfstring {lily()}{lily()}}{subsubsection.13.2.2.7}{}}
\@writefile{toc}{\contentsline {subsubsection}{\numberline {13.2.2.8}MEI()}{32}{subsubsection.13.2.2.8}}
\newlabel{group__output_ga28b9390a3699a9ae7abdba51cb3cb7d5}{{13.2.2.8}{32}{\texorpdfstring {MEI()}{MEI()}}{subsubsection.13.2.2.8}{}}
\@writefile{toc}{\contentsline {subsubsection}{\numberline {13.2.2.9}createFromScore()}{32}{subsubsection.13.2.2.9}}
\newlabel{group__output_gaec3627352aed16ef31dfabe7d243c476}{{13.2.2.9}{32}{\texorpdfstring {createFromScore()}{createFromScore()}}{subsubsection.13.2.2.9}{}}
\@writefile{toc}{\contentsline {subsubsection}{\numberline {13.2.2.10}createScoreDef()}{33}{subsubsection.13.2.2.10}}
\newlabel{group__output_ga707656b4b214953f8be23c95415a8ed5}{{13.2.2.10}{33}{\texorpdfstring {createScoreDef()}{createScoreDef()}}{subsubsection.13.2.2.10}{}}
\@writefile{toc}{\contentsline {subsubsection}{\numberline {13.2.2.11}chooseClef()}{33}{subsubsection.13.2.2.11}}
\newlabel{group__output_ga7f0c47ab091313feb0a7fba4d23e09da}{{13.2.2.11}{33}{\texorpdfstring {chooseClef()}{chooseClef()}}{subsubsection.13.2.2.11}{}}
\@writefile{toc}{\contentsline {subsubsection}{\numberline {13.2.2.12}writeInFile()}{33}{subsubsection.13.2.2.12}}
\newlabel{group__output_ga1e4233e0a65d642f227dba08be1fe592}{{13.2.2.12}{33}{\texorpdfstring {writeInFile()}{writeInFile()}}{subsubsection.13.2.2.12}{}}
\@writefile{toc}{\contentsline {subsubsection}{\numberline {13.2.2.13}$\sim $MEI()}{33}{subsubsection.13.2.2.13}}
\newlabel{group__output_ga6a3bc246737b5cc48df0e07b36e9935f}{{13.2.2.13}{33}{\texorpdfstring {$\sim $MEI()}{~MEI()}}{subsubsection.13.2.2.13}{}}
\@writefile{toc}{\contentsline {subsubsection}{\numberline {13.2.2.14}Onsets()}{33}{subsubsection.13.2.2.14}}
\newlabel{group__output_gab6b7dd5c2869fb23755faee32f1e6731}{{13.2.2.14}{33}{\texorpdfstring {Onsets()}{Onsets()}}{subsubsection.13.2.2.14}{}}
\@writefile{toc}{\contentsline {subsubsection}{\numberline {13.2.2.15}operator+=()\hspace  {0.1cm}{\relax \fontsize  {8}{9.5}\selectfont  \abovedisplayskip 6\p@ plus2\p@ minus4\p@ \abovedisplayshortskip \z@ plus\p@ \belowdisplayshortskip 3\p@ plus\p@ minus2\p@ \def \leftmargin \leftmargini \parsep 4\p@ plus2\p@ minus\p@ \topsep 8\p@ plus2\p@ minus4\p@ \itemsep 4\p@ plus2\p@ minus\p@ {\leftmargin \leftmargini \topsep 3\p@ plus\p@ minus\p@ \parsep 2\p@ plus\p@ minus\p@ \itemsep \parsep }\belowdisplayskip \abovedisplayskip \ttfamily  [2/2]}}{33}{subsubsection.13.2.2.15}}
\gdef \LT@iii {\LT@entry 
    {3}{14.79794pt}\LT@entry 
    {3}{89.11436pt}}
\newlabel{group__output_gac7614a6239a4917c771641dfdfd597ab}{{13.2.2.15}{34}{\texorpdfstring {operator+=()}{operator+=()}\hspace {0.1cm}{\footnotesize \ttfamily [2/2]}}{table.13.3}{}}
\@writefile{toc}{\contentsline {subsubsection}{\numberline {13.2.2.16}RhythmTree()}{34}{subsubsection.13.2.2.16}}
\newlabel{group__output_ga40e2aa462ed42fa46d3beafca9dbc350}{{13.2.2.16}{34}{\texorpdfstring {RhythmTree()}{RhythmTree()}}{subsubsection.13.2.2.16}{}}
\@writefile{toc}{\contentsline {subsubsection}{\numberline {13.2.2.17}label()}{34}{subsubsection.13.2.2.17}}
\newlabel{group__output_ga1ca015dec36fa32ff6d66aaad10f4eb0}{{13.2.2.17}{34}{\texorpdfstring {label()}{label()}}{subsubsection.13.2.2.17}{}}
\@writefile{toc}{\contentsline {subsubsection}{\numberline {13.2.2.18}continuation()}{34}{subsubsection.13.2.2.18}}
\newlabel{group__output_gabd793b78f71fb62edb13497e0a13f48c}{{13.2.2.18}{34}{\texorpdfstring {continuation()}{continuation()}}{subsubsection.13.2.2.18}{}}
\@writefile{toc}{\contentsline {subsubsection}{\numberline {13.2.2.19}single\_event()}{34}{subsubsection.13.2.2.19}}
\newlabel{group__output_gaaaf06fe2227a6598b109a72d89afa8d7}{{13.2.2.19}{34}{\texorpdfstring {single\_event()}{single\_event()}}{subsubsection.13.2.2.19}{}}
\@writefile{toc}{\contentsline {subsubsection}{\numberline {13.2.2.20}nbgn()}{35}{subsubsection.13.2.2.20}}
\newlabel{group__output_ga130dd34b9f3e0db4ad4f185181895dbd}{{13.2.2.20}{35}{\texorpdfstring {nbgn()}{nbgn()}}{subsubsection.13.2.2.20}{}}
\@writefile{toc}{\contentsline {subsubsection}{\numberline {13.2.2.21}child()}{35}{subsubsection.13.2.2.21}}
\newlabel{group__output_ga5749469b3ff6ec88fcab75961e7d278c}{{13.2.2.21}{35}{\texorpdfstring {child()}{child()}}{subsubsection.13.2.2.21}{}}
\@writefile{toc}{\contentsline {subsubsection}{\numberline {13.2.2.22}add()\hspace  {0.1cm}{\relax \fontsize  {8}{9.5}\selectfont  \abovedisplayskip 6\p@ plus2\p@ minus4\p@ \abovedisplayshortskip \z@ plus\p@ \belowdisplayshortskip 3\p@ plus\p@ minus2\p@ \def \leftmargin \leftmargini \parsep 4\p@ plus2\p@ minus\p@ \topsep 8\p@ plus2\p@ minus4\p@ \itemsep 4\p@ plus2\p@ minus\p@ {\leftmargin \leftmargini \topsep 3\p@ plus\p@ minus\p@ \parsep 2\p@ plus\p@ minus\p@ \itemsep \parsep }\belowdisplayskip \abovedisplayskip \ttfamily  [2/2]}}{35}{subsubsection.13.2.2.22}}
\newlabel{group__output_gafdda5b1a3c16c8e64337c26bcdb368e9}{{13.2.2.22}{35}{\texorpdfstring {add()}{add()}\hspace {0.1cm}{\footnotesize \ttfamily [2/2]}}{subsubsection.13.2.2.22}{}}
\@writefile{toc}{\contentsline {subsubsection}{\numberline {13.2.2.23}reducible()}{35}{subsubsection.13.2.2.23}}
\newlabel{group__output_gaf723874e871dc01efb036ccbac07c32b}{{13.2.2.23}{35}{\texorpdfstring {reducible()}{reducible()}}{subsubsection.13.2.2.23}{}}
\gdef \LT@iv {\LT@entry 
    {3}{29.80966pt}\LT@entry 
    {3}{112.20802pt}}
\@writefile{toc}{\contentsline {subsubsection}{\numberline {13.2.2.24}tail\_redex()}{36}{subsubsection.13.2.2.24}}
\newlabel{group__output_ga69973921641222cb765112c70df25318}{{13.2.2.24}{36}{\texorpdfstring {tail\_redex()}{tail\_redex()}}{subsubsection.13.2.2.24}{}}
\@writefile{toc}{\contentsline {subsubsection}{\numberline {13.2.2.25}serialize()}{36}{subsubsection.13.2.2.25}}
\@setckpt{group__output}{
\setcounter{page}{37}
\setcounter{equation}{0}
\setcounter{enumi}{0}
\setcounter{enumii}{0}
\setcounter{enumiii}{0}
\setcounter{enumiv}{0}
\setcounter{footnote}{0}
\setcounter{mpfootnote}{0}
\setcounter{part}{0}
\setcounter{chapter}{13}
\setcounter{section}{2}
\setcounter{subsection}{2}
\setcounter{subsubsection}{25}
\setcounter{paragraph}{0}
\setcounter{subparagraph}{0}
\setcounter{figure}{0}
\setcounter{table}{4}
\setcounter{float@type}{4}
\setcounter{LT@tables}{4}
\setcounter{LT@chunks}{3}
\setcounter{FancyVerbLine}{0}
\setcounter{@stackindex}{0}
\setcounter{ROWcellindex@}{0}
\setcounter{NAT@ctr}{0}
\setcounter{lofdepth}{1}
\setcounter{lotdepth}{1}
\setcounter{Item}{0}
\setcounter{Hfootnote}{0}
\setcounter{bookmark@seq@number}{43}
\setcounter{ContinuedFloat}{0}
\setcounter{etoc@tocid}{1}
\setcounter{etoc@tocdepth}{3}
\setcounter{section@level}{3}
}
