\relax 
\providecommand\hyper@newdestlabel[2]{}
\@writefile{toc}{\contentsline {section}{\numberline {13.7}Weight module}{95}{section.13.7}}
\newlabel{group__weight}{{13.7}{95}{Weight module}{section.13.7}{}}
\newlabel{group__weight_gab340452fea725573e28644234d68147e}{{13.7}{95}{Functions}{section*.31}{}}
\newlabel{group__weight_ga28da9ceeeef71d7da863914db5247228}{{13.7}{95}{Functions}{section*.31}{}}
\newlabel{group__weight_ga3f8df07b63284c0a1d9da46b7d01588e}{{13.7}{95}{Functions}{section*.31}{}}
\newlabel{group__weight_ga3eb9b7d865559995803e57f557f085b3}{{13.7}{95}{Functions}{section*.31}{}}
\newlabel{group__weight_ga37b0ffb977541c9ff2ee7fdc3ec9fd0c}{{13.7}{95}{Functions}{section*.31}{}}
\newlabel{group__weight_ga77d4e41a067e6104b5783f06a5018a1c}{{13.7}{95}{Functions}{section*.31}{}}
\newlabel{group__weight_ga1c356f04569b90215755f5d1289c78aa}{{13.7}{95}{Functions}{section*.31}{}}
\newlabel{group__weight_gaa78f8a12ada406ba6a331acc42baa052}{{13.7}{95}{Functions}{section*.31}{}}
\newlabel{group__weight_ga7e6061ad27a65ee071647866da6a971f}{{13.7}{95}{Functions}{section*.31}{}}
\newlabel{group__weight_ga6963921223bbd482ce8454ffa6d6fda5}{{13.7}{95}{Functions}{section*.31}{}}
\newlabel{group__weight_ga76eb9cd401bbeba9450469a889dfb7eb}{{13.7}{95}{Functions}{section*.31}{}}
\newlabel{group__weight_ga0a589d8beac0f16f54f7e4f451adc843}{{13.7}{95}{Functions}{section*.31}{}}
\newlabel{group__weight_gabb65ce9f0f34112159f6689a36594470}{{13.7}{96}{Functions}{section*.31}{}}
\newlabel{group__weight_ga00d9ffa71ae947eb191e118570049b73}{{13.7}{96}{Functions}{section*.31}{}}
\newlabel{group__weight_ga30707b9335976941e15aef45c4db86bf}{{13.7}{96}{Functions}{section*.31}{}}
\newlabel{group__weight_ga4ebd2ecbdf6955d1ed9064d391cc71b7}{{13.7}{96}{Functions}{section*.31}{}}
\newlabel{group__weight_gaf54b8155e1a7652461400d4dd0a5739f}{{13.7}{96}{Functions}{section*.31}{}}
\newlabel{group__weight_gafb8da4bc0d0e23217ecad4c219d9a610}{{13.7}{96}{Functions}{section*.31}{}}
\newlabel{group__weight_gaf9785af97fcce45a15098363efe5b7c8}{{13.7}{96}{Functions}{section*.31}{}}
\newlabel{group__weight_ga7eed0253fd20af20e3fec8dc2f4652b8}{{13.7}{96}{Functions}{section*.31}{}}
\newlabel{group__weight_gac7ac9026fecc24193526ef577d819a3b}{{13.7}{96}{Functions}{section*.31}{}}
\newlabel{group__weight_ga265949c1cd1d5dbf5888bcd2d4283d52}{{13.7}{96}{Functions}{section*.31}{}}
\newlabel{group__weight_gafae5ba059c08a25f4bd2ffa422b953c1}{{13.7}{96}{Functions}{section*.31}{}}
\newlabel{group__weight_ga3ee8633406a8dc51ba579254872b21e4}{{13.7}{96}{Functions}{section*.31}{}}
\newlabel{group__weight_ga8fe884fff3323382bfc7729500cca368}{{13.7}{96}{Functions}{section*.31}{}}
\newlabel{group__weight_gafb9e6bffef57c6462cd2eea89efbfeaf}{{13.7}{96}{Functions}{section*.31}{}}
\newlabel{group__weight_gac90a90f052aba6f1a03a5238bae96159}{{13.7}{96}{Functions}{section*.31}{}}
\newlabel{group__weight_ga11c58941eafe9e4f3a45558812786e36}{{13.7}{96}{Functions}{section*.31}{}}
\newlabel{group__weight_ga0a34058d4d70333e0b74edc66aa8884c}{{13.7}{96}{Functions}{section*.31}{}}
\newlabel{group__weight_gaf86e96735a95a82f3ad7b11ee9d6162c}{{13.7}{96}{Functions}{section*.31}{}}
\newlabel{group__weight_ga05347e9d4ebd5c7f95d8f575cc396451}{{13.7}{96}{Functions}{section*.31}{}}
\newlabel{group__weight_ga535988d2b88e8f2bbb24eeeba5daf81f}{{13.7}{96}{Functions}{section*.31}{}}
\newlabel{group__weight_ga00a9b370fb237b3230cbce5cf9d8fe41}{{13.7}{96}{Functions}{section*.31}{}}
\newlabel{group__weight_ga6761f06ee3b129a22fc0101f4947b4e9}{{13.7}{96}{Functions}{section*.31}{}}
\newlabel{group__weight_ga17f51f13d0338bbcbc76ada716e626aa}{{13.7}{96}{Functions}{section*.31}{}}
\newlabel{group__weight_gaa275b4800bdc220d59ee42b2165f638a}{{13.7}{96}{Functions}{section*.31}{}}
\newlabel{group__weight_ga378883be65a16bb86f13b1a9d941f104}{{13.7}{96}{Functions}{section*.31}{}}
\newlabel{group__weight_ga9b479f4a9f23f4c423729b669aa69dc5}{{13.7}{96}{Functions}{section*.31}{}}
\newlabel{group__weight_ga55f1e2bcb9e1e3fd521d652a5aebfc36}{{13.7}{96}{Functions}{section*.31}{}}
\newlabel{group__weight_gae362229d75df663272f4d52c15a04315}{{13.7}{97}{Functions}{section*.31}{}}
\newlabel{group__weight_gaa6f92a288b315fed3b301de728f2717d}{{13.7}{97}{Functions}{section*.31}{}}
\newlabel{group__weight_gace00a414884a9a4824c3cac4b8b084a9}{{13.7}{97}{Functions}{section*.31}{}}
\newlabel{group__weight_gad8d0422a24b5d4a76856191cc441396c}{{13.7}{97}{Functions}{section*.31}{}}
\newlabel{group__weight_gaf4e626612999673b8e4e0a322119402c}{{13.7}{97}{Functions}{section*.31}{}}
\newlabel{group__weight_gad7ca8b9082125f4ac2f9f562685517a9}{{13.7}{97}{Functions}{section*.31}{}}
\newlabel{group__weight_ga388bdd81eafaa3cb729934f36f603f35}{{13.7}{97}{Functions}{section*.31}{}}
\newlabel{group__weight_ga315ec4d2ce14bcdea7b8a3d0c9d278ef}{{13.7}{97}{Functions}{section*.31}{}}
\newlabel{group__weight_ga01383c055ca0dafc28870ecd701dbd15}{{13.7}{97}{Functions}{section*.31}{}}
\newlabel{group__weight_ga9b7f93efd61f58a88d9274a9e12ebe36}{{13.7}{97}{Functions}{section*.31}{}}
\newlabel{group__weight_ga35f29b2dcd594cc2cfac884322095c16}{{13.7}{97}{Functions}{section*.31}{}}
\newlabel{group__weight_ga31f697ce8283cf19cd1b2f9520c83cde}{{13.7}{97}{Functions}{section*.31}{}}
\newlabel{group__weight_ga96f4c23e4845b232451e99b648bddfd6}{{13.7}{97}{Functions}{section*.31}{}}
\newlabel{group__weight_ga54f4048f888a9432f02bc0d9f25257c1}{{13.7}{97}{Functions}{section*.31}{}}
\newlabel{group__weight_gad54ea0c48179932f2b8e553f5e3ade51}{{13.7}{97}{Functions}{section*.31}{}}
\newlabel{group__weight_gaf00322921db3c5212f8d5ca63081d689}{{13.7}{97}{Functions}{section*.31}{}}
\newlabel{group__weight_ga0ef9dd9bcd765c0e3c50b384b34d88d2}{{13.7}{97}{Functions}{section*.31}{}}
\newlabel{group__weight_ga49b09c8f364a2ebf1d154f606d9aaea8}{{13.7}{97}{Functions}{section*.31}{}}
\newlabel{group__weight_gad1208e74e54ca8fc2f361e6fc106df01}{{13.7}{97}{Functions}{section*.31}{}}
\newlabel{group__weight_gabaad113da06b47c4b291558d05da6aa6}{{13.7}{97}{Functions}{section*.31}{}}
\newlabel{group__weight_ga53200866c20ae5e4aae7ab8acd8f3ad0}{{13.7}{97}{Functions}{section*.31}{}}
\newlabel{group__weight_gabef24fcc2eb0c72c420e83e6db625545}{{13.7}{97}{Functions}{section*.31}{}}
\newlabel{group__weight_ga9283a1d2c4b91605a0c60a2c7033cb2c}{{13.7}{98}{Functions}{section*.31}{}}
\newlabel{group__weight_ga548aadee137a6c274aeb1e56607b05dd}{{13.7}{98}{Functions}{section*.31}{}}
\newlabel{group__weight_gade2f7d7b4ddf749326fb0a6c674387ed}{{13.7}{98}{Functions}{section*.31}{}}
\newlabel{group__weight_gaf7214d45d290b39f6bb2555fc46adf55}{{13.7}{98}{Functions}{section*.31}{}}
\newlabel{group__weight_ga48012227b61aa4c10064bed70936d78e}{{13.7}{98}{Functions}{section*.31}{}}
\newlabel{group__weight_ga2185b6a5b1957fcab19bf6281adeed47}{{13.7}{98}{Functions}{section*.31}{}}
\newlabel{group__weight_gad0c93ac5f963b02ca3f6c1d5d02f5d61}{{13.7}{98}{Functions}{section*.31}{}}
\newlabel{group__weight_ga0fb0a47475e245e955aa6e7926f7a0f6}{{13.7}{98}{Functions}{section*.31}{}}
\newlabel{group__weight_ga0f92a47af6c72b59183835d0b11a3d60}{{13.7}{98}{Functions}{section*.31}{}}
\newlabel{group__weight_gaeb6c4f1cf187978576df2bc31a5e5eb8}{{13.7}{98}{Functions}{section*.31}{}}
\@writefile{toc}{\contentsline {subsection}{\numberline {13.7.1}Detailed Description}{98}{subsection.13.7.1}}
\@writefile{toc}{\contentsline {subsection}{\numberline {13.7.2}Function Documentation}{98}{subsection.13.7.2}}
\newlabel{group__weight_ga985964770c3e3b3aea4ea1ebd817f1c8}{{13.7.2}{98}{Function Documentation}{subsection.13.7.2}{}}
\@writefile{toc}{\contentsline {subsubsection}{\numberline {13.7.2.1}operator==()}{99}{subsubsection.13.7.2.1}}
\newlabel{group__weight_gaf058ecdf4336e4dff64400d149c791f9}{{13.7.2.1}{99}{\texorpdfstring {operator==()}{operator==()}}{subsubsection.13.7.2.1}{}}
\@writefile{toc}{\contentsline {subsubsection}{\numberline {13.7.2.2}operator$<$()}{99}{subsubsection.13.7.2.2}}
\newlabel{group__weight_ga5fa6fc187426e2cc6aa40f7acddf8455}{{13.7.2.2}{99}{\texorpdfstring {operator$<$()}{operator<()}}{subsubsection.13.7.2.2}{}}
\@writefile{toc}{\contentsline {subsubsection}{\numberline {13.7.2.3}operator$<$$<$()}{99}{subsubsection.13.7.2.3}}
\newlabel{group__weight_gaff2b14e164c777c04be1a0e3c73b71fa}{{13.7.2.3}{99}{\texorpdfstring {operator$<$$<$()}{operator<<()}}{subsubsection.13.7.2.3}{}}
\@writefile{toc}{\contentsline {subsubsection}{\numberline {13.7.2.4}CountingWeight()}{99}{subsubsection.13.7.2.4}}
\newlabel{group__weight_gabde05f9a8f2eb526e5154c4f3480205b}{{13.7.2.4}{99}{\texorpdfstring {CountingWeight()}{CountingWeight()}}{subsubsection.13.7.2.4}{}}
\@writefile{toc}{\contentsline {subsubsection}{\numberline {13.7.2.5}operator=()\hspace  {0.1cm}{\relax \fontsize  {8}{9.5}\selectfont  \abovedisplayskip 6\p@ plus2\p@ minus4\p@ \abovedisplayshortskip \z@ plus\p@ \belowdisplayshortskip 3\p@ plus\p@ minus2\p@ \def \leftmargin \leftmargini \parsep 4\p@ plus2\p@ minus\p@ \topsep 8\p@ plus2\p@ minus4\p@ \itemsep 4\p@ plus2\p@ minus\p@ {\leftmargin \leftmargini \topsep 3\p@ plus\p@ minus\p@ \parsep 2\p@ plus\p@ minus\p@ \itemsep \parsep }\belowdisplayskip \abovedisplayskip \ttfamily  [1/4]}}{99}{subsubsection.13.7.2.5}}
\gdef \LT@xxxiii {\LT@entry 
    {3}{25.3008pt}\LT@entry 
    {3}{118.08487pt}}
\gdef \LT@xxxiv {\LT@entry 
    {3}{27.29875pt}\LT@entry 
    {3}{71.60272pt}}
\newlabel{group__weight_ga1d225aef0e74c70d8ae73164de4f56e2}{{13.7.2.5}{100}{\texorpdfstring {operator=()}{operator=()}\hspace {0.1cm}{\footnotesize \ttfamily [1/4]}}{table.13.33}{}}
\@writefile{toc}{\contentsline {subsubsection}{\numberline {13.7.2.6}make()\hspace  {0.1cm}{\relax \fontsize  {8}{9.5}\selectfont  \abovedisplayskip 6\p@ plus2\p@ minus4\p@ \abovedisplayshortskip \z@ plus\p@ \belowdisplayshortskip 3\p@ plus\p@ minus2\p@ \def \leftmargin \leftmargini \parsep 4\p@ plus2\p@ minus\p@ \topsep 8\p@ plus2\p@ minus4\p@ \itemsep 4\p@ plus2\p@ minus\p@ {\leftmargin \leftmargini \topsep 3\p@ plus\p@ minus\p@ \parsep 2\p@ plus\p@ minus\p@ \itemsep \parsep }\belowdisplayskip \abovedisplayskip \ttfamily  [1/2]}}{100}{subsubsection.13.7.2.6}}
\newlabel{group__weight_ga12cda7b4188f3917d256808fd42c3364}{{13.7.2.6}{100}{\texorpdfstring {make()}{make()}\hspace {0.1cm}{\footnotesize \ttfamily [1/2]}}{subsubsection.13.7.2.6}{}}
\@writefile{toc}{\contentsline {subsubsection}{\numberline {13.7.2.7}make\_unit()}{100}{subsubsection.13.7.2.7}}
\newlabel{group__weight_ga62b599ef59770e981d17d565e6727ca9}{{13.7.2.7}{100}{\texorpdfstring {make\_unit()}{make\_unit()}}{table.13.34}{}}
\@writefile{toc}{\contentsline {subsubsection}{\numberline {13.7.2.8}zero()}{100}{subsubsection.13.7.2.8}}
\newlabel{group__weight_ga41f35b8902b2474f1ac39878a40f5ca5}{{13.7.2.8}{100}{\texorpdfstring {zero()}{zero()}}{subsubsection.13.7.2.8}{}}
\gdef \LT@xxxv {\LT@entry 
    {3}{25.3008pt}\LT@entry 
    {3}{118.08487pt}}
\@writefile{toc}{\contentsline {subsubsection}{\numberline {13.7.2.9}error()}{101}{subsubsection.13.7.2.9}}
\newlabel{group__weight_ga5189380be1ac03126180846e3a8fd1cb}{{13.7.2.9}{101}{\texorpdfstring {error()}{error()}}{subsubsection.13.7.2.9}{}}
\@writefile{toc}{\contentsline {subsubsection}{\numberline {13.7.2.10}one()}{101}{subsubsection.13.7.2.10}}
\newlabel{group__weight_gabb8ca43a6821de970e8f6b23c848c804}{{13.7.2.10}{101}{\texorpdfstring {one()}{one()}}{subsubsection.13.7.2.10}{}}
\@writefile{toc}{\contentsline {subsubsection}{\numberline {13.7.2.11}norm()\hspace  {0.1cm}{\relax \fontsize  {8}{9.5}\selectfont  \abovedisplayskip 6\p@ plus2\p@ minus4\p@ \abovedisplayshortskip \z@ plus\p@ \belowdisplayshortskip 3\p@ plus\p@ minus2\p@ \def \leftmargin \leftmargini \parsep 4\p@ plus2\p@ minus\p@ \topsep 8\p@ plus2\p@ minus4\p@ \itemsep 4\p@ plus2\p@ minus\p@ {\leftmargin \leftmargini \topsep 3\p@ plus\p@ minus\p@ \parsep 2\p@ plus\p@ minus\p@ \itemsep \parsep }\belowdisplayskip \abovedisplayskip \ttfamily  [1/3]}}{101}{subsubsection.13.7.2.11}}
\newlabel{group__weight_ga33f06a811859bdbbf1c0ad2e34299df9}{{13.7.2.11}{101}{\texorpdfstring {norm()}{norm()}\hspace {0.1cm}{\footnotesize \ttfamily [1/3]}}{subsubsection.13.7.2.11}{}}
\@writefile{toc}{\contentsline {subsubsection}{\numberline {13.7.2.12}equal()\hspace  {0.1cm}{\relax \fontsize  {8}{9.5}\selectfont  \abovedisplayskip 6\p@ plus2\p@ minus4\p@ \abovedisplayshortskip \z@ plus\p@ \belowdisplayshortskip 3\p@ plus\p@ minus2\p@ \def \leftmargin \leftmargini \parsep 4\p@ plus2\p@ minus\p@ \topsep 8\p@ plus2\p@ minus4\p@ \itemsep 4\p@ plus2\p@ minus\p@ {\leftmargin \leftmargini \topsep 3\p@ plus\p@ minus\p@ \parsep 2\p@ plus\p@ minus\p@ \itemsep \parsep }\belowdisplayskip \abovedisplayskip \ttfamily  [1/4]}}{101}{subsubsection.13.7.2.12}}
\newlabel{group__weight_ga149e9ae84c83b9235d512c68fec54d1c}{{13.7.2.12}{101}{\texorpdfstring {equal()}{equal()}\hspace {0.1cm}{\footnotesize \ttfamily [1/4]}}{table.13.35}{}}
\gdef \LT@xxxvi {\LT@entry 
    {3}{25.3008pt}\LT@entry 
    {3}{118.08487pt}}
\@writefile{toc}{\contentsline {subsubsection}{\numberline {13.7.2.13}smaller()\hspace  {0.1cm}{\relax \fontsize  {8}{9.5}\selectfont  \abovedisplayskip 6\p@ plus2\p@ minus4\p@ \abovedisplayshortskip \z@ plus\p@ \belowdisplayshortskip 3\p@ plus\p@ minus2\p@ \def \leftmargin \leftmargini \parsep 4\p@ plus2\p@ minus\p@ \topsep 8\p@ plus2\p@ minus4\p@ \itemsep 4\p@ plus2\p@ minus\p@ {\leftmargin \leftmargini \topsep 3\p@ plus\p@ minus\p@ \parsep 2\p@ plus\p@ minus\p@ \itemsep \parsep }\belowdisplayskip \abovedisplayskip \ttfamily  [1/4]}}{102}{subsubsection.13.7.2.13}}
\newlabel{group__weight_ga01ca779f7d5378564f4419150d7ae1f5}{{13.7.2.13}{102}{\texorpdfstring {smaller()}{smaller()}\hspace {0.1cm}{\footnotesize \ttfamily [1/4]}}{table.13.36}{}}
\@writefile{toc}{\contentsline {subsubsection}{\numberline {13.7.2.14}add()\hspace  {0.1cm}{\relax \fontsize  {8}{9.5}\selectfont  \abovedisplayskip 6\p@ plus2\p@ minus4\p@ \abovedisplayshortskip \z@ plus\p@ \belowdisplayshortskip 3\p@ plus\p@ minus2\p@ \def \leftmargin \leftmargini \parsep 4\p@ plus2\p@ minus\p@ \topsep 8\p@ plus2\p@ minus4\p@ \itemsep 4\p@ plus2\p@ minus\p@ {\leftmargin \leftmargini \topsep 3\p@ plus\p@ minus\p@ \parsep 2\p@ plus\p@ minus\p@ \itemsep \parsep }\belowdisplayskip \abovedisplayskip \ttfamily  [1/5]}}{102}{subsubsection.13.7.2.14}}
\newlabel{group__weight_ga102af16b814daad826afb91d6f6c75b3}{{13.7.2.14}{102}{\texorpdfstring {add()}{add()}\hspace {0.1cm}{\footnotesize \ttfamily [1/5]}}{subsubsection.13.7.2.14}{}}
\@writefile{toc}{\contentsline {subsubsection}{\numberline {13.7.2.15}mult()\hspace  {0.1cm}{\relax \fontsize  {8}{9.5}\selectfont  \abovedisplayskip 6\p@ plus2\p@ minus4\p@ \abovedisplayshortskip \z@ plus\p@ \belowdisplayshortskip 3\p@ plus\p@ minus2\p@ \def \leftmargin \leftmargini \parsep 4\p@ plus2\p@ minus\p@ \topsep 8\p@ plus2\p@ minus4\p@ \itemsep 4\p@ plus2\p@ minus\p@ {\leftmargin \leftmargini \topsep 3\p@ plus\p@ minus\p@ \parsep 2\p@ plus\p@ minus\p@ \itemsep \parsep }\belowdisplayskip \abovedisplayskip \ttfamily  [1/5]}}{102}{subsubsection.13.7.2.15}}
\newlabel{group__weight_ga45533bb9d354577728ddb1e0a42c4bab}{{13.7.2.15}{102}{\texorpdfstring {mult()}{mult()}\hspace {0.1cm}{\footnotesize \ttfamily [1/5]}}{subsubsection.13.7.2.15}{}}
\gdef \LT@xxxvii {\LT@entry 
    {3}{25.3008pt}\LT@entry 
    {3}{104.57607pt}}
\gdef \LT@xxxviii {\LT@entry 
    {3}{25.3008pt}\LT@entry 
    {3}{104.57607pt}}
\gdef \LT@xxxix {\LT@entry 
    {3}{25.3008pt}\LT@entry 
    {3}{104.57607pt}}
\@writefile{toc}{\contentsline {subsubsection}{\numberline {13.7.2.16}invert()\hspace  {0.1cm}{\relax \fontsize  {8}{9.5}\selectfont  \abovedisplayskip 6\p@ plus2\p@ minus4\p@ \abovedisplayshortskip \z@ plus\p@ \belowdisplayshortskip 3\p@ plus\p@ minus2\p@ \def \leftmargin \leftmargini \parsep 4\p@ plus2\p@ minus\p@ \topsep 8\p@ plus2\p@ minus4\p@ \itemsep 4\p@ plus2\p@ minus\p@ {\leftmargin \leftmargini \topsep 3\p@ plus\p@ minus\p@ \parsep 2\p@ plus\p@ minus\p@ \itemsep \parsep }\belowdisplayskip \abovedisplayskip \ttfamily  [1/4]}}{103}{subsubsection.13.7.2.16}}
\newlabel{group__weight_gaaa895d17971bdd11c3ecddb9d701ac0a}{{13.7.2.16}{103}{\texorpdfstring {invert()}{invert()}\hspace {0.1cm}{\footnotesize \ttfamily [1/4]}}{subsubsection.13.7.2.16}{}}
\@writefile{toc}{\contentsline {subsubsection}{\numberline {13.7.2.17}equal()\hspace  {0.1cm}{\relax \fontsize  {8}{9.5}\selectfont  \abovedisplayskip 6\p@ plus2\p@ minus4\p@ \abovedisplayshortskip \z@ plus\p@ \belowdisplayshortskip 3\p@ plus\p@ minus2\p@ \def \leftmargin \leftmargini \parsep 4\p@ plus2\p@ minus\p@ \topsep 8\p@ plus2\p@ minus4\p@ \itemsep 4\p@ plus2\p@ minus\p@ {\leftmargin \leftmargini \topsep 3\p@ plus\p@ minus\p@ \parsep 2\p@ plus\p@ minus\p@ \itemsep \parsep }\belowdisplayskip \abovedisplayskip \ttfamily  [2/4]}}{103}{subsubsection.13.7.2.17}}
\newlabel{group__weight_ga89e27d308aeaadbc11621ae9a6e839b3}{{13.7.2.17}{103}{\texorpdfstring {equal()}{equal()}\hspace {0.1cm}{\footnotesize \ttfamily [2/4]}}{table.13.37}{}}
\@writefile{toc}{\contentsline {subsubsection}{\numberline {13.7.2.18}smaller()\hspace  {0.1cm}{\relax \fontsize  {8}{9.5}\selectfont  \abovedisplayskip 6\p@ plus2\p@ minus4\p@ \abovedisplayshortskip \z@ plus\p@ \belowdisplayshortskip 3\p@ plus\p@ minus2\p@ \def \leftmargin \leftmargini \parsep 4\p@ plus2\p@ minus\p@ \topsep 8\p@ plus2\p@ minus4\p@ \itemsep 4\p@ plus2\p@ minus\p@ {\leftmargin \leftmargini \topsep 3\p@ plus\p@ minus\p@ \parsep 2\p@ plus\p@ minus\p@ \itemsep \parsep }\belowdisplayskip \abovedisplayskip \ttfamily  [2/4]}}{103}{subsubsection.13.7.2.18}}
\newlabel{group__weight_ga987ee2a0704f046a9be6e2456d56df7c}{{13.7.2.18}{103}{\texorpdfstring {smaller()}{smaller()}\hspace {0.1cm}{\footnotesize \ttfamily [2/4]}}{table.13.38}{}}
\@writefile{toc}{\contentsline {subsubsection}{\numberline {13.7.2.19}add()\hspace  {0.1cm}{\relax \fontsize  {8}{9.5}\selectfont  \abovedisplayskip 6\p@ plus2\p@ minus4\p@ \abovedisplayshortskip \z@ plus\p@ \belowdisplayshortskip 3\p@ plus\p@ minus2\p@ \def \leftmargin \leftmargini \parsep 4\p@ plus2\p@ minus\p@ \topsep 8\p@ plus2\p@ minus4\p@ \itemsep 4\p@ plus2\p@ minus\p@ {\leftmargin \leftmargini \topsep 3\p@ plus\p@ minus\p@ \parsep 2\p@ plus\p@ minus\p@ \itemsep \parsep }\belowdisplayskip \abovedisplayskip \ttfamily  [2/5]}}{103}{subsubsection.13.7.2.19}}
\gdef \LT@xl {\LT@entry 
    {3}{25.3008pt}\LT@entry 
    {3}{104.57607pt}}
\gdef \LT@xli {\LT@entry 
    {3}{25.3008pt}\LT@entry 
    {3}{102.85713pt}}
\newlabel{group__weight_ga16591d6a01c98477ccd57deadf8d4738}{{13.7.2.19}{104}{\texorpdfstring {add()}{add()}\hspace {0.1cm}{\footnotesize \ttfamily [2/5]}}{table.13.39}{}}
\@writefile{toc}{\contentsline {subsubsection}{\numberline {13.7.2.20}mult()\hspace  {0.1cm}{\relax \fontsize  {8}{9.5}\selectfont  \abovedisplayskip 6\p@ plus2\p@ minus4\p@ \abovedisplayshortskip \z@ plus\p@ \belowdisplayshortskip 3\p@ plus\p@ minus2\p@ \def \leftmargin \leftmargini \parsep 4\p@ plus2\p@ minus\p@ \topsep 8\p@ plus2\p@ minus4\p@ \itemsep 4\p@ plus2\p@ minus\p@ {\leftmargin \leftmargini \topsep 3\p@ plus\p@ minus\p@ \parsep 2\p@ plus\p@ minus\p@ \itemsep \parsep }\belowdisplayskip \abovedisplayskip \ttfamily  [2/5]}}{104}{subsubsection.13.7.2.20}}
\newlabel{group__weight_gaa4edfc478ea676a169bd5b58b82ff352}{{13.7.2.20}{104}{\texorpdfstring {mult()}{mult()}\hspace {0.1cm}{\footnotesize \ttfamily [2/5]}}{table.13.40}{}}
\@writefile{toc}{\contentsline {subsubsection}{\numberline {13.7.2.21}PerfoWeight()}{104}{subsubsection.13.7.2.21}}
\newlabel{group__weight_gaabb75d1419be3bb59dcdd3b8e56b0e63}{{13.7.2.21}{104}{\texorpdfstring {PerfoWeight()}{PerfoWeight()}}{subsubsection.13.7.2.21}{}}
\@writefile{toc}{\contentsline {subsubsection}{\numberline {13.7.2.22}operator=()\hspace  {0.1cm}{\relax \fontsize  {8}{9.5}\selectfont  \abovedisplayskip 6\p@ plus2\p@ minus4\p@ \abovedisplayshortskip \z@ plus\p@ \belowdisplayshortskip 3\p@ plus\p@ minus2\p@ \def \leftmargin \leftmargini \parsep 4\p@ plus2\p@ minus\p@ \topsep 8\p@ plus2\p@ minus4\p@ \itemsep 4\p@ plus2\p@ minus\p@ {\leftmargin \leftmargini \topsep 3\p@ plus\p@ minus\p@ \parsep 2\p@ plus\p@ minus\p@ \itemsep \parsep }\belowdisplayskip \abovedisplayskip \ttfamily  [2/4]}}{104}{subsubsection.13.7.2.22}}
\newlabel{group__weight_ga3aeb0d5a945daa39a0ed9a02fe92f246}{{13.7.2.22}{104}{\texorpdfstring {operator=()}{operator=()}\hspace {0.1cm}{\footnotesize \ttfamily [2/4]}}{table.13.41}{}}
\@writefile{toc}{\contentsline {subsubsection}{\numberline {13.7.2.23}operator=()\hspace  {0.1cm}{\relax \fontsize  {8}{9.5}\selectfont  \abovedisplayskip 6\p@ plus2\p@ minus4\p@ \abovedisplayshortskip \z@ plus\p@ \belowdisplayshortskip 3\p@ plus\p@ minus2\p@ \def \leftmargin \leftmargini \parsep 4\p@ plus2\p@ minus\p@ \topsep 8\p@ plus2\p@ minus4\p@ \itemsep 4\p@ plus2\p@ minus\p@ {\leftmargin \leftmargini \topsep 3\p@ plus\p@ minus\p@ \parsep 2\p@ plus\p@ minus\p@ \itemsep \parsep }\belowdisplayskip \abovedisplayskip \ttfamily  [3/4]}}{104}{subsubsection.13.7.2.23}}
\gdef \LT@xlii {\LT@entry 
    {3}{25.3008pt}\LT@entry 
    {3}{112.99109pt}}
\newlabel{group__weight_gabea8959ba2b8538194c3aadf5f9e4941}{{13.7.2.23}{105}{\texorpdfstring {operator=()}{operator=()}\hspace {0.1cm}{\footnotesize \ttfamily [3/4]}}{subsubsection.13.7.2.23}{}}
\@writefile{toc}{\contentsline {subsubsection}{\numberline {13.7.2.24}norm()\hspace  {0.1cm}{\relax \fontsize  {8}{9.5}\selectfont  \abovedisplayskip 6\p@ plus2\p@ minus4\p@ \abovedisplayshortskip \z@ plus\p@ \belowdisplayshortskip 3\p@ plus\p@ minus2\p@ \def \leftmargin \leftmargini \parsep 4\p@ plus2\p@ minus\p@ \topsep 8\p@ plus2\p@ minus4\p@ \itemsep 4\p@ plus2\p@ minus\p@ {\leftmargin \leftmargini \topsep 3\p@ plus\p@ minus\p@ \parsep 2\p@ plus\p@ minus\p@ \itemsep \parsep }\belowdisplayskip \abovedisplayskip \ttfamily  [2/3]}}{105}{subsubsection.13.7.2.24}}
\newlabel{group__weight_ga2bad107be8a2e71fc12b75196adde070}{{13.7.2.24}{105}{\texorpdfstring {norm()}{norm()}\hspace {0.1cm}{\footnotesize \ttfamily [2/3]}}{subsubsection.13.7.2.24}{}}
\@writefile{toc}{\contentsline {subsubsection}{\numberline {13.7.2.25}invert()\hspace  {0.1cm}{\relax \fontsize  {8}{9.5}\selectfont  \abovedisplayskip 6\p@ plus2\p@ minus4\p@ \abovedisplayshortskip \z@ plus\p@ \belowdisplayshortskip 3\p@ plus\p@ minus2\p@ \def \leftmargin \leftmargini \parsep 4\p@ plus2\p@ minus\p@ \topsep 8\p@ plus2\p@ minus4\p@ \itemsep 4\p@ plus2\p@ minus\p@ {\leftmargin \leftmargini \topsep 3\p@ plus\p@ minus\p@ \parsep 2\p@ plus\p@ minus\p@ \itemsep \parsep }\belowdisplayskip \abovedisplayskip \ttfamily  [2/4]}}{105}{subsubsection.13.7.2.25}}
\newlabel{group__weight_ga7203d6028f02a2791bdeede99ef59b97}{{13.7.2.25}{105}{\texorpdfstring {invert()}{invert()}\hspace {0.1cm}{\footnotesize \ttfamily [2/4]}}{subsubsection.13.7.2.25}{}}
\@writefile{toc}{\contentsline {subsubsection}{\numberline {13.7.2.26}equal()\hspace  {0.1cm}{\relax \fontsize  {8}{9.5}\selectfont  \abovedisplayskip 6\p@ plus2\p@ minus4\p@ \abovedisplayshortskip \z@ plus\p@ \belowdisplayshortskip 3\p@ plus\p@ minus2\p@ \def \leftmargin \leftmargini \parsep 4\p@ plus2\p@ minus\p@ \topsep 8\p@ plus2\p@ minus4\p@ \itemsep 4\p@ plus2\p@ minus\p@ {\leftmargin \leftmargini \topsep 3\p@ plus\p@ minus\p@ \parsep 2\p@ plus\p@ minus\p@ \itemsep \parsep }\belowdisplayskip \abovedisplayskip \ttfamily  [3/4]}}{105}{subsubsection.13.7.2.26}}
\newlabel{group__weight_ga4237553cf4beafd5a96bd0ac7da7ac11}{{13.7.2.26}{105}{\texorpdfstring {equal()}{equal()}\hspace {0.1cm}{\footnotesize \ttfamily [3/4]}}{table.13.42}{}}
\gdef \LT@xliii {\LT@entry 
    {3}{25.3008pt}\LT@entry 
    {3}{112.99109pt}}
\gdef \LT@xliv {\LT@entry 
    {3}{25.3008pt}\LT@entry 
    {3}{245.05392pt}}
\gdef \LT@xlv {\LT@entry 
    {3}{25.3008pt}\LT@entry 
    {3}{247.55594pt}}
\@writefile{toc}{\contentsline {subsubsection}{\numberline {13.7.2.27}smaller()\hspace  {0.1cm}{\relax \fontsize  {8}{9.5}\selectfont  \abovedisplayskip 6\p@ plus2\p@ minus4\p@ \abovedisplayshortskip \z@ plus\p@ \belowdisplayshortskip 3\p@ plus\p@ minus2\p@ \def \leftmargin \leftmargini \parsep 4\p@ plus2\p@ minus\p@ \topsep 8\p@ plus2\p@ minus4\p@ \itemsep 4\p@ plus2\p@ minus\p@ {\leftmargin \leftmargini \topsep 3\p@ plus\p@ minus\p@ \parsep 2\p@ plus\p@ minus\p@ \itemsep \parsep }\belowdisplayskip \abovedisplayskip \ttfamily  [3/4]}}{106}{subsubsection.13.7.2.27}}
\newlabel{group__weight_ga41791f144fea9717092970563337d040}{{13.7.2.27}{106}{\texorpdfstring {smaller()}{smaller()}\hspace {0.1cm}{\footnotesize \ttfamily [3/4]}}{table.13.43}{}}
\@writefile{toc}{\contentsline {subsubsection}{\numberline {13.7.2.28}add()\hspace  {0.1cm}{\relax \fontsize  {8}{9.5}\selectfont  \abovedisplayskip 6\p@ plus2\p@ minus4\p@ \abovedisplayshortskip \z@ plus\p@ \belowdisplayshortskip 3\p@ plus\p@ minus2\p@ \def \leftmargin \leftmargini \parsep 4\p@ plus2\p@ minus\p@ \topsep 8\p@ plus2\p@ minus4\p@ \itemsep 4\p@ plus2\p@ minus\p@ {\leftmargin \leftmargini \topsep 3\p@ plus\p@ minus\p@ \parsep 2\p@ plus\p@ minus\p@ \itemsep \parsep }\belowdisplayskip \abovedisplayskip \ttfamily  [3/5]}}{106}{subsubsection.13.7.2.28}}
\newlabel{group__weight_ga6bf7a669a9798ebbd6b4138cce2bade6}{{13.7.2.28}{106}{\texorpdfstring {add()}{add()}\hspace {0.1cm}{\footnotesize \ttfamily [3/5]}}{table.13.44}{}}
\@writefile{toc}{\contentsline {subsubsection}{\numberline {13.7.2.29}mult()\hspace  {0.1cm}{\relax \fontsize  {8}{9.5}\selectfont  \abovedisplayskip 6\p@ plus2\p@ minus4\p@ \abovedisplayshortskip \z@ plus\p@ \belowdisplayshortskip 3\p@ plus\p@ minus2\p@ \def \leftmargin \leftmargini \parsep 4\p@ plus2\p@ minus\p@ \topsep 8\p@ plus2\p@ minus4\p@ \itemsep 4\p@ plus2\p@ minus\p@ {\leftmargin \leftmargini \topsep 3\p@ plus\p@ minus\p@ \parsep 2\p@ plus\p@ minus\p@ \itemsep \parsep }\belowdisplayskip \abovedisplayskip \ttfamily  [3/5]}}{106}{subsubsection.13.7.2.29}}
\newlabel{group__weight_ga739a8c09964d0db9552f5924b494c89d}{{13.7.2.29}{106}{\texorpdfstring {mult()}{mult()}\hspace {0.1cm}{\footnotesize \ttfamily [3/5]}}{table.13.45}{}}
\@writefile{toc}{\contentsline {subsubsection}{\numberline {13.7.2.30}gracenote()}{106}{subsubsection.13.7.2.30}}
\gdef \LT@xlvi {\LT@entry 
    {3}{37.35149pt}\LT@entry 
    {3}{107.573pt}}
\gdef \LT@xlvii {\LT@entry 
    {3}{25.3008pt}\LT@entry 
    {3}{245.09862pt}}
\newlabel{group__weight_ga6624ad5a46c38eeae5382fc00cf4b8a0}{{13.7.2.30}{107}{\texorpdfstring {gracenote()}{gracenote()}}{subsubsection.13.7.2.30}{}}
\@writefile{toc}{\contentsline {subsubsection}{\numberline {13.7.2.31}operator=()\hspace  {0.1cm}{\relax \fontsize  {8}{9.5}\selectfont  \abovedisplayskip 6\p@ plus2\p@ minus4\p@ \abovedisplayshortskip \z@ plus\p@ \belowdisplayshortskip 3\p@ plus\p@ minus2\p@ \def \leftmargin \leftmargini \parsep 4\p@ plus2\p@ minus\p@ \topsep 8\p@ plus2\p@ minus4\p@ \itemsep 4\p@ plus2\p@ minus\p@ {\leftmargin \leftmargini \topsep 3\p@ plus\p@ minus\p@ \parsep 2\p@ plus\p@ minus\p@ \itemsep \parsep }\belowdisplayskip \abovedisplayskip \ttfamily  [4/4]}}{107}{subsubsection.13.7.2.31}}
\newlabel{group__weight_ga1fa4dd503a5f4915df2f9c5663aeeaeb}{{13.7.2.31}{107}{\texorpdfstring {operator=()}{operator=()}\hspace {0.1cm}{\footnotesize \ttfamily [4/4]}}{table.13.46}{}}
\@writefile{toc}{\contentsline {subsubsection}{\numberline {13.7.2.32}invert()\hspace  {0.1cm}{\relax \fontsize  {8}{9.5}\selectfont  \abovedisplayskip 6\p@ plus2\p@ minus4\p@ \abovedisplayshortskip \z@ plus\p@ \belowdisplayshortskip 3\p@ plus\p@ minus2\p@ \def \leftmargin \leftmargini \parsep 4\p@ plus2\p@ minus\p@ \topsep 8\p@ plus2\p@ minus4\p@ \itemsep 4\p@ plus2\p@ minus\p@ {\leftmargin \leftmargini \topsep 3\p@ plus\p@ minus\p@ \parsep 2\p@ plus\p@ minus\p@ \itemsep \parsep }\belowdisplayskip \abovedisplayskip \ttfamily  [3/4]}}{107}{subsubsection.13.7.2.32}}
\newlabel{group__weight_ga009b0216c58308f81497e4aabe49aaed}{{13.7.2.32}{107}{\texorpdfstring {invert()}{invert()}\hspace {0.1cm}{\footnotesize \ttfamily [3/4]}}{subsubsection.13.7.2.32}{}}
\@writefile{toc}{\contentsline {subsubsection}{\numberline {13.7.2.33}add()\hspace  {0.1cm}{\relax \fontsize  {8}{9.5}\selectfont  \abovedisplayskip 6\p@ plus2\p@ minus4\p@ \abovedisplayshortskip \z@ plus\p@ \belowdisplayshortskip 3\p@ plus\p@ minus2\p@ \def \leftmargin \leftmargini \parsep 4\p@ plus2\p@ minus\p@ \topsep 8\p@ plus2\p@ minus4\p@ \itemsep 4\p@ plus2\p@ minus\p@ {\leftmargin \leftmargini \topsep 3\p@ plus\p@ minus\p@ \parsep 2\p@ plus\p@ minus\p@ \itemsep \parsep }\belowdisplayskip \abovedisplayskip \ttfamily  [4/5]}}{107}{subsubsection.13.7.2.33}}
\gdef \LT@xlviii {\LT@entry 
    {3}{25.3008pt}\LT@entry 
    {3}{247.60063pt}}
\gdef \LT@xlix {\LT@entry 
    {3}{32.31168pt}\LT@entry 
    {3}{298.66566pt}}
\newlabel{group__weight_ga842377ca8ad5fa73cc9787fa97e88635}{{13.7.2.33}{108}{\texorpdfstring {add()}{add()}\hspace {0.1cm}{\footnotesize \ttfamily [4/5]}}{table.13.47}{}}
\@writefile{toc}{\contentsline {subsubsection}{\numberline {13.7.2.34}mult()\hspace  {0.1cm}{\relax \fontsize  {8}{9.5}\selectfont  \abovedisplayskip 6\p@ plus2\p@ minus4\p@ \abovedisplayshortskip \z@ plus\p@ \belowdisplayshortskip 3\p@ plus\p@ minus2\p@ \def \leftmargin \leftmargini \parsep 4\p@ plus2\p@ minus\p@ \topsep 8\p@ plus2\p@ minus4\p@ \itemsep 4\p@ plus2\p@ minus\p@ {\leftmargin \leftmargini \topsep 3\p@ plus\p@ minus\p@ \parsep 2\p@ plus\p@ minus\p@ \itemsep \parsep }\belowdisplayskip \abovedisplayskip \ttfamily  [4/5]}}{108}{subsubsection.13.7.2.34}}
\newlabel{group__weight_gaf8f62c5cee5ffa37e30ef7239a33b729}{{13.7.2.34}{108}{\texorpdfstring {mult()}{mult()}\hspace {0.1cm}{\footnotesize \ttfamily [4/5]}}{table.13.48}{}}
\@writefile{toc}{\contentsline {subsubsection}{\numberline {13.7.2.35}make()\hspace  {0.1cm}{\relax \fontsize  {8}{9.5}\selectfont  \abovedisplayskip 6\p@ plus2\p@ minus4\p@ \abovedisplayshortskip \z@ plus\p@ \belowdisplayshortskip 3\p@ plus\p@ minus2\p@ \def \leftmargin \leftmargini \parsep 4\p@ plus2\p@ minus\p@ \topsep 8\p@ plus2\p@ minus4\p@ \itemsep 4\p@ plus2\p@ minus\p@ {\leftmargin \leftmargini \topsep 3\p@ plus\p@ minus\p@ \parsep 2\p@ plus\p@ minus\p@ \itemsep \parsep }\belowdisplayskip \abovedisplayskip \ttfamily  [2/2]}}{108}{subsubsection.13.7.2.35}}
\newlabel{group__weight_gad236331c6f6ca8dd9fced5ffffd79f35}{{13.7.2.35}{108}{\texorpdfstring {make()}{make()}\hspace {0.1cm}{\footnotesize \ttfamily [2/2]}}{subsubsection.13.7.2.35}{}}
\@writefile{toc}{\contentsline {subsubsection}{\numberline {13.7.2.36}hasType()}{108}{subsubsection.13.7.2.36}}
\newlabel{group__weight_ga68bd9621500f31ba5f0fbe04dc5a00e4}{{13.7.2.36}{108}{\texorpdfstring {hasType()}{hasType()}}{table.13.49}{}}
\@writefile{toc}{\contentsline {subsubsection}{\numberline {13.7.2.37}norm()\hspace  {0.1cm}{\relax \fontsize  {8}{9.5}\selectfont  \abovedisplayskip 6\p@ plus2\p@ minus4\p@ \abovedisplayshortskip \z@ plus\p@ \belowdisplayshortskip 3\p@ plus\p@ minus2\p@ \def \leftmargin \leftmargini \parsep 4\p@ plus2\p@ minus\p@ \topsep 8\p@ plus2\p@ minus4\p@ \itemsep 4\p@ plus2\p@ minus\p@ {\leftmargin \leftmargini \topsep 3\p@ plus\p@ minus\p@ \parsep 2\p@ plus\p@ minus\p@ \itemsep \parsep }\belowdisplayskip \abovedisplayskip \ttfamily  [3/3]}}{108}{subsubsection.13.7.2.37}}
\newlabel{group__weight_ga5d63ead0a1d21ee5628c643fca773903}{{13.7.2.37}{108}{\texorpdfstring {norm()}{norm()}\hspace {0.1cm}{\footnotesize \ttfamily [3/3]}}{subsubsection.13.7.2.37}{}}
\@writefile{toc}{\contentsline {subsubsection}{\numberline {13.7.2.38}scalar()}{109}{subsubsection.13.7.2.38}}
\newlabel{group__weight_gabc3309e134f0fdda38ebbcb12d350a28}{{13.7.2.38}{109}{\texorpdfstring {scalar()}{scalar()}}{subsubsection.13.7.2.38}{}}
\@writefile{toc}{\contentsline {subsubsection}{\numberline {13.7.2.39}invert()\hspace  {0.1cm}{\relax \fontsize  {8}{9.5}\selectfont  \abovedisplayskip 6\p@ plus2\p@ minus4\p@ \abovedisplayshortskip \z@ plus\p@ \belowdisplayshortskip 3\p@ plus\p@ minus2\p@ \def \leftmargin \leftmargini \parsep 4\p@ plus2\p@ minus\p@ \topsep 8\p@ plus2\p@ minus4\p@ \itemsep 4\p@ plus2\p@ minus\p@ {\leftmargin \leftmargini \topsep 3\p@ plus\p@ minus\p@ \parsep 2\p@ plus\p@ minus\p@ \itemsep \parsep }\belowdisplayskip \abovedisplayskip \ttfamily  [4/4]}}{109}{subsubsection.13.7.2.39}}
\newlabel{group__weight_gaace5b230ea1544aac7b049091e142bd3}{{13.7.2.39}{109}{\texorpdfstring {invert()}{invert()}\hspace {0.1cm}{\footnotesize \ttfamily [4/4]}}{subsubsection.13.7.2.39}{}}
\@writefile{toc}{\contentsline {subsubsection}{\numberline {13.7.2.40}clear()}{109}{subsubsection.13.7.2.40}}
\newlabel{group__weight_ga11236e38c2dc7cc66a367c2ea5921c1e}{{13.7.2.40}{109}{\texorpdfstring {clear()}{clear()}}{subsubsection.13.7.2.40}{}}
\@writefile{toc}{\contentsline {subsubsection}{\numberline {13.7.2.41}equal()\hspace  {0.1cm}{\relax \fontsize  {8}{9.5}\selectfont  \abovedisplayskip 6\p@ plus2\p@ minus4\p@ \abovedisplayshortskip \z@ plus\p@ \belowdisplayshortskip 3\p@ plus\p@ minus2\p@ \def \leftmargin \leftmargini \parsep 4\p@ plus2\p@ minus\p@ \topsep 8\p@ plus2\p@ minus4\p@ \itemsep 4\p@ plus2\p@ minus\p@ {\leftmargin \leftmargini \topsep 3\p@ plus\p@ minus\p@ \parsep 2\p@ plus\p@ minus\p@ \itemsep \parsep }\belowdisplayskip \abovedisplayskip \ttfamily  [4/4]}}{109}{subsubsection.13.7.2.41}}
\newlabel{group__weight_gab3a3a5fb989514e5673582b9a7107d97}{{13.7.2.41}{109}{\texorpdfstring {equal()}{equal()}\hspace {0.1cm}{\footnotesize \ttfamily [4/4]}}{subsubsection.13.7.2.41}{}}
\@writefile{toc}{\contentsline {subsubsection}{\numberline {13.7.2.42}smaller()\hspace  {0.1cm}{\relax \fontsize  {8}{9.5}\selectfont  \abovedisplayskip 6\p@ plus2\p@ minus4\p@ \abovedisplayshortskip \z@ plus\p@ \belowdisplayshortskip 3\p@ plus\p@ minus2\p@ \def \leftmargin \leftmargini \parsep 4\p@ plus2\p@ minus\p@ \topsep 8\p@ plus2\p@ minus4\p@ \itemsep 4\p@ plus2\p@ minus\p@ {\leftmargin \leftmargini \topsep 3\p@ plus\p@ minus\p@ \parsep 2\p@ plus\p@ minus\p@ \itemsep \parsep }\belowdisplayskip \abovedisplayskip \ttfamily  [4/4]}}{110}{subsubsection.13.7.2.42}}
\newlabel{group__weight_ga261db18abff49cac38bd02b8f7af94db}{{13.7.2.42}{110}{\texorpdfstring {smaller()}{smaller()}\hspace {0.1cm}{\footnotesize \ttfamily [4/4]}}{subsubsection.13.7.2.42}{}}
\@writefile{toc}{\contentsline {subsubsection}{\numberline {13.7.2.43}add()\hspace  {0.1cm}{\relax \fontsize  {8}{9.5}\selectfont  \abovedisplayskip 6\p@ plus2\p@ minus4\p@ \abovedisplayshortskip \z@ plus\p@ \belowdisplayshortskip 3\p@ plus\p@ minus2\p@ \def \leftmargin \leftmargini \parsep 4\p@ plus2\p@ minus\p@ \topsep 8\p@ plus2\p@ minus4\p@ \itemsep 4\p@ plus2\p@ minus\p@ {\leftmargin \leftmargini \topsep 3\p@ plus\p@ minus\p@ \parsep 2\p@ plus\p@ minus\p@ \itemsep \parsep }\belowdisplayskip \abovedisplayskip \ttfamily  [5/5]}}{110}{subsubsection.13.7.2.43}}
\newlabel{group__weight_ga7188f571e507d7f31b76de7faebdb78f}{{13.7.2.43}{110}{\texorpdfstring {add()}{add()}\hspace {0.1cm}{\footnotesize \ttfamily [5/5]}}{subsubsection.13.7.2.43}{}}
\@writefile{toc}{\contentsline {subsubsection}{\numberline {13.7.2.44}mult()\hspace  {0.1cm}{\relax \fontsize  {8}{9.5}\selectfont  \abovedisplayskip 6\p@ plus2\p@ minus4\p@ \abovedisplayshortskip \z@ plus\p@ \belowdisplayshortskip 3\p@ plus\p@ minus2\p@ \def \leftmargin \leftmargini \parsep 4\p@ plus2\p@ minus\p@ \topsep 8\p@ plus2\p@ minus4\p@ \itemsep 4\p@ plus2\p@ minus\p@ {\leftmargin \leftmargini \topsep 3\p@ plus\p@ minus\p@ \parsep 2\p@ plus\p@ minus\p@ \itemsep \parsep }\belowdisplayskip \abovedisplayskip \ttfamily  [5/5]}}{110}{subsubsection.13.7.2.44}}
\@writefile{toc}{\contentsline {subsection}{\numberline {13.7.3}Variable Documentation}{110}{subsection.13.7.3}}
\newlabel{group__weight_ga65ae4a5dbff3b9bf3d9972147868fc05}{{13.7.3}{110}{Variable Documentation}{subsection.13.7.3}{}}
\@writefile{toc}{\contentsline {subsubsection}{\numberline {13.7.3.1}penalty}{110}{subsubsection.13.7.3.1}}
\@setckpt{group__weight}{
\setcounter{page}{111}
\setcounter{equation}{0}
\setcounter{enumi}{0}
\setcounter{enumii}{0}
\setcounter{enumiii}{0}
\setcounter{enumiv}{0}
\setcounter{footnote}{0}
\setcounter{mpfootnote}{0}
\setcounter{part}{0}
\setcounter{chapter}{13}
\setcounter{section}{7}
\setcounter{subsection}{3}
\setcounter{subsubsection}{1}
\setcounter{paragraph}{0}
\setcounter{subparagraph}{0}
\setcounter{figure}{0}
\setcounter{table}{49}
\setcounter{float@type}{4}
\setcounter{LT@tables}{49}
\setcounter{LT@chunks}{3}
\setcounter{FancyVerbLine}{0}
\setcounter{@stackindex}{0}
\setcounter{ROWcellindex@}{0}
\setcounter{NAT@ctr}{0}
\setcounter{lofdepth}{1}
\setcounter{lotdepth}{1}
\setcounter{Item}{0}
\setcounter{Hfootnote}{0}
\setcounter{bookmark@seq@number}{235}
\setcounter{ContinuedFloat}{0}
\setcounter{etoc@tocid}{1}
\setcounter{etoc@tocdepth}{3}
\setcounter{section@level}{3}
}
