\relax 
\providecommand\hyper@newdestlabel[2]{}
\@writefile{toc}{\contentsline {section}{\numberline {13.3}Schemata module}{37}{section.13.3}}
\newlabel{group__schemata}{{13.3}{37}{Schemata module}{section.13.3}{}}
\newlabel{group__schemata_ga5f54dbbcb6e551cd56a12c9d9711f82e}{{13.3}{38}{Typedefs}{section*.11}{}}
\newlabel{group__schemata_ga34fd7500c532fc3af1419927d6102bb4}{{13.3}{38}{Typedefs}{section*.11}{}}
\newlabel{group__schemata_gabd0a920032a3757e491c0f765beb9657}{{13.3}{38}{Typedefs}{section*.11}{}}
\newlabel{group__schemata_gacb03191d1927740d0f6f55d525eec2be}{{13.3}{38}{Typedefs}{section*.11}{}}
\newlabel{group__schemata_gada53f8336fc15b6740d915faaa812651}{{13.3}{38}{Typedefs}{section*.11}{}}
\newlabel{group__schemata_ga881b5f6757c004ef80638824b4057ad3}{{13.3}{38}{Typedefs}{section*.11}{}}
\newlabel{group__schemata_gaf9f065672b84540dc2310cee57062b5d}{{13.3}{38}{Typedefs}{section*.11}{}}
\newlabel{group__schemata_gac6a3bf271d488fbc785617cb246215f3}{{13.3}{38}{Typedefs}{section*.11}{}}
\newlabel{group__schemata_gaacfb8dd676081cbdacc586bd08ef5339}{{13.3}{38}{Functions}{section*.12}{}}
\newlabel{group__schemata_ga5876dc1d6e1700ecd64b79abc371f852}{{13.3}{38}{Functions}{section*.12}{}}
\newlabel{group__schemata_gaf522606427f33e50d5ccd45945e140ac}{{13.3}{38}{Functions}{section*.12}{}}
\newlabel{group__schemata_gaf8b99aabcea05e6f7f8b31da07ee3790}{{13.3}{38}{Functions}{section*.12}{}}
\newlabel{group__schemata_ga9bf0c703002e360545ebd943f933fb18}{{13.3}{38}{Functions}{section*.12}{}}
\newlabel{group__schemata_gaf1cd2ec3c46754e845d9083fcca78307}{{13.3}{38}{Functions}{section*.12}{}}
\newlabel{group__schemata_ga3e1e0cf974d650010f69166d22e7d0da}{{13.3}{38}{Functions}{section*.12}{}}
\newlabel{group__schemata_ga83eaab443b166582ff8beee576b4fd51}{{13.3}{38}{Functions}{section*.12}{}}
\newlabel{group__schemata_ga21cc98547ba237fc676751c60c220415}{{13.3}{38}{Functions}{section*.12}{}}
\newlabel{group__schemata_gab750ab8b8fe56baba66c96e38398b632}{{13.3}{38}{Functions}{section*.12}{}}
\newlabel{group__schemata_gadb95b4bb9322c3e2aba43ef1663a035e}{{13.3}{38}{Functions}{section*.12}{}}
\newlabel{group__schemata_gaffac6cd8adcfb6bbb0cd9fc601d9a2e1}{{13.3}{38}{Functions}{section*.12}{}}
\newlabel{group__schemata_ga946acbddc843e4ade0b1f47bca5b0929}{{13.3}{38}{Functions}{section*.12}{}}
\newlabel{group__schemata_ga66c814d1c1c9f1a90c5fc3a1a9d89395}{{13.3}{38}{Functions}{section*.12}{}}
\newlabel{group__schemata_ga505e9ff93681bbfe5632a15708facb63}{{13.3}{38}{Functions}{section*.12}{}}
\newlabel{group__schemata_ga4c589573251ec74dbe6a3c9176c39bb7}{{13.3}{38}{Functions}{section*.12}{}}
\newlabel{group__schemata_gad46a7f821d01aed3719a585f66130e27}{{13.3}{38}{Functions}{section*.12}{}}
\newlabel{group__schemata_ga590bb9036b59d5cf81bbbedb18d19093}{{13.3}{38}{Functions}{section*.12}{}}
\newlabel{group__schemata_ga5c94f5191975a32e951e7d39ac606dc0}{{13.3}{38}{Functions}{section*.12}{}}
\newlabel{group__schemata_ga2665883ffe41001dd7c2568bc9bef02f}{{13.3}{38}{Functions}{section*.12}{}}
\newlabel{group__schemata_ga3a6ae649f73205b3390f82c3f996f6a3}{{13.3}{38}{Functions}{section*.12}{}}
\newlabel{group__schemata_gae43261a1dcc43a298836fbe62912f8a8}{{13.3}{38}{Functions}{section*.12}{}}
\newlabel{group__schemata_gad8b20db3eff6b527dbbc19bb92f2649d}{{13.3}{38}{Functions}{section*.12}{}}
\newlabel{group__schemata_gaa39a99008e7809c864be28f89c5ef79b}{{13.3}{38}{Functions}{section*.12}{}}
\newlabel{group__schemata_gaa60c0f6f8e237bad468bd8a48c3263f4}{{13.3}{38}{Functions}{section*.12}{}}
\newlabel{group__schemata_gab947b64699704a087db2eda3eb47575d}{{13.3}{39}{Functions}{section*.12}{}}
\newlabel{group__schemata_gaa509247277fd021460056bfe6484a5b4}{{13.3}{39}{Functions}{section*.12}{}}
\newlabel{group__schemata_ga6287aa82de69987b65518b4997112ac5}{{13.3}{39}{Functions}{section*.12}{}}
\newlabel{group__schemata_gaab30a1faaa381ecfabd705a8c12d179b}{{13.3}{39}{Functions}{section*.12}{}}
\newlabel{group__schemata_ga2c8c24b19312ad6436eaf76e4506e02f}{{13.3}{39}{Functions}{section*.12}{}}
\newlabel{group__schemata_ga3e74404d5f453b8eed85254791724ffe}{{13.3}{39}{Functions}{section*.12}{}}
\newlabel{group__schemata_gaf47213e6243f48f06681089e03fa08ef}{{13.3}{39}{Functions}{section*.12}{}}
\newlabel{group__schemata_gaa5b5cf5f92a0c443d4c1a1e152f9292c}{{13.3}{39}{Functions}{section*.12}{}}
\newlabel{group__schemata_ga1722ba39591c8a25ed5ee91e9e91232a}{{13.3}{39}{Functions}{section*.12}{}}
\newlabel{group__schemata_gabd744185c22c686d1c95d74523a007b3}{{13.3}{39}{Functions}{section*.12}{}}
\newlabel{group__schemata_ga0ffeaad4a7482bc302dce44a23a85a6e}{{13.3}{39}{Functions}{section*.12}{}}
\newlabel{group__schemata_ga99612639925cfc0a63a173ea167a6d3b}{{13.3}{39}{Functions}{section*.12}{}}
\newlabel{group__schemata_gaa6bf3664ce3ec4ceddc6fc0546e7af84}{{13.3}{39}{Functions}{section*.12}{}}
\newlabel{group__schemata_ga811afd94c0a2afda729115e1afade496}{{13.3}{39}{Functions}{section*.12}{}}
\newlabel{group__schemata_ga1762a1cf61c23100f58a69f092f94e27}{{13.3}{39}{Functions}{section*.12}{}}
\newlabel{group__schemata_ga7f1258e692e42b123b039e9aa1c256b8}{{13.3}{39}{Functions}{section*.12}{}}
\newlabel{group__schemata_ga73b44b2338b11807f77b620a3e810f92}{{13.3}{39}{Functions}{section*.12}{}}
\newlabel{group__schemata_ga09dca130387fcf6ead3f80cc523a59de}{{13.3}{39}{Functions}{section*.12}{}}
\newlabel{group__schemata_ga50836c0d84b3968b9ceb968521418e22}{{13.3}{39}{Functions}{section*.12}{}}
\newlabel{group__schemata_ga458b953211e3b5de292c8c1535ff7281}{{13.3}{39}{Functions}{section*.12}{}}
\newlabel{group__schemata_gaeb18d5879ecb7757b5e783866c3e6084}{{13.3}{39}{Functions}{section*.12}{}}
\newlabel{group__schemata_ga1191490a05cc7d04a9933e5d84ca9fcd}{{13.3}{39}{Functions}{section*.12}{}}
\newlabel{group__schemata_ga6d7e864cf11645e39e3999516c2438f7}{{13.3}{39}{Functions}{section*.12}{}}
\newlabel{group__schemata_ga00585e8726be305c0a0d5b9af9c585b0}{{13.3}{39}{Functions}{section*.12}{}}
\newlabel{group__schemata_ga743ca128dc509e129a49d66500a0f151}{{13.3}{39}{Functions}{section*.12}{}}
\newlabel{group__schemata_gad6ae5de36df4526b83bf7af59d178066}{{13.3}{40}{Functions}{section*.12}{}}
\newlabel{group__schemata_gaacc3c061a48c15ce02b2ead05f9bb2bf}{{13.3}{40}{Functions}{section*.12}{}}
\newlabel{group__schemata_gab94ff39ee66515e72c1c52ba855508c8}{{13.3}{40}{Functions}{section*.12}{}}
\newlabel{group__schemata_ga9719bf4a7c1e1ec8e0e1fceed8da0a11}{{13.3}{40}{Functions}{section*.12}{}}
\newlabel{group__schemata_ga6bb49bac8dc5d5dbfb955b9eaea29276}{{13.3}{40}{Functions}{section*.12}{}}
\newlabel{group__schemata_ga78ce9830cde7d7875888ab5b420beecf}{{13.3}{40}{Functions}{section*.12}{}}
\newlabel{group__schemata_gaa64b0072478e5475befdb4b0212d8e2e}{{13.3}{40}{Functions}{section*.12}{}}
\newlabel{group__schemata_ga8e4a967143877229169d6c28842185c8}{{13.3}{40}{Functions}{section*.12}{}}
\newlabel{group__schemata_gab35a1ee1d6e2b2b5d82b930b4d70340f}{{13.3}{40}{Functions}{section*.12}{}}
\newlabel{group__schemata_gadc77b77a90197483168626230fe4dbf4}{{13.3}{40}{Functions}{section*.12}{}}
\newlabel{group__schemata_ga2f4181b350f6dec7054072fcf2095834}{{13.3}{40}{Functions}{section*.12}{}}
\newlabel{group__schemata_gad9709d189b3748d2285f2a3592bed2da}{{13.3}{40}{Functions}{section*.12}{}}
\newlabel{group__schemata_ga3c5b906f3ce72168effc16b06ed1ef6c}{{13.3}{40}{Functions}{section*.12}{}}
\newlabel{group__schemata_ga5636da911ebbe8772c5444172d56800d}{{13.3}{40}{Functions}{section*.12}{}}
\newlabel{group__schemata_ga6eeb789b8c8aa8404f611a6fed61faca}{{13.3}{40}{Functions}{section*.12}{}}
\newlabel{group__schemata_gab201fee50d73843159cbef5f453838f0}{{13.3}{40}{Functions}{section*.12}{}}
\newlabel{group__schemata_gada977ff7270308f29852b59f38965bde}{{13.3}{40}{Functions}{section*.12}{}}
\newlabel{group__schemata_ga4459bd6654cbe35b39df9cade16c6d58}{{13.3}{40}{Functions}{section*.12}{}}
\newlabel{group__schemata_ga3d8d24249e26ecc8bbdaf672c6e8d3cf}{{13.3}{40}{Functions}{section*.12}{}}
\newlabel{group__schemata_ga23c3f9884c683e4bbab323208e08c672}{{13.3}{40}{Functions}{section*.12}{}}
\newlabel{group__schemata_gaf5075f5a210343d6da208f4c80421cb5}{{13.3}{40}{Functions}{section*.12}{}}
\newlabel{group__schemata_ga0f6551b20a213eb88c6a7e822ebc5915}{{13.3}{41}{Functions}{section*.12}{}}
\newlabel{group__schemata_ga8acbd7562a6f69e7634d6b9f9e341e4a}{{13.3}{41}{Functions}{section*.12}{}}
\newlabel{group__schemata_ga9370cdd31619d49bfb0b18fa6b4e13b7}{{13.3}{41}{Functions}{section*.12}{}}
\newlabel{group__schemata_ga28c9a7e35d4d516ef0f9967e773305f8}{{13.3}{41}{Functions}{section*.12}{}}
\newlabel{group__schemata_ga625d9da502c5cd554797ebe9ee9023c4}{{13.3}{41}{Functions}{section*.12}{}}
\newlabel{group__schemata_gae6fb2dbd82ed290528b90ee7bb4b6ccc}{{13.3}{41}{Functions}{section*.12}{}}
\newlabel{group__schemata_gab8ea841b4a1e71ef70d3fda927f0507d}{{13.3}{41}{Functions}{section*.12}{}}
\newlabel{group__schemata_gaea41b32c37bbe955d0359039d7731fea}{{13.3}{41}{Functions}{section*.12}{}}
\newlabel{group__schemata_ga9ef4193ae949ae7c9e52d30720e37202}{{13.3}{41}{Functions}{section*.12}{}}
\newlabel{group__schemata_gaec169477bdc2cf883916c38dbc18e577}{{13.3}{41}{Functions}{section*.12}{}}
\newlabel{group__schemata_gaf3c11e99698a2cf7ef039632dc5e2b6b}{{13.3}{41}{Functions}{section*.12}{}}
\newlabel{group__schemata_ga762b5bbee46468815993417ca9b3d9c6}{{13.3}{41}{Functions}{section*.12}{}}
\newlabel{group__schemata_gabfe48e6398d83c03161b664dadcf8fcd}{{13.3}{41}{Functions}{section*.12}{}}
\newlabel{group__schemata_gaa6598176fb91c70988bea7cf824ec157}{{13.3}{41}{Functions}{section*.12}{}}
\newlabel{group__schemata_gac842f196f85e3c3b079c7c0992173e46}{{13.3}{41}{Functions}{section*.12}{}}
\newlabel{group__schemata_gaeb713b8807bc81c6c6519ced5d531e06}{{13.3}{41}{Functions}{section*.12}{}}
\newlabel{group__schemata_gaf0a0a9f458a39032b2c653a99f609935}{{13.3}{41}{Functions}{section*.12}{}}
\newlabel{group__schemata_gaaa84e1d149651938af82e47b91888017}{{13.3}{41}{Functions}{section*.12}{}}
\newlabel{group__schemata_gad5f3fa885bb5d2be624a26e9aa50dd0b}{{13.3}{41}{Functions}{section*.12}{}}
\newlabel{group__schemata_ga3486fcb9921f3c018b931e088a53df7d}{{13.3}{41}{Functions}{section*.12}{}}
\gdef \LT@v {\LT@entry 
    {3}{29.80966pt}\LT@entry 
    {3}{349.90076pt}}
\newlabel{group__schemata_ga170bee814ca8089ab27a574b1f47281c}{{13.3}{42}{Variables}{section*.13}{}}
\@writefile{toc}{\contentsline {subsection}{\numberline {13.3.1}Detailed Description}{42}{subsection.13.3.1}}
\@writefile{toc}{\contentsline {subsection}{\numberline {13.3.2}Function Documentation}{42}{subsection.13.3.2}}
\newlabel{group__schemata_gad80378e34fdc145bd7f0dac17c306e39}{{13.3.2}{42}{Function Documentation}{subsection.13.3.2}{}}
\@writefile{toc}{\contentsline {subsubsection}{\numberline {13.3.2.1}ComboState()}{42}{subsubsection.13.3.2.1}}
\newlabel{group__schemata_ga2a6c3a5867fefdac97470fd083aaa2dd}{{13.3.2.1}{42}{\texorpdfstring {ComboState()}{ComboState()}}{subsubsection.13.3.2.1}{}}
\@writefile{toc}{\contentsline {subsubsection}{\numberline {13.3.2.2}initial()}{42}{subsubsection.13.3.2.2}}
\newlabel{group__schemata_gabc0c5bcc094646426f0a90313808907b}{{13.3.2.2}{42}{\texorpdfstring {initial()}{initial()}}{table.13.5}{}}
\@writefile{toc}{\contentsline {subsubsection}{\numberline {13.3.2.3}PreState()}{42}{subsubsection.13.3.2.3}}
\newlabel{group__schemata_ga0dc3e9cf7edbc289976639574ca23d20}{{13.3.2.3}{43}{\texorpdfstring {PreState()}{PreState()}}{subsubsection.13.3.2.3}{}}
\@writefile{toc}{\contentsline {subsubsection}{\numberline {13.3.2.4}add()\hspace  {0.1cm}{\relax \fontsize  {8}{9.5}\selectfont  \abovedisplayskip 6\p@ plus2\p@ minus4\p@ \abovedisplayshortskip \z@ plus\p@ \belowdisplayshortskip 3\p@ plus\p@ minus2\p@ \def \leftmargin \leftmargini \parsep 4\p@ plus2\p@ minus\p@ \topsep 8\p@ plus2\p@ minus4\p@ \itemsep 4\p@ plus2\p@ minus\p@ {\leftmargin \leftmargini \topsep 3\p@ plus\p@ minus\p@ \parsep 2\p@ plus\p@ minus\p@ \itemsep \parsep }\belowdisplayskip \abovedisplayskip \ttfamily  [1/3]}}{43}{subsubsection.13.3.2.4}}
\newlabel{group__schemata_ga6e08e637325ab62ee6bfbdb99c8f8a71}{{13.3.2.4}{43}{\texorpdfstring {add()}{add()}\hspace {0.1cm}{\footnotesize \ttfamily [1/3]}}{subsubsection.13.3.2.4}{}}
\@writefile{toc}{\contentsline {subsubsection}{\numberline {13.3.2.5}Transition()\hspace  {0.1cm}{\relax \fontsize  {8}{9.5}\selectfont  \abovedisplayskip 6\p@ plus2\p@ minus4\p@ \abovedisplayshortskip \z@ plus\p@ \belowdisplayshortskip 3\p@ plus\p@ minus2\p@ \def \leftmargin \leftmargini \parsep 4\p@ plus2\p@ minus\p@ \topsep 8\p@ plus2\p@ minus4\p@ \itemsep 4\p@ plus2\p@ minus\p@ {\leftmargin \leftmargini \topsep 3\p@ plus\p@ minus\p@ \parsep 2\p@ plus\p@ minus\p@ \itemsep \parsep }\belowdisplayskip \abovedisplayskip \ttfamily  [1/3]}}{43}{subsubsection.13.3.2.5}}
\newlabel{group__schemata_gad126f7c68acac0315b1782decaf54d3b}{{13.3.2.5}{43}{\texorpdfstring {Transition()}{Transition()}\hspace {0.1cm}{\footnotesize \ttfamily [1/3]}}{subsubsection.13.3.2.5}{}}
\@writefile{toc}{\contentsline {subsubsection}{\numberline {13.3.2.6}Transition()\hspace  {0.1cm}{\relax \fontsize  {8}{9.5}\selectfont  \abovedisplayskip 6\p@ plus2\p@ minus4\p@ \abovedisplayshortskip \z@ plus\p@ \belowdisplayshortskip 3\p@ plus\p@ minus2\p@ \def \leftmargin \leftmargini \parsep 4\p@ plus2\p@ minus\p@ \topsep 8\p@ plus2\p@ minus4\p@ \itemsep 4\p@ plus2\p@ minus\p@ {\leftmargin \leftmargini \topsep 3\p@ plus\p@ minus\p@ \parsep 2\p@ plus\p@ minus\p@ \itemsep \parsep }\belowdisplayskip \abovedisplayskip \ttfamily  [2/3]}}{43}{subsubsection.13.3.2.6}}
\newlabel{group__schemata_ga3c71fb93c73a755408cc963975d4ffa5}{{13.3.2.6}{43}{\texorpdfstring {Transition()}{Transition()}\hspace {0.1cm}{\footnotesize \ttfamily [2/3]}}{subsubsection.13.3.2.6}{}}
\gdef \LT@vi {\LT@entry 
    {3}{14.79794pt}\LT@entry 
    {3}{129.20842pt}}
\@writefile{toc}{\contentsline {subsubsection}{\numberline {13.3.2.7}Transition()\hspace  {0.1cm}{\relax \fontsize  {8}{9.5}\selectfont  \abovedisplayskip 6\p@ plus2\p@ minus4\p@ \abovedisplayshortskip \z@ plus\p@ \belowdisplayshortskip 3\p@ plus\p@ minus2\p@ \def \leftmargin \leftmargini \parsep 4\p@ plus2\p@ minus\p@ \topsep 8\p@ plus2\p@ minus4\p@ \itemsep 4\p@ plus2\p@ minus\p@ {\leftmargin \leftmargini \topsep 3\p@ plus\p@ minus\p@ \parsep 2\p@ plus\p@ minus\p@ \itemsep \parsep }\belowdisplayskip \abovedisplayskip \ttfamily  [3/3]}}{44}{subsubsection.13.3.2.7}}
\newlabel{group__schemata_ga97dce48d13fac75a4a444a68aae07608}{{13.3.2.7}{44}{\texorpdfstring {Transition()}{Transition()}\hspace {0.1cm}{\footnotesize \ttfamily [3/3]}}{subsubsection.13.3.2.7}{}}
\@writefile{toc}{\contentsline {subsubsection}{\numberline {13.3.2.8}label()}{44}{subsubsection.13.3.2.8}}
\newlabel{group__schemata_ga9e2e243bfa147bafd947f2cffd1da3ec}{{13.3.2.8}{44}{\texorpdfstring {label()}{label()}}{subsubsection.13.3.2.8}{}}
\@writefile{toc}{\contentsline {subsubsection}{\numberline {13.3.2.9}at()}{44}{subsubsection.13.3.2.9}}
\newlabel{group__schemata_gaba83dbc74a223a80ad7f8776847bd6c2}{{13.3.2.9}{44}{\texorpdfstring {at()}{at()}}{table.13.6}{}}
\@writefile{toc}{\contentsline {subsubsection}{\numberline {13.3.2.10}empty()}{44}{subsubsection.13.3.2.10}}
\newlabel{group__schemata_gaa719dbdab17047360e889910795a07f2}{{13.3.2.10}{44}{\texorpdfstring {empty()}{empty()}}{subsubsection.13.3.2.10}{}}
\@writefile{toc}{\contentsline {subsubsection}{\numberline {13.3.2.11}size()}{45}{subsubsection.13.3.2.11}}
\newlabel{group__schemata_ga88d07a1e47cc3ee537234861b7336dd6}{{13.3.2.11}{45}{\texorpdfstring {size()}{size()}}{subsubsection.13.3.2.11}{}}
\@writefile{toc}{\contentsline {subsubsection}{\numberline {13.3.2.12}isInitial()}{45}{subsubsection.13.3.2.12}}
\newlabel{group__schemata_ga924a1c533383a7185b9d466b59c5a495}{{13.3.2.12}{45}{\texorpdfstring {isInitial()}{isInitial()}}{subsubsection.13.3.2.12}{}}
\@writefile{toc}{\contentsline {subsubsection}{\numberline {13.3.2.13}add()\hspace  {0.1cm}{\relax \fontsize  {8}{9.5}\selectfont  \abovedisplayskip 6\p@ plus2\p@ minus4\p@ \abovedisplayshortskip \z@ plus\p@ \belowdisplayshortskip 3\p@ plus\p@ minus2\p@ \def \leftmargin \leftmargini \parsep 4\p@ plus2\p@ minus\p@ \topsep 8\p@ plus2\p@ minus4\p@ \itemsep 4\p@ plus2\p@ minus\p@ {\leftmargin \leftmargini \topsep 3\p@ plus\p@ minus\p@ \parsep 2\p@ plus\p@ minus\p@ \itemsep \parsep }\belowdisplayskip \abovedisplayskip \ttfamily  [2/3]}}{45}{subsubsection.13.3.2.13}}
\newlabel{group__schemata_ga01de1e03d09518b38ab69a2075276ae2}{{13.3.2.13}{45}{\texorpdfstring {add()}{add()}\hspace {0.1cm}{\footnotesize \ttfamily [2/3]}}{subsubsection.13.3.2.13}{}}
\@writefile{toc}{\contentsline {subsubsection}{\numberline {13.3.2.14}add()\hspace  {0.1cm}{\relax \fontsize  {8}{9.5}\selectfont  \abovedisplayskip 6\p@ plus2\p@ minus4\p@ \abovedisplayshortskip \z@ plus\p@ \belowdisplayshortskip 3\p@ plus\p@ minus2\p@ \def \leftmargin \leftmargini \parsep 4\p@ plus2\p@ minus\p@ \topsep 8\p@ plus2\p@ minus4\p@ \itemsep 4\p@ plus2\p@ minus\p@ {\leftmargin \leftmargini \topsep 3\p@ plus\p@ minus\p@ \parsep 2\p@ plus\p@ minus\p@ \itemsep \parsep }\belowdisplayskip \abovedisplayskip \ttfamily  [3/3]}}{45}{subsubsection.13.3.2.14}}
\newlabel{group__schemata_ga91e272f4f9463149cd296f48e65a4185}{{13.3.2.14}{45}{\texorpdfstring {add()}{add()}\hspace {0.1cm}{\footnotesize \ttfamily [3/3]}}{subsubsection.13.3.2.14}{}}
\@writefile{toc}{\contentsline {subsubsection}{\numberline {13.3.2.15}abstract()}{46}{subsubsection.13.3.2.15}}
\newlabel{group__schemata_ga8dfef6b591f952f0fea9dae1f5e475c7}{{13.3.2.15}{46}{\texorpdfstring {abstract()}{abstract()}}{subsubsection.13.3.2.15}{}}
\@writefile{toc}{\contentsline {subsubsection}{\numberline {13.3.2.16}CountingtoStochastic()}{46}{subsubsection.13.3.2.16}}
\newlabel{group__schemata_ga5f3a0d868bf26b504cccc53b4d55e09a}{{13.3.2.16}{46}{\texorpdfstring {CountingtoStochastic()}{CountingtoStochastic()}}{subsubsection.13.3.2.16}{}}
\@writefile{toc}{\contentsline {subsubsection}{\numberline {13.3.2.17}CountingtoPenalty()}{46}{subsubsection.13.3.2.17}}
\newlabel{group__schemata_gaff1196a45ffd1400bc4004e27b167218}{{13.3.2.17}{46}{\texorpdfstring {CountingtoPenalty()}{CountingtoPenalty()}}{subsubsection.13.3.2.17}{}}
\@writefile{toc}{\contentsline {subsubsection}{\numberline {13.3.2.18}PenaltytoCounting()}{46}{subsubsection.13.3.2.18}}
\newlabel{group__schemata_ga0bddc6750b18023be6976bd5cd46a2f5}{{13.3.2.18}{46}{\texorpdfstring {PenaltytoCounting()}{PenaltytoCounting()}}{subsubsection.13.3.2.18}{}}
\@writefile{toc}{\contentsline {subsubsection}{\numberline {13.3.2.19}StochastictoPenalty()}{46}{subsubsection.13.3.2.19}}
\@setckpt{group__schemata}{
\setcounter{page}{47}
\setcounter{equation}{0}
\setcounter{enumi}{0}
\setcounter{enumii}{0}
\setcounter{enumiii}{0}
\setcounter{enumiv}{0}
\setcounter{footnote}{0}
\setcounter{mpfootnote}{0}
\setcounter{part}{0}
\setcounter{chapter}{13}
\setcounter{section}{3}
\setcounter{subsection}{2}
\setcounter{subsubsection}{19}
\setcounter{paragraph}{0}
\setcounter{subparagraph}{0}
\setcounter{figure}{0}
\setcounter{table}{6}
\setcounter{float@type}{4}
\setcounter{LT@tables}{6}
\setcounter{LT@chunks}{3}
\setcounter{FancyVerbLine}{0}
\setcounter{@stackindex}{0}
\setcounter{ROWcellindex@}{0}
\setcounter{NAT@ctr}{0}
\setcounter{lofdepth}{1}
\setcounter{lotdepth}{1}
\setcounter{Item}{0}
\setcounter{Hfootnote}{0}
\setcounter{bookmark@seq@number}{65}
\setcounter{ContinuedFloat}{0}
\setcounter{etoc@tocid}{1}
\setcounter{etoc@tocdepth}{3}
\setcounter{section@level}{3}
}
