<?xml version="1.0" encoding="UTF-8"?>
<mei xml:id="m-fb89d346-58df-4a96-93eb-41ede789bd16" xmlns="http://www.music-encoding.org/ns/mei" meiversion="3.0.0">
	<music xml:id="m-d778a8db-9392-4424-a96f-1f24f1c86f9f">
		<body xml:id="m-9a8fe449-16d5-4ab2-9989-89e092e2f530">
			<mdiv xml:id="m-9b380aad-ae7e-433f-8a8c-0f01f7c1a087">
				<score xml:id="m-a4f0509b-1ac7-46f0-99bd-4f165f58d9e6">
					<scoreDef xml:id="m-708e3c21-3375-4904-9819-df25b7d4b3af" meter.count="2" meter.unit="4">
						<staffGrp xml:id="m-a2cc254c-b0e0-4da6-8704-4eea3f747807">
							<staffDef xml:id="m-00ae19b6-8a61-4813-8d28-d3ac902e954b" clef.line="2" clef.shape="G" lines="5" n="1" />
						</staffGrp>
					</scoreDef>
					<section xml:id="m-86d0e8bc-5420-45ce-89a9-b74764a680e4">
						<measure xml:id="1">
							<staff xml:id="m-3d4cc031-0367-4de5-a2fd-7ff2c9c25c84" n="1">
								<layer xml:id="m-8000d9db-7746-4037-aa0e-dae723309578">
									<note xml:id="m-61697395-3b61-452e-8822-0b86207fad1b" pname="g" oct="4" dur="4" />
									<beam xml:id="m-d35c8ab4-dd3c-4b09-960f-a43c6f5886d5">
										<note xml:id="m-aed6d495-c38d-4069-8779-329448870810" pname="f" oct="4" dur="8" />
										<note xml:id="m-119ed19a-9f6a-43dd-bf36-2fde91640868" pname="g" oct="4" dur="16" />
										<note xml:id="m-5b76b878-6b36-4daf-9213-73f2ec0015b1" pname="a" oct="4" dur="16" />
									</beam>
								</layer>
							</staff>
						</measure>
						<measure xml:id="2">
							<staff xml:id="m-a110eb2c-319f-4dab-a4d6-168b0fc5789b" n="1">
								<layer xml:id="m-08ae2d6b-af25-423f-8283-9227e6ac6e20">
									<note xml:id="m-e4e6dff0-d381-49c3-91d5-3bfec48c97f5" pname="g" oct="4" dur="4" />
									<beam xml:id="m-0b6e5ecf-b5d4-4f64-8793-38c9a7f0fa3c">
										<note xml:id="m-e04cbf0c-4f53-4589-b234-6d144d21daf2" pname="a" oct="4" dur="8" />
										<note xml:id="m-4896caae-310d-4c57-8db0-1909865f3c91" pname="b" oct="4" dur="8" />
									</beam>
								</layer>
							</staff>
						</measure>
						<measure xml:id="3">
							<staff xml:id="m-837eb2df-dc42-412e-b406-c08bb4864a6b" n="1">
								<layer xml:id="m-9f851a91-7cfe-4c9f-b912-b4ba1be4a406">
									<beam xml:id="m-c7da29f9-5ab8-4252-9eb1-c6017cc6c9b4">
										<note xml:id="m-7773adc1-d239-4a68-8c8d-3fef33228c0c" pname="c" oct="5" dur="8" />
										<note xml:id="m-fdcad113-b49d-4ac0-b63f-5bd56b08a52e" pname="d" oct="5" dur="16" />
										<note xml:id="m-907fc604-f091-49a7-a138-27f8c87dcfb1" pname="e" oct="5" dur="16" />
									</beam>
									<beam xml:id="m-714943a5-f6f4-449b-8337-36abb26c1975">
										<note xml:id="m-ea105a0f-f393-4717-a671-554976d11687" pname="d" oct="5" dur="8" />
										<note xml:id="m-54fa4483-9082-4908-9df9-54bb3499babb" pname="f" accid="s" oct="4" dur="8" />
									</beam>
								</layer>
							</staff>
						</measure>
						<measure xml:id="4">
							<staff xml:id="m-b7f7bf63-6ecd-4094-9162-73d9dcacd455" n="1">
								<layer xml:id="m-19e82a22-14dc-469c-be52-070f6d787631">
									<note xml:id="m-2ddbc26d-00d4-48d2-855f-bb93c26a6e89" pname="g" oct="4" dur="4" />
									<beam xml:id="m-309acc88-0d25-4572-979b-2db344dd10d7">
										<note xml:id="m-d9bb2cbd-927d-4633-9747-d1153a14b900" pname="a" oct="5" dur="16" />
										<note xml:id="m-bac0b349-6b5f-415d-ac5c-08f0610dcc56" pname="c" oct="6" dur="16" />
										<note xml:id="m-0adc0948-ae13-427f-96cb-83c26c161440" pname="b" oct="5" dur="16" />
									</beam>
									<beam xml:id="m-73de1551-3216-4dcc-8329-f214e5902f67">
										<note xml:id="m-e7b48137-d36e-473e-a8f3-d4fb4ab0e444" pname="b" oct="5" dur="16" />
										<note xml:id="m-0e469b42-8b6b-445a-a644-173104cb3c82" pname="d" oct="6" dur="16" />
										<note xml:id="m-c529674c-ab3e-4376-987f-2bab28b48c3f" pname="c" oct="6" dur="16" />
									</beam>
								</layer>
							</staff>
							<tupletSpan xml:id="m-76a75141-8382-4d00-86cb-cfda94e2deaa" startid="m-d9bb2cbd-927d-4633-9747-d1153a14b900" endid="m-0adc0948-ae13-427f-96cb-83c26c161440" plist="m-d9bb2cbd-927d-4633-9747-d1153a14b900 m-bac0b349-6b5f-415d-ac5c-08f0610dcc56 m-0adc0948-ae13-427f-96cb-83c26c161440 " num="3" numbase="2" />
							<tupletSpan xml:id="m-9332133b-3b93-4602-bf28-4a065231f7ee" startid="m-e7b48137-d36e-473e-a8f3-d4fb4ab0e444" endid="m-c529674c-ab3e-4376-987f-2bab28b48c3f" plist="m-e7b48137-d36e-473e-a8f3-d4fb4ab0e444 m-0e469b42-8b6b-445a-a644-173104cb3c82 m-c529674c-ab3e-4376-987f-2bab28b48c3f " num="3" numbase="2" />
						</measure>
						<measure xml:id="5">
							<staff xml:id="m-9e711f0d-70c5-4140-9d7b-66bdf9fc2037" n="1">
								<layer xml:id="m-0a28134e-6ebd-4a59-abf5-aabd35bde6ce">
									<beam xml:id="m-d9f057bc-e446-4c71-9a69-86dc63b8a472">
										<note xml:id="m-bb87bd7f-7911-47be-83fa-81f9a7019e1c" pname="c" oct="6" dur="16" />
										<note xml:id="m-aaeb0f96-96dd-40d4-8840-eac9653e5bca" pname="g" oct="5" dur="8" dots="1" />
									</beam>
									<beam xml:id="m-28caa550-3c07-45af-89aa-552c70379a87">
										<note xml:id="m-c0d0bb2c-0d1e-4468-af09-c55d636a6e52" pname="f" oct="5" dur="8" />
										<note xml:id="m-015e7b83-73f3-42f5-b156-c0e1d1de6cd0" pname="g" oct="5" dur="16" />
										<note xml:id="m-1cb630a4-e8be-46b8-b4a3-bdfe8d934a26" pname="a" oct="5" dur="16" />
									</beam>
								</layer>
							</staff>
						</measure>
						<measure xml:id="6">
							<staff xml:id="m-60210f7d-7fb9-430c-8b3e-589414a50131" n="1">
								<layer xml:id="m-02a6db1d-dff4-4b3e-906d-1c1531a7e5f2">
									<beam xml:id="m-d4e63021-ef99-4f94-8720-f69c2b39b29f">
										<note xml:id="m-0279082f-e8d9-4cf7-b19a-d34184b1bcb2" pname="f" accid="s" oct="5" dur="16" />
										<note xml:id="m-5106389e-a0e2-4d06-afa5-88b20945e471" pname="g" oct="5" dur="8" dots="1" />
									</beam>
									<beam xml:id="m-a7e6d241-b025-4851-b7bd-b0f8fbfc4052">
										<note xml:id="m-9779d0cb-a206-45e1-93ca-c09d30a6e683" pname="a" oct="5" dur="16" />
										<note xml:id="m-a2f94cc2-9ee9-4008-ad40-e2920e7eb9fa" pname="c" oct="6" dur="16" />
										<note xml:id="m-5cbf56b5-e0c4-48a5-91a3-1253be05e326" pname="b" oct="5" dur="16" />
									</beam>
									<beam xml:id="m-b497316d-429e-4a7e-b79a-f16b7d51db1c">
										<note xml:id="m-998c2fe1-2481-4383-8f44-18a9c129d99b" pname="b" oct="5" dur="16" />
										<note xml:id="m-c3e1af30-9a12-4bf7-a069-8aa5803360a4" pname="d" oct="6" dur="16" />
										<note xml:id="m-2bd5524e-acb0-47b0-a7a1-c47bcd4bb04f" pname="c" oct="6" dur="16" />
									</beam>
								</layer>
							</staff>
							<tupletSpan xml:id="m-73576077-09cc-4d94-9a4b-afe8bccd10c0" startid="m-9779d0cb-a206-45e1-93ca-c09d30a6e683" endid="m-5cbf56b5-e0c4-48a5-91a3-1253be05e326" plist="m-9779d0cb-a206-45e1-93ca-c09d30a6e683 m-a2f94cc2-9ee9-4008-ad40-e2920e7eb9fa m-5cbf56b5-e0c4-48a5-91a3-1253be05e326 " num="3" numbase="2" />
							<tupletSpan xml:id="m-2b0e6dca-7199-485b-9a8d-e27e8ce88a8b" startid="m-998c2fe1-2481-4383-8f44-18a9c129d99b" endid="m-2bd5524e-acb0-47b0-a7a1-c47bcd4bb04f" plist="m-998c2fe1-2481-4383-8f44-18a9c129d99b m-c3e1af30-9a12-4bf7-a069-8aa5803360a4 m-2bd5524e-acb0-47b0-a7a1-c47bcd4bb04f " num="3" numbase="2" />
						</measure>
						<measure xml:id="7">
							<staff xml:id="m-da71b148-ffbb-4a9d-8514-63d101edeb63" n="1">
								<layer xml:id="m-3e87068d-03ca-44a5-ba07-a5e09225152d">
									<beam xml:id="m-75adb235-1a6a-4cf7-9eba-00db6cbbece8">
										<note xml:id="m-3b4ce9e8-eae9-481a-a1b6-3f471a4f74ed" pname="c" oct="6" dur="8" />
										<note xml:id="m-b3295142-7314-4265-a109-fd64dc74cd07" pname="d" oct="6" dur="16" />
										<note xml:id="m-33e026c9-c12e-4c4f-ad07-583aa17edd46" pname="e" oct="6" dur="16" />
									</beam>
									<beam xml:id="m-c12f2c8e-1e0c-4f83-a8e1-19d04ea06905">
										<note xml:id="m-d89ff6f1-b796-48f8-a91d-ac40b9c33d6a" pname="e" oct="6" dur="16" />
										<note xml:id="m-f3ea6035-c3fd-4c40-9cc2-7cdb18cad627" pname="d" oct="6" dur="16" />
										<note xml:id="m-30179c39-b924-4902-8069-e6900ce42129" pname="f" accid="s" oct="5" dur="8" />
									</beam>
								</layer>
							</staff>
						</measure>
						<measure xml:id="8">
							<staff xml:id="m-594f3166-b66b-4820-8618-e2e96308a08a" n="1">
								<layer xml:id="m-8768439c-bdf2-44ec-82a6-f7a7877a26f2">
									<note xml:id="m-46ee67c1-d80d-4622-b25a-9de049fa5ab9" pname="g" oct="5" dur="4" />
									<beam xml:id="m-647797d8-f860-4155-bba2-76cfae3cc30e">
										<note xml:id="m-9d922e85-eb92-4dbc-9b15-b08964cf7e26" pname="d" oct="5" dur="16" />
										<note xml:id="m-973e88d0-8011-407c-ad5d-c19e5fe78875" pname="f" oct="5" dur="16" />
										<note xml:id="m-a17cd9d0-469b-45b3-b66d-e02b395f3d63" pname="e" oct="5" dur="16" />
									</beam>
									<beam xml:id="m-a54248e5-d5ee-4663-ba2a-53b54feeb788">
										<note xml:id="m-c24a366f-2033-4edd-8ad0-32cf209aef0b" pname="e" oct="5" dur="16" />
										<note xml:id="m-3cec6cee-edcc-491c-b258-acda03fa039d" pname="g" oct="5" dur="16" />
										<note xml:id="m-14b151de-589c-435d-83ba-662b2c573f01" pname="f" oct="5" dur="16" />
									</beam>
								</layer>
							</staff>
							<tupletSpan xml:id="m-960dcfe4-2d72-4c47-987f-edb450e5c5ff" startid="m-9d922e85-eb92-4dbc-9b15-b08964cf7e26" endid="m-a17cd9d0-469b-45b3-b66d-e02b395f3d63" plist="m-9d922e85-eb92-4dbc-9b15-b08964cf7e26 m-973e88d0-8011-407c-ad5d-c19e5fe78875 m-a17cd9d0-469b-45b3-b66d-e02b395f3d63 " num="3" numbase="2" />
							<tupletSpan xml:id="m-95b64a2d-a14c-4605-ac52-f34c40daf1ed" startid="m-c24a366f-2033-4edd-8ad0-32cf209aef0b" endid="m-14b151de-589c-435d-83ba-662b2c573f01" plist="m-c24a366f-2033-4edd-8ad0-32cf209aef0b m-3cec6cee-edcc-491c-b258-acda03fa039d m-14b151de-589c-435d-83ba-662b2c573f01 " num="3" numbase="2" />
						</measure>
						<measure xml:id="9">
							<staff xml:id="m-73ae5e99-abe3-4585-877c-cb0b61774da2" n="1">
								<layer xml:id="m-5e15644a-1199-4848-a4d0-0ff39f2335ad">
									<beam xml:id="m-f6271fac-0be2-48ff-b0ce-e2a2f28b86be">
										<note xml:id="m-73bb43e9-cad0-446f-9005-deed454a1f4e" pname="f" oct="5" dur="8" />
										<note xml:id="m-45321eaa-fd1a-4f71-8e11-37ff96285da0" pname="g" oct="4" dur="8" />
									</beam>
									<beam xml:id="m-9266833d-c921-42af-8699-23a13568b17e">
										<note xml:id="m-68a8fa51-5a8c-45eb-82b1-30e8e85df686" pname="e" oct="5" dur="16" />
										<note xml:id="m-91b01b8e-b503-489d-aac3-b3e7d6c676ae" pname="g" oct="5" dur="16" />
										<note xml:id="m-562a2eb6-cca0-4627-aa4c-42e32525fec5" pname="f" oct="5" dur="16" />
									</beam>
									<beam xml:id="m-7c3460b4-5d27-4948-8985-2dc1fbc2b39b">
										<note xml:id="m-395a5df2-ba7e-49ca-bd15-ebadc05112b0" pname="f" oct="5" dur="16" />
										<note xml:id="m-0de3b969-db02-4369-91e6-02b8d2377250" pname="a" oct="5" dur="16" />
										<note xml:id="m-b4417a1b-3557-4fb7-8c61-68311dc95255" pname="g" oct="5" dur="16" />
									</beam>
								</layer>
							</staff>
							<tupletSpan xml:id="m-1cbba4c2-29e4-45c6-89ed-2807cd77b064" startid="m-68a8fa51-5a8c-45eb-82b1-30e8e85df686" endid="m-562a2eb6-cca0-4627-aa4c-42e32525fec5" plist="m-68a8fa51-5a8c-45eb-82b1-30e8e85df686 m-91b01b8e-b503-489d-aac3-b3e7d6c676ae m-562a2eb6-cca0-4627-aa4c-42e32525fec5 " num="3" numbase="2" />
							<tupletSpan xml:id="m-0cdc7511-2be6-48ac-8fd4-7ac2f8c7ec60" startid="m-395a5df2-ba7e-49ca-bd15-ebadc05112b0" endid="m-b4417a1b-3557-4fb7-8c61-68311dc95255" plist="m-395a5df2-ba7e-49ca-bd15-ebadc05112b0 m-0de3b969-db02-4369-91e6-02b8d2377250 m-b4417a1b-3557-4fb7-8c61-68311dc95255 " num="3" numbase="2" />
						</measure>
						<measure xml:id="10">
							<staff xml:id="m-ca91c9fd-db9f-4df2-81dc-de6f5bf09e91" n="1">
								<layer xml:id="m-439da795-f446-4911-a1da-09e674ec2321">
									<beam xml:id="m-7fecff2c-95c6-4b28-a154-873484927507">
										<note xml:id="m-7a8f3b5e-681d-4d81-a7f2-7e72ec24bdb9" pname="g" oct="5" dur="16" />
										<note xml:id="m-03ef6f64-a09e-4399-bde0-e13f6c33aa67" pname="g" oct="4" dur="16" />
										<note xml:id="m-aadf7a3c-f3f1-458c-82bb-77ab7e4c84cd" pname="g" oct="5" dur="8" />
									</beam>
									<beam xml:id="m-d2ef4468-945c-45e7-a7c5-0bd8d0211b23">
										<note xml:id="m-3118936d-2789-4e9c-afeb-feb1451baa69" pname="g" oct="5" dur="16" />
										<note xml:id="m-96a9c209-a7ae-4dd7-a6bf-703caa11157a" pname="f" oct="5" dur="16" />
										<note xml:id="m-ef4cec92-6b6e-4df9-8f91-3d45920781e2" pname="e" oct="5" dur="8" />
									</beam>
								</layer>
							</staff>
						</measure>
						<measure xml:id="11">
							<staff xml:id="m-0d063653-b15d-4782-8474-c02d3f9684d2" n="1">
								<layer xml:id="m-ed8e24be-4825-429f-bc35-b071ceaff584">
									<beam xml:id="m-da8a49c1-b543-436b-9b7e-410efeb3b51f">
										<note xml:id="m-9c5094e8-50e8-41d3-bb52-3bb2053e7662" pname="d" oct="5" dur="8" />
										<note xml:id="m-43a5558e-c7a5-4116-aeaa-69b424a46426" pname="e" oct="5" dur="8" />
									</beam>
									<beam xml:id="m-b7c88aa6-bf5b-45cf-b371-dcff8048a34d">
										<note xml:id="m-00a2e362-9136-48c3-ab07-20c9583952df" pname="g" oct="5" dur="16" />
										<note xml:id="m-f0fad5af-b34c-473c-8577-055cd9db9864" pname="f" oct="5" dur="16" />
										<note xml:id="m-4240dfda-9d1e-4100-a973-1f8504e5212f" pname="e" oct="5" dur="8" />
									</beam>
								</layer>
							</staff>
						</measure>
						<measure xml:id="12">
							<staff xml:id="m-3e14ab32-2e44-4ab5-8e26-b33ef3c4ddfb" n="1">
								<layer xml:id="m-e474aa40-ac50-4209-8766-e15aaf4ecce3">
									<note xml:id="m-b2461b4a-d11a-434c-a6ce-6792c676a1f7" pname="c" oct="5" dur="2" />
								</layer>
							</staff>
						</measure>
					</section>
				</score>
			</mdiv>
		</body>
	</music>
</mei>
