<?xml version="1.0" encoding="UTF-8"?>
<mei xml:id="m-2123f9d6-1aae-4c42-80ab-bf606a21946d" xmlns="http://www.music-encoding.org/ns/mei" meiversion="3.0.0">
	<music xml:id="m-8b0a1ed2-4a47-4833-bb3b-a64e2b18eec0">
		<body xml:id="m-0bb7f973-4f34-4808-9402-efa51f5c0bf6">
			<mdiv xml:id="m-a3616676-5cbe-44b6-9568-47d4f0fa4120">
				<score xml:id="m-a671c085-3eac-4b35-b5be-58a7f6a5da79">
					<scoreDef xml:id="m-7579b1b8-ec2e-42e2-9c35-afa01cdc2b14" meter.count="2" meter.unit="4">
						<staffGrp xml:id="m-962b0fd2-768f-46f4-afa0-7f8355a8256a">
							<staffDef xml:id="m-b55138db-0ad1-4cc8-ab59-510c17062e6c" clef.line="2" clef.shape="G" lines="5" n="1" />
						</staffGrp>
					</scoreDef>
					<section xml:id="m-90379631-b799-46d7-9a88-7769dc86f73c">
						<measure xml:id="1">
							<staff xml:id="m-cb4bdce2-b1e0-4a5b-bd17-5183f39874bf" n="1">
								<layer xml:id="m-fd91457d-139f-4654-a7a2-e6de64314563">
									<beam xml:id="m-30b1216e-112c-43d5-ad61-3b92b7d1cff6">
										<note xml:id="m-1fba2d93-9550-4ada-ab33-90bac588cdb1" pname="a" oct="3" dur="8" />
										<note xml:id="m-46f638f0-a11f-4437-ac85-b65fa5c83797" pname="a" oct="3" dur="16" />
										<note xml:id="m-e1215166-258b-46ba-8761-1ee04a77ca48" pname="b" oct="3" dur="16" />
									</beam>
									<beam xml:id="m-99447305-7215-4150-ab43-2158752ed407">
										<note xml:id="m-c5b4b462-1a65-4882-8a22-6e1e93d64a09" pname="d" accid="f" oct="4" dur="8" />
										<note xml:id="m-3118edfa-23d7-4825-92be-c7eb1ac5ee88" pname="a" oct="3" dur="8" />
									</beam>
								</layer>
							</staff>
						</measure>
						<measure xml:id="2">
							<tie xml:id="m-4ec630a6-28f8-4e97-8431-4a8fdc98f066" startid="m-dc465418-8733-4f00-8c24-23de3f00a31b" endid="m-7d399087-f786-40af-9441-f1370fd74257" />
							<staff xml:id="m-39c13cad-c090-4f4e-8be5-96286d8d5937" n="1">
								<layer xml:id="m-f9302a99-12ee-41c2-b19a-86669b464560">
									<beam xml:id="m-6dce2122-4fd9-4b91-a540-c442f9e01e1a">
										<note xml:id="m-d20abd8c-6c69-446d-8d77-0bb6849ccf55" pname="f" accid="s" oct="3" dur="8" />
										<note xml:id="m-dc465418-8733-4f00-8c24-23de3f00a31b" pname="b" oct="3" dur="8" />
									</beam>
									<note xml:id="m-7d399087-f786-40af-9441-f1370fd74257" pname="b" oct="3" dur="4" />
								</layer>
							</staff>
						</measure>
						<measure xml:id="3">
							<staff xml:id="m-8418d94f-f709-47a9-b2bf-fa0aa0e0272e" n="1">
								<layer xml:id="m-54aa4eb6-bd6c-49a5-b045-1da3a0f8d827">
									<beam xml:id="m-609340a9-ca24-4803-a69e-e2588383d497">
										<note xml:id="m-9aa2e0da-e1d4-4cc0-a051-50ae14be5e06" pname="a" accid="f" oct="3" dur="8" />
										<note xml:id="m-2ecda664-9a3b-4067-a0c2-0241b7b9b3d1" pname="a" accid="f" oct="3" dur="16" />
										<note xml:id="m-301d63c6-c525-41ea-8ca5-8e3c22d263a5" pname="a" accid="f" oct="3" dur="16" />
									</beam>
									<beam xml:id="m-e93f23ad-84d4-44f0-8a9e-0503cbcac704">
										<note xml:id="m-5b2b0763-5e7a-41e6-83c4-d256d0bdb78d" pname="a" oct="3" dur="8" />
										<note xml:id="m-32107791-9d3b-48bd-8584-2b2faf27c715" pname="b" oct="3" dur="8" />
									</beam>
								</layer>
							</staff>
						</measure>
						<measure xml:id="4">
							<staff xml:id="m-824351d8-c1e8-4e6d-b4f9-5765fa582acb" n="1">
								<layer xml:id="m-7b3a1ba6-6503-47b0-82da-7660a0c795ff">
									<note xml:id="m-2272c7df-ae2b-48e7-8672-00462e71a3d7" pname="e" oct="3" dur="2" />
								</layer>
							</staff>
						</measure>
						<measure xml:id="5">
							<staff xml:id="m-5ec261b5-a577-485c-bb74-887f92283cee" n="1">
								<layer xml:id="m-b4059176-e5e8-45ea-a0f8-38360c7d2450">
									<beam xml:id="m-d5dd6d7f-d826-4dba-9eb3-8eb69a4c6ec3">
										<note xml:id="m-240dd771-e5bf-4ef5-afc5-1ecc61ccfb84" pname="a" oct="3" dur="8" />
										<note xml:id="m-71f50a36-7762-4dc7-a331-1adffc90ba92" pname="a" oct="3" dur="8" />
										<note xml:id="m-4b83bd1a-9f75-43eb-9572-a9da53a7ef67" pname="b" oct="3" dur="8" />
									</beam>
									<beam xml:id="m-8bedcefb-c0f8-400e-8bf9-15e63608ce99">
										<note xml:id="m-eaba93cb-808d-45d3-95e3-5c1c7443d9a4" pname="d" accid="f" oct="4" dur="8" />
										<note xml:id="m-31a589f7-2673-40a2-91fd-00623c2994d3" pname="a" oct="3" dur="8" />
									</beam>
								</layer>
							</staff>
							<tupletSpan xml:id="m-8259c6fd-84b7-44f6-8366-4739cd6837f3" startid="m-240dd771-e5bf-4ef5-afc5-1ecc61ccfb84" endid="m-4b83bd1a-9f75-43eb-9572-a9da53a7ef67" plist="m-240dd771-e5bf-4ef5-afc5-1ecc61ccfb84 m-71f50a36-7762-4dc7-a331-1adffc90ba92 m-4b83bd1a-9f75-43eb-9572-a9da53a7ef67 " num="3" numbase="2" />
						</measure>
						<measure xml:id="6">
							<tie xml:id="m-1fd69aa0-bec7-4347-9d04-c6dc131f8887" startid="m-0ed04ab6-943a-47ff-951f-a7ee742e4557" endid="m-b06651c2-f5b7-4f8d-8fc7-1ce903023481" />
							<staff xml:id="m-c6824f5b-c2ad-4b2b-9664-38827f559dfe" n="1">
								<layer xml:id="m-20900642-9507-4e6c-81a1-70de01fda3dd">
									<beam xml:id="m-b608a6b8-4e2e-4fb2-b93f-1fafb311b9ea">
										<note xml:id="m-7b006c06-6498-4aa8-8946-16bddd6300f8" pname="f" accid="s" oct="3" dur="8" />
										<note xml:id="m-0ed04ab6-943a-47ff-951f-a7ee742e4557" pname="b" oct="3" dur="8" />
									</beam>
									<beam xml:id="m-0ae6b15c-c640-45c9-a40e-7bd18dd82a6c">
										<note xml:id="m-b06651c2-f5b7-4f8d-8fc7-1ce903023481" pname="b" oct="3" dur="8" />
										<note xml:id="m-2fbbdfc2-8909-46bc-8227-ab1572864c59" pname="a" oct="3" dur="16" />
										<note xml:id="m-4700f7f5-05d1-46a1-ad07-04e067c66958" pname="a" oct="3" dur="16" />
									</beam>
								</layer>
							</staff>
						</measure>
						<measure xml:id="7">
							<staff xml:id="m-94c9f97b-e850-4616-a489-f61722dc287d" n="1">
								<layer xml:id="m-51e49874-cae6-45af-8a8b-9665b0e36fe9">
									<beam xml:id="m-7e42474c-6010-42c0-8fda-6e8ac6b06c8f">
										<note xml:id="m-61b96543-2287-45a0-8643-7d35f38b276c" pname="a" accid="f" oct="3" dur="8" />
										<note xml:id="m-f71f998a-c519-4fba-81d5-b9c3708dfdbe" pname="f" accid="s" oct="3" dur="16" />
										<note xml:id="m-b927915a-b97a-452c-9cb7-ff11a70ad1cd" pname="e" oct="3" dur="16" />
									</beam>
									<beam xml:id="m-abf70b08-2816-4250-bfd7-4f6ded2a21fc">
										<note xml:id="m-30560846-5e93-4417-a375-880181b1e823" pname="e" oct="3" dur="8" />
										<note xml:id="m-39abd57d-9eeb-4b7c-81aa-cd0c36334606" pname="f" accid="s" oct="3" dur="16" />
										<note xml:id="m-88f62700-7ca5-4d34-a472-72e09a6e4bc8" pname="a" accid="f" oct="3" dur="16" />
									</beam>
								</layer>
							</staff>
						</measure>
						<measure xml:id="8">
							<tie xml:id="m-21ed0c3e-bce1-4ef5-813e-899cd5800986" startid="m-b3e33fd2-eef7-4a6f-86a1-08fb355969ea" endid="m-50be34e9-b9a4-42f9-bb31-ab57264604e9" />
							<tie xml:id="m-1f3fee1f-e1ea-4179-8ab9-121d3f0d8c9f" startid="m-50be34e9-b9a4-42f9-bb31-ab57264604e9" endid="m-a21e7766-608c-4b6e-81cf-a54a30d488d7" />
							<staff xml:id="m-1fff946b-a16e-4f05-bcc3-05ce1017046e" n="1">
								<layer xml:id="m-95c090bd-9a09-49bb-98b3-67bf6dfb852c">
									<note xml:id="m-b3e33fd2-eef7-4a6f-86a1-08fb355969ea" pname="a" oct="3" dur="4" />
									<beam xml:id="m-0bef3230-9128-4347-b818-9e0656ac6139">
										<note xml:id="m-50be34e9-b9a4-42f9-bb31-ab57264604e9" pname="a" oct="3" dur="8" />
										<note xml:id="m-a21e7766-608c-4b6e-81cf-a54a30d488d7" pname="a" oct="3" dur="16" />
										<note xml:id="m-1d7f1363-829b-40a2-bb52-ec1819e21b13" pname="e" oct="4" dur="16" />
									</beam>
								</layer>
							</staff>
						</measure>
						<measure xml:id="9">
							<tie xml:id="m-7b346b1d-7ba8-419e-97ee-1175202d76f6" startid="m-7a42b324-98b4-4675-8377-88dd670615ce" endid="m-a7dcd888-b7ca-4380-8c07-b804e87a87c5" />
							<staff xml:id="m-6d7bc742-c19d-4515-a1cb-a520b52c6e38" n="1">
								<layer xml:id="m-e9bd2491-e857-4c57-979f-4f2db2102d0c">
									<beam xml:id="m-12238b38-06d5-48fd-b5f2-c74f853c76e5">
										<note xml:id="m-7a42b324-98b4-4675-8377-88dd670615ce" pname="a" oct="4" dur="8" />
										<note xml:id="m-a7dcd888-b7ca-4380-8c07-b804e87a87c5" pname="a" oct="4" dur="16" />
										<note xml:id="m-deac7144-d6cd-49db-90cd-281f0aac8da3" pname="b" oct="4" dur="16" />
									</beam>
									<beam xml:id="m-a5624c89-0f21-42da-ad3a-950d1a798f4f">
										<note xml:id="m-cf6dcb3d-e29a-4ec5-82e7-e2e92a340012" pname="c" accid="s" oct="5" dur="8" />
										<note xml:id="m-2a032030-5141-40c5-a669-8355cc601b34" pname="a" oct="4" dur="8" />
									</beam>
								</layer>
							</staff>
						</measure>
						<measure xml:id="10">
							<tie xml:id="m-354f8633-3e98-4560-b731-acf01d536c24" startid="m-4472d59f-e952-48a8-8df5-ac8864b4cab7" endid="m-3f5d89b8-2d99-4c27-957b-5afbba7eaba4" />
							<staff xml:id="m-ca75f65e-9b58-4e76-a3be-b5fbefbcd864" n="1">
								<layer xml:id="m-abe6a77c-fae3-4c2d-ac99-7af403baf9c2">
									<beam xml:id="m-3036129a-add5-4c7e-9a96-e4ed30e2249f">
										<note xml:id="m-90db9e14-f0f4-4a82-b08d-5bacb8b5d018" pname="f" accid="s" oct="4" dur="8" />
										<note xml:id="m-4472d59f-e952-48a8-8df5-ac8864b4cab7" pname="b" oct="4" dur="8" />
									</beam>
									<beam xml:id="m-bbdcab4e-c29b-40e1-8c22-6e302bf83147">
										<note xml:id="m-3f5d89b8-2d99-4c27-957b-5afbba7eaba4" pname="b" oct="4" dur="8" />
										<note xml:id="m-6c4ae667-8469-464f-9cf3-232e4714b691" pname="a" oct="4" dur="8" />
									</beam>
								</layer>
							</staff>
						</measure>
						<measure xml:id="11">
							<tie xml:id="m-a989ff0d-7808-403b-8fcd-eb988d2a3bf1" startid="m-be58a514-2667-4a33-94ff-a14c367ad968" endid="m-1c2f346f-4f04-4320-8295-a9fb70cd27db" />
							<staff xml:id="m-ebd950b9-a233-4340-84e4-aa45fb99a9b8" n="1">
								<layer xml:id="m-bfb2cf9f-952f-4d71-af8b-6e614b167a17">
									<beam xml:id="m-4581a8c3-7509-42bc-84b1-b7042a260939">
										<note xml:id="m-be58a514-2667-4a33-94ff-a14c367ad968" pname="a" accid="f" oct="4" dur="8" />
										<note xml:id="m-1c2f346f-4f04-4320-8295-a9fb70cd27db" pname="a" accid="f" oct="4" dur="16" />
										<note xml:id="m-c2e41afc-c972-46e1-9418-c5517e3ed901" pname="a" accid="f" oct="4" dur="16" />
									</beam>
									<beam xml:id="m-78e0cabe-7ae4-4159-bbe3-7f7fbb1d4f3c">
										<note xml:id="m-5f0e0dce-235a-49b4-be8e-cedb6bef874d" pname="a" oct="4" dur="8" />
										<note xml:id="m-a75eb7f9-cfce-4029-8de8-789cd9e9f582" pname="b" oct="4" dur="8" />
									</beam>
								</layer>
							</staff>
						</measure>
						<measure xml:id="12">
							<tie xml:id="m-164e736e-9d6b-470c-bcce-69d012478557" startid="m-baf3ef2c-58cd-484f-8624-2fa1095f7775" endid="m-cd478cf9-4a42-4dde-849d-9ee7c6591639" />
							<tie xml:id="m-c2bfecb7-66ff-407d-8962-d45da5825556" startid="m-cd478cf9-4a42-4dde-849d-9ee7c6591639" endid="m-0c821cc8-55de-45be-9bd7-41bd9e31c395" />
							<staff xml:id="m-e6c57667-0b9f-448a-b809-134e90f1ebed" n="1">
								<layer xml:id="m-9c446b8a-2b7d-4034-94dc-67d67d09d676">
									<note xml:id="m-33a59213-1aa4-41bf-ae1f-25335b4cdc70" pname="b" oct="4" dur="4" grace="acc" />
									<note xml:id="m-baf3ef2c-58cd-484f-8624-2fa1095f7775" pname="e" oct="4" dur="4" />
									<beam xml:id="m-4178f9a9-17b9-46bf-9b2d-666a1bfde850">
										<note xml:id="m-cd478cf9-4a42-4dde-849d-9ee7c6591639" pname="e" oct="4" dur="8" />
										<note xml:id="m-0c821cc8-55de-45be-9bd7-41bd9e31c395" pname="e" oct="4" dur="16" />
										<note xml:id="m-5c7c3a1e-02d0-415e-91da-b8bfd42f0284" pname="e" oct="4" dur="16" />
									</beam>
								</layer>
							</staff>
						</measure>
						<measure xml:id="13">
							<staff xml:id="m-18bc0731-c139-4b59-a659-bc1c104f485b" n="1">
								<layer xml:id="m-74494632-bcfe-41dc-a303-91ac034bc4cd">
									<beam xml:id="m-f5ef6cb8-b1a2-4554-bc7b-174fef5cc1be">
										<note xml:id="m-74bb4fc4-3fd3-48b4-bd35-b31bb6e8d7b5" pname="a" oct="4" dur="8" />
										<note xml:id="m-cd3647a4-a02f-4efe-95ec-7e6f94347695" pname="b" oct="4" dur="8" />
									</beam>
									<beam xml:id="m-acbc097e-1614-4e66-a5a0-8d401a872871">
										<note xml:id="m-d78c4a3b-70fb-4b3f-b89d-bbe72f22be80" pname="c" accid="s" oct="5" dur="8" />
										<note xml:id="m-2eb950ca-f58a-4e07-b85b-cece7209dae3" pname="a" oct="4" dur="8" />
									</beam>
								</layer>
							</staff>
						</measure>
						<measure xml:id="14">
							<tie xml:id="m-39ff8cb8-2e83-4082-8da7-77277dc1b48c" startid="m-4741ee90-a76b-45f3-9f3a-cec913608969" endid="m-2c9df9b2-d46c-4c08-bbc3-69369f7dbb77" />
							<staff xml:id="m-9a255e7d-5535-4fe9-8264-811464388569" n="1">
								<layer xml:id="m-89639b48-b17a-477c-a945-cd256ac02f08">
									<beam xml:id="m-58a408e6-9acc-4c6e-a943-7b7ace74ffae">
										<note xml:id="m-9f085d4c-484b-4cab-9df5-5810d9ddbd89" pname="f" accid="s" oct="4" dur="8" />
										<note xml:id="m-4741ee90-a76b-45f3-9f3a-cec913608969" pname="b" oct="4" dur="8" />
									</beam>
									<beam xml:id="m-5e3c5bdd-3438-48a1-b161-0ce114e7be45">
										<note xml:id="m-2c9df9b2-d46c-4c08-bbc3-69369f7dbb77" pname="b" oct="4" dur="8" />
										<note xml:id="m-fa1ba485-892e-4d63-accc-697d9b7f4441" pname="a" oct="4" dur="8" />
									</beam>
								</layer>
							</staff>
						</measure>
						<measure xml:id="15">
							<staff xml:id="m-5f7211a6-5c65-4e6b-84b4-bc5bacfa9cd9" n="1">
								<layer xml:id="m-3bdf823f-2fe4-4a0e-a4d4-e4da8db82ca3">
									<beam xml:id="m-c210d5ae-de97-4f46-8b5b-8538672aebf9">
										<note xml:id="m-7bf5081f-87db-4d26-8c83-356933c66d23" pname="a" oct="4" dur="16" />
										<note xml:id="m-275d9f25-bf2f-4ffb-ad67-19144f67e83a" pname="g" accid="s" oct="4" dur="16" />
										<note xml:id="m-14af8561-163a-408e-8e95-760bd8081789" pname="f" accid="s" oct="4" dur="8" />
										<note xml:id="m-a3561c0a-e846-4979-a4ae-681e2b8ba2b6" pname="e" oct="4" dur="8" />
									</beam>
									<beam xml:id="m-bc8866af-ef15-4b3f-b880-a06b2cc926da">
										<note xml:id="m-5f373a7b-793d-4e4f-9906-ac416f117361" pname="e" oct="4" dur="8" />
										<note xml:id="m-8bed6139-3244-4119-a4e8-2ab45b1f6ce3" pname="f" accid="s" oct="4" dur="16" />
										<note xml:id="m-2c83cda1-458c-49c9-96dd-a1b5ed6393a0" pname="g" accid="s" oct="4" dur="16" />
									</beam>
								</layer>
							</staff>
							<tupletSpan xml:id="m-eade4085-44c3-42d9-8b96-51a9912a4de4" startid="m-7bf5081f-87db-4d26-8c83-356933c66d23" endid="m-a3561c0a-e846-4979-a4ae-681e2b8ba2b6" plist="m-7bf5081f-87db-4d26-8c83-356933c66d23 m-275d9f25-bf2f-4ffb-ad67-19144f67e83a m-14af8561-163a-408e-8e95-760bd8081789 m-a3561c0a-e846-4979-a4ae-681e2b8ba2b6 " num="3" numbase="4" />
						</measure>
						<measure xml:id="16">
							<tie xml:id="m-a74880bc-048c-47f3-850c-e415467ffeee" startid="m-8ac894b8-085d-4e29-94d3-1b300fa05d2c" endid="m-d257efb4-3684-44e8-8765-f31bf8f0d58b" />
							<staff xml:id="m-e10cac1a-2fe3-44c1-b270-91fea6ab03b3" n="1">
								<layer xml:id="m-d51ae69e-3757-4c98-b969-998c574147db">
									<beam xml:id="m-66c6f6f4-ed42-490b-9a07-b5ff562f0cb1">
										<note xml:id="m-c7a9c351-a6ac-46a0-876e-e835b654a28b" pname="a" oct="4" dur="16" />
										<note xml:id="m-44353be6-c786-4601-a7cb-20f296e9b8a7" pname="c" accid="s" oct="5" dur="16" />
										<note xml:id="m-8ac894b8-085d-4e29-94d3-1b300fa05d2c" pname="e" oct="5" dur="8" />
									</beam>
									<beam xml:id="m-8f0dfb4d-7e99-45eb-aa69-cb44e5bfb6b9">
										<note xml:id="m-d257efb4-3684-44e8-8765-f31bf8f0d58b" pname="e" oct="5" dur="8" />
										<note xml:id="m-2b3d0d69-34ad-45c3-b2bc-e3c2c1de1d9f" pname="b" oct="4" dur="8" />
									</beam>
								</layer>
							</staff>
						</measure>
						<measure xml:id="17">
							<tie xml:id="m-e71a9f27-e0ab-45c2-9793-366d45a60163" startid="m-dd523265-5b0c-4c1f-a041-8f40bf5a46cb" endid="m-eac91df5-b464-434d-b8a0-eba3055578fa" />
							<staff xml:id="m-c960628e-7e93-4798-8221-998c7e2f7503" n="1">
								<layer xml:id="m-e35649a2-7386-499c-bc16-c4b904c26b76">
									<beam xml:id="m-b7cbf94c-4a90-4737-9fd3-283a25b79d45">
										<note xml:id="m-f7e184e4-6f1d-46fc-b381-9682a719fd80" pname="d" oct="5" dur="8" />
										<note xml:id="m-4a3f97ca-db88-40d6-b7c5-6c6534e9774a" pname="c" accid="s" oct="5" dur="8" />
										<note xml:id="m-1af12583-aa38-42fd-9e1e-3200673a7278" pname="b" oct="4" dur="16" />
										<note xml:id="m-a7fec5c5-9301-45a9-9970-e32d5efb3fd5" pname="a" oct="4" dur="16" />
									</beam>
									<beam xml:id="m-4460768e-5e92-4fb0-a5a5-119bff5d360b">
										<note xml:id="m-dd523265-5b0c-4c1f-a041-8f40bf5a46cb" pname="a" oct="4" dur="8" />
										<note xml:id="m-eac91df5-b464-434d-b8a0-eba3055578fa" pname="a" oct="4" dur="8" />
										<note xml:id="m-42f3d598-c8ad-4fb1-93fd-e2eb698efb2f" pname="c" accid="s" oct="5" dur="16" />
										<note xml:id="m-5f569884-fe12-4a5e-8435-2f8e47a6e545" pname="b" oct="4" dur="16" />
									</beam>
								</layer>
							</staff>
							<tupletSpan xml:id="m-372a247e-d517-4a08-b53f-5a317257ee95" startid="m-f7e184e4-6f1d-46fc-b381-9682a719fd80" endid="m-a7fec5c5-9301-45a9-9970-e32d5efb3fd5" plist="m-f7e184e4-6f1d-46fc-b381-9682a719fd80 m-4a3f97ca-db88-40d6-b7c5-6c6534e9774a m-1af12583-aa38-42fd-9e1e-3200673a7278 m-a7fec5c5-9301-45a9-9970-e32d5efb3fd5 " num="3" numbase="4" />
							<tupletSpan xml:id="m-b10f836c-2fda-4ec9-9936-aaea56d77132" startid="m-dd523265-5b0c-4c1f-a041-8f40bf5a46cb" endid="m-5f569884-fe12-4a5e-8435-2f8e47a6e545" plist="m-dd523265-5b0c-4c1f-a041-8f40bf5a46cb m-eac91df5-b464-434d-b8a0-eba3055578fa m-42f3d598-c8ad-4fb1-93fd-e2eb698efb2f m-5f569884-fe12-4a5e-8435-2f8e47a6e545 " num="3" numbase="4" />
						</measure>
						<measure xml:id="18">
							<staff xml:id="m-992f9ebc-d882-48db-901d-daba427f1d2a" n="1">
								<layer xml:id="m-448c0f61-c415-4402-91e6-f4347ac63821">
									<note xml:id="m-95a64dd5-c4df-44e4-a073-1fec8087146d" pname="a" oct="4" dur="2" />
								</layer>
							</staff>
						</measure>
					</section>
				</score>
			</mdiv>
		</body>
	</music>
</mei>
